
<svg xmlns="http://www.w3.org/2000/svg" version="1.1" xmlns:xlink="http://www.w3.org/1999/xlink" preserveAspectRatio="none" x="0px" y="0px" width="300px" height="50px" viewBox="0 0 300 50">
<defs>
<g id="CM_300x50_Mobile_psd_Asset_Frame_1_THE_SECRET_TO_WINNING_0_Layer0_0_MEMBER_0_FILL">
<path fill="#FFFFFF" stroke="none" d="
M 0.35 5.95
L 6.95 5.95 6.95 28.5 11.85 28.5 11.85 5.95 18.45 5.95 18.45 1.6 0.35 1.6 0.35 5.95 Z"/>
</g>

<g id="CM_300x50_Mobile_psd_Asset_Frame_1_THE_SECRET_TO_WINNING_0_Layer0_0_MEMBER_1_FILL">
<path fill="#FFFFFF" stroke="none" d="
M 41.15 28.5
L 41.15 1.6 36.35 1.6 36.35 13.25 27.85 13.25 27.85 1.6 23.1 1.6 23.1 28.5 27.85 28.5 27.85 17.6 36.35 17.6 36.35 28.5 41.15 28.5 Z"/>
</g>

<g id="CM_300x50_Mobile_psd_Asset_Frame_1_THE_SECRET_TO_WINNING_0_Layer0_0_MEMBER_2_FILL">
<path fill="#FFFFFF" stroke="none" d="
M 59.85 5.95
L 59.85 1.6 46.6 1.6 46.6 28.5 60.5 28.5 60.5 24.15 51.35 24.15 51.35 16.95 58.5 16.95 58.5 12.8 51.35 12.8 51.35 5.95 59.85 5.95 Z"/>
</g>

<g id="CM_300x50_Mobile_psd_Asset_Frame_1_THE_SECRET_TO_WINNING_0_Layer0_0_MEMBER_3_FILL">
<path fill="#FFFFFF" stroke="none" d="
M 89.55 3.25
Q 88.5 2.5 87.7 2.1 87.05 1.8 85.75 1.4 84.8 1.2 83.85 1.2 82.15 1.2 80.45 1.6 78.9 2.05 77.75 2.95 76.6 3.9 76.05 5.2 75.4 6.5 75.4 8.35 75.4 10.05 75.9 11.25 76.45 12.5 77.2 13.4 77.9 14.25 78.9 15
L 80.6 16.2 82.6 17.25
Q 83.7 17.8 84.6 18.4 85.5 18.95 86.2 19.75 86.9 20.55 86.9 21.45 86.9 23.2 85.95 23.85 85 24.45 83.25 24.45 81.3 24.45 80.15 23.55 79.05 22.7 78.2 20.95
L 74.5 23.85
Q 75.8 26.55 78.2 27.7 80.45 28.8 83.45 28.8 85.2 28.8 86.7 28.35 88.3 27.8 89.35 26.95 90.5 25.95 91.15 24.65 91.8 23.2 91.8 21.5 91.8 19.85 91.45 18.45 91.15 17.4 90.45 16.4 89.95 15.7 88.95 14.95
L 87.05 13.6 85.35 12.7
Q 84.6 12.35 83.1 11.45 82 10.8 81.15 9.95 80.3 9.1 80.3 8.25 80.3 6.75 81.05 6.15 81.8 5.55 83.3 5.55 83.95 5.55 84.7 5.8
L 86.1 6.5 87.35 7.4
Q 88.1 8.05 88.35 8.4
L 91.15 4.75
Q 90.5 4 89.55 3.25 Z"/>
</g>

<g id="CM_300x50_Mobile_psd_Asset_Frame_1_THE_SECRET_TO_WINNING_0_Layer0_0_MEMBER_4_FILL">
<path fill="#FFFFFF" stroke="none" d="
M 108.15 16.95
L 108.15 12.8 101 12.8 101 5.95 109.5 5.95 109.5 1.6 96.25 1.6 96.25 28.5 110.2 28.5 110.2 24.15 101 24.15 101 16.95 108.15 16.95 Z"/>
</g>

<g id="CM_300x50_Mobile_psd_Asset_Frame_1_THE_SECRET_TO_WINNING_0_Layer0_0_MEMBER_5_FILL">
<path fill="#FFFFFF" stroke="none" d="
M 123.1 5.55
Q 124.9 5.55 126.15 6.4 127.25 7.15 127.9 8.15
L 131 5.1
Q 130.35 4.05 129.5 3.3 128.6 2.45 127.75 2.05 126.6 1.55 125.65 1.4 124.65 1.2 123.1 1.2 121.2 1.2 119.55 1.75 117.85 2.35 116.75 3.4 115.65 4.4 114.9 6 114.25 7.45 114.25 9.4
L 114.25 20.65
Q 114.25 24.8 116.65 26.8 119.15 28.9 123.15 28.9 125.4 28.9 127.4 28.1 129.3 27.25 130.9 25.55
L 128 22.1 126.95 23.1
Q 126.55 23.5 125.95 23.85 125.5 24.2 124.75 24.35 124.15 24.55 123.15 24.55 119.15 24.55 119.15 20.65
L 119.15 9.4
Q 119.15 7.55 120.2 6.55 121.3 5.55 123.1 5.55 Z"/>
</g>

<g id="CM_300x50_Mobile_psd_Asset_Frame_1_THE_SECRET_TO_WINNING_0_Layer0_0_MEMBER_6_FILL">
<path fill="#FFFFFF" stroke="none" d="
M 149.9 3.25
Q 148.1 1.6 144.5 1.6
L 135.5 1.6 135.5 28.5 140.4 28.5 140.4 17.55 142.65 17.55 147.65 28.5 152.65 28.5 147.4 17.05
Q 149.45 16.25 150.6 14.8 151.75 13.35 151.75 11.05
L 151.75 8.45
Q 151.75 4.9 149.9 3.25
M 144.45 5.95
Q 145.7 5.95 146.3 6.55 146.85 7.2 146.85 8.45
L 146.85 11
Q 146.85 12.2 146.2 12.7 145.65 13.2 144.5 13.2
L 140.4 13.2 140.4 5.95 144.45 5.95 Z"/>
</g>

<g id="CM_300x50_Mobile_psd_Asset_Frame_1_THE_SECRET_TO_WINNING_0_Layer0_0_MEMBER_7_FILL">
<path fill="#FFFFFF" stroke="none" d="
M 170.9 28.5
L 170.9 24.15 161.7 24.15 161.7 16.95 168.85 16.95 168.85 12.8 161.7 12.8 161.7 5.95 170.2 5.95 170.2 1.6 156.95 1.6 156.95 28.5 170.9 28.5 Z"/>
</g>

<g id="CM_300x50_Mobile_psd_Asset_Frame_1_THE_SECRET_TO_WINNING_0_Layer0_0_MEMBER_8_FILL">
<path fill="#FFFFFF" stroke="none" d="
M 174.1 5.95
L 180.65 5.95 180.65 28.5 185.55 28.5 185.55 5.95 192.2 5.95 192.2 1.6 174.1 1.6 174.1 5.95 Z"/>
</g>

<g id="CM_300x50_Mobile_psd_Asset_Frame_1_THE_SECRET_TO_WINNING_0_Layer0_0_MEMBER_9_FILL">
<path fill="#FFFFFF" stroke="none" d="
M 203.9 5.95
L 210.45 5.95 210.45 28.5 215.35 28.5 215.35 5.95 222 5.95 222 1.6 203.9 1.6 203.9 5.95 Z"/>
</g>

<g id="CM_300x50_Mobile_psd_Asset_Frame_1_THE_SECRET_TO_WINNING_0_Layer0_0_MEMBER_10_FILL">
<path fill="#FFFFFF" stroke="none" d="
M 244.45 9.4
Q 244.45 7.55 243.75 5.9 243 4.35 241.75 3.35 240.55 2.3 238.85 1.75 237.25 1.2 235.2 1.2
L 234.65 1.2
Q 232.8 1.2 231.05 1.75 229.4 2.3 228.1 3.4 226.85 4.4 226.1 5.95 225.4 7.5 225.4 9.4
L 225.4 20.65
Q 225.4 22.8 226.1 24.2 226.75 25.7 228 26.8 229.3 27.9 230.95 28.4 232.85 28.9 234.7 28.9
L 235.2 28.9
Q 237.1 28.9 238.85 28.35 240.45 27.85 241.8 26.75 243.1 25.7 243.75 24.2 244.45 22.8 244.45 20.65
L 244.45 9.4
M 238.3 6.55
Q 239.55 7.5 239.55 9.4
L 239.55 20.65
Q 239.55 22.7 238.4 23.6 237.25 24.55 235.2 24.55
L 234.7 24.55
Q 232.65 24.55 231.5 23.6 230.3 22.7 230.3 20.65
L 230.3 9.4
Q 230.3 7.5 231.55 6.55 232.75 5.55 234.65 5.55
L 235.2 5.55
Q 237.05 5.55 238.3 6.55 Z"/>
</g>

<g id="CM_300x50_Mobile_psd_Asset_Frame_1_THE_SECRET_TO_WINNING_0_Layer0_0_MEMBER_11_FILL">
<path fill="#FFFFFF" stroke="none" d="
M 274.65 1.6
L 269.85 1.6 266.1 19.65 262.8 1.6 257.9 1.6 263.2 28.5 268.55 28.5 272.25 11.1 276.05 28.5 281.35 28.5 286.2 1.6 281.25 1.6 278.5 19.7 274.65 1.6 Z"/>
</g>

<g id="CM_300x50_Mobile_psd_Asset_Frame_1_THE_SECRET_TO_WINNING_0_Layer0_0_MEMBER_12_FILL">
<path fill="#FFFFFF" stroke="none" d="
M 291.25 1.6
L 291.25 28.5 296.15 28.5 296.15 1.6 291.25 1.6 Z"/>
</g>

<g id="CM_300x50_Mobile_psd_Asset_Frame_1_THE_SECRET_TO_WINNING_0_Layer0_0_MEMBER_13_FILL">
<path fill="#FFFFFF" stroke="none" d="
M 316.95 1.6
L 316.95 23.4 309.3 1.6 302.25 1.6 302.25 28.5 306.6 28.5 306.6 7.1 313.55 28.5 321.3 28.5 321.3 1.6 316.95 1.6 Z"/>
</g>

<g id="CM_300x50_Mobile_psd_Asset_Frame_1_THE_SECRET_TO_WINNING_0_Layer0_0_MEMBER_14_FILL">
<path fill="#FFFFFF" stroke="none" d="
M 341.4 1.6
L 341.4 23.4 333.75 1.6 326.7 1.6 326.7 28.5 331.05 28.5 331.05 7.1 338 28.5 345.75 28.5 345.75 1.6 341.4 1.6 Z"/>
</g>

<g id="CM_300x50_Mobile_psd_Asset_Frame_1_THE_SECRET_TO_WINNING_0_Layer0_0_MEMBER_15_FILL">
<path fill="#FFFFFF" stroke="none" d="
M 351.85 1.6
L 351.85 28.5 356.75 28.5 356.75 1.6 351.85 1.6 Z"/>
</g>

<g id="CM_300x50_Mobile_psd_Asset_Frame_1_THE_SECRET_TO_WINNING_0_Layer0_0_MEMBER_16_FILL">
<path fill="#FFFFFF" stroke="none" d="
M 377.55 1.6
L 377.55 23.4 369.9 1.6 362.85 1.6 362.85 28.5 367.2 28.5 367.2 7.1 374.1 28.5 381.9 28.5 381.9 1.6 377.55 1.6 Z"/>
</g>

<g id="CM_300x50_Mobile_psd_Asset_Frame_1_THE_SECRET_TO_WINNING_0_Layer0_0_MEMBER_17_FILL">
<path fill="#FFFFFF" stroke="none" d="
M 400.7 2.2
Q 398.85 1.2 395.95 1.2 394.1 1.2 392.35 1.75 390.6 2.4 389.45 3.4 388.2 4.4 387.5 6 386.8 7.4 386.8 9.4
L 386.8 20.65
Q 386.8 22.75 387.5 24.2 388.15 25.65 389.4 26.75 390.6 27.8 392.3 28.35 394.1 28.9 395.95 28.9 398.45 28.9 400.55 28 402.7 27.2 404.6 25.5
L 404.6 13.6 395.5 13.6 395.5 17.55 399.75 17.55 399.75 23.4
Q 398.9 24.1 397.95 24.35 396.85 24.55 395.95 24.55 394 24.55 392.75 23.6 391.55 22.65 391.55 20.65
L 391.55 9.4
Q 391.55 7.6 392.8 6.55 394.1 5.55 395.95 5.55 397.4 5.55 398.7 6.4 400.05 7.3 401.05 8.45
L 404.1 5.05
Q 402.7 3.2 400.7 2.2 Z"/>
</g>
</defs>

<g transform="matrix( 1, 0, 0, 1, 72,20) ">
<g transform="matrix( 0.388671875, 0, 0, 0.391632080078125, 0,-0.05) ">
<use xlink:href="#CM_300x50_Mobile_psd_Asset_Frame_1_THE_SECRET_TO_WINNING_0_Layer0_0_MEMBER_0_FILL"/>
</g>

<g transform="matrix( 0.388671875, 0, 0, 0.391632080078125, 0,-0.05) ">
<use xlink:href="#CM_300x50_Mobile_psd_Asset_Frame_1_THE_SECRET_TO_WINNING_0_Layer0_0_MEMBER_1_FILL"/>
</g>

<g transform="matrix( 0.388671875, 0, 0, 0.391632080078125, 0,-0.05) ">
<use xlink:href="#CM_300x50_Mobile_psd_Asset_Frame_1_THE_SECRET_TO_WINNING_0_Layer0_0_MEMBER_2_FILL"/>
</g>

<g transform="matrix( 0.388671875, 0, 0, 0.391632080078125, 0,-0.05) ">
<use xlink:href="#CM_300x50_Mobile_psd_Asset_Frame_1_THE_SECRET_TO_WINNING_0_Layer0_0_MEMBER_3_FILL"/>
</g>

<g transform="matrix( 0.388671875, 0, 0, 0.391632080078125, 0,-0.05) ">
<use xlink:href="#CM_300x50_Mobile_psd_Asset_Frame_1_THE_SECRET_TO_WINNING_0_Layer0_0_MEMBER_4_FILL"/>
</g>

<g transform="matrix( 0.388671875, 0, 0, 0.391632080078125, 0,-0.05) ">
<use xlink:href="#CM_300x50_Mobile_psd_Asset_Frame_1_THE_SECRET_TO_WINNING_0_Layer0_0_MEMBER_5_FILL"/>
</g>

<g transform="matrix( 0.388671875, 0, 0, 0.391632080078125, 0,-0.05) ">
<use xlink:href="#CM_300x50_Mobile_psd_Asset_Frame_1_THE_SECRET_TO_WINNING_0_Layer0_0_MEMBER_6_FILL"/>
</g>

<g transform="matrix( 0.388671875, 0, 0, 0.391632080078125, 0,-0.05) ">
<use xlink:href="#CM_300x50_Mobile_psd_Asset_Frame_1_THE_SECRET_TO_WINNING_0_Layer0_0_MEMBER_7_FILL"/>
</g>

<g transform="matrix( 0.388671875, 0, 0, 0.391632080078125, 0,-0.05) ">
<use xlink:href="#CM_300x50_Mobile_psd_Asset_Frame_1_THE_SECRET_TO_WINNING_0_Layer0_0_MEMBER_8_FILL"/>
</g>

<g transform="matrix( 0.388671875, 0, 0, 0.391632080078125, 0,-0.05) ">
<use xlink:href="#CM_300x50_Mobile_psd_Asset_Frame_1_THE_SECRET_TO_WINNING_0_Layer0_0_MEMBER_9_FILL"/>
</g>

<g transform="matrix( 0.388671875, 0, 0, 0.391632080078125, 0,-0.05) ">
<use xlink:href="#CM_300x50_Mobile_psd_Asset_Frame_1_THE_SECRET_TO_WINNING_0_Layer0_0_MEMBER_10_FILL"/>
</g>

<g transform="matrix( 0.388671875, 0, 0, 0.391632080078125, 0,-0.05) ">
<use xlink:href="#CM_300x50_Mobile_psd_Asset_Frame_1_THE_SECRET_TO_WINNING_0_Layer0_0_MEMBER_11_FILL"/>
</g>

<g transform="matrix( 0.388671875, 0, 0, 0.391632080078125, 0,-0.05) ">
<use xlink:href="#CM_300x50_Mobile_psd_Asset_Frame_1_THE_SECRET_TO_WINNING_0_Layer0_0_MEMBER_12_FILL"/>
</g>

<g transform="matrix( 0.388671875, 0, 0, 0.391632080078125, 0,-0.05) ">
<use xlink:href="#CM_300x50_Mobile_psd_Asset_Frame_1_THE_SECRET_TO_WINNING_0_Layer0_0_MEMBER_13_FILL"/>
</g>

<g transform="matrix( 0.388671875, 0, 0, 0.391632080078125, 0,-0.05) ">
<use xlink:href="#CM_300x50_Mobile_psd_Asset_Frame_1_THE_SECRET_TO_WINNING_0_Layer0_0_MEMBER_14_FILL"/>
</g>

<g transform="matrix( 0.388671875, 0, 0, 0.391632080078125, 0,-0.05) ">
<use xlink:href="#CM_300x50_Mobile_psd_Asset_Frame_1_THE_SECRET_TO_WINNING_0_Layer0_0_MEMBER_15_FILL"/>
</g>

<g transform="matrix( 0.388671875, 0, 0, 0.391632080078125, 0,-0.05) ">
<use xlink:href="#CM_300x50_Mobile_psd_Asset_Frame_1_THE_SECRET_TO_WINNING_0_Layer0_0_MEMBER_16_FILL"/>
</g>

<g transform="matrix( 0.388671875, 0, 0, 0.391632080078125, 0,-0.05) ">
<use xlink:href="#CM_300x50_Mobile_psd_Asset_Frame_1_THE_SECRET_TO_WINNING_0_Layer0_0_MEMBER_17_FILL"/>
</g>
</g>
</svg>
