
<svg xmlns="http://www.w3.org/2000/svg" version="1.1" xmlns:xlink="http://www.w3.org/1999/xlink" preserveAspectRatio="none" x="0px" y="0px" width="300px" height="600px" viewBox="0 0 300 600">
<defs>
<g id="CM_300x600_Generic_psd_Asset_Frame_3_SHOW_US_YOUR_PREGAME_RITUAL_AND_YOU_COULD_WIN__5_000__0_Layer0_0_MEMBER_0_FILL">
<path fill="#FFFFFF" stroke="none" d="
M 23.45 21.95
L 20.6 19.95
Q 19.75 19.3 18.15 18.6
L 14.8 16.8
Q 13 15.65 11.95 14.6 10.75 13.4 10.75 12.05 10.75 9.8 11.85 9 12.9 8.1 15.15 8.1 16.2 8.1 17.15 8.55 18.15 8.9 19.2 9.55 20.35 10.25 21.05 10.9 21.9 11.55 22.5 12.3
L 26.65 6.95
Q 25.6 5.75 24.3 4.75 22.9 3.75 21.55 3.1 20.05 2.4 18.7 2.1 17.3 1.75 15.9 1.75 13.1 1.75 10.95 2.4 8.7 3 7 4.3 5.45 5.65 4.45 7.6 3.55 9.55 3.55 12.25 3.55 14.7 4.3 16.5 5.1 18.4 6.2 19.65 7.3 21 8.65 21.95
L 11.2 23.75
Q 12.5 24.5 14.05 25.25 15.95 26.2 17.05 27 18.4 27.85 19.4 29 20.35 30 20.35 31.45 20.35 34.05 18.95 34.95 17.6 35.85 15.05 35.85 12.2 35.85 10.55 34.5 8.85 33.2 7.65 30.7
L 2.2 35
Q 4.25 39 7.65 40.6 11.1 42.25 15.4 42.25 17.8 42.25 20.15 41.55 22.3 40.9 24 39.5 25.65 38.1 26.6 36.1 27.55 34.2 27.55 31.5 27.55 28.7 27.05 27.05 26.55 25.35 25.6 24.1 24.7 22.85 23.45 21.95 Z"/>
</g>

<g id="CM_300x600_Generic_psd_Asset_Frame_3_SHOW_US_YOUR_PREGAME_RITUAL_AND_YOU_COULD_WIN__5_000__0_Layer0_0_MEMBER_1_FILL">
<path fill="#FFFFFF" stroke="none" d="
M 53.95 19.45
L 41.55 19.45 41.55 2.3 34.55 2.3 34.55 41.75 41.55 41.75 41.55 25.8 53.95 25.8 53.95 41.75 61 41.75 61 2.3 53.95 2.3 53.95 19.45 Z"/>
</g>

<g id="CM_300x600_Generic_psd_Asset_Frame_3_SHOW_US_YOUR_PREGAME_RITUAL_AND_YOU_COULD_WIN__5_000__0_Layer0_0_MEMBER_2_FILL">
<path fill="#FFFFFF" stroke="none" d="
M 87.55 2.55
Q 85.15 1.75 82.25 1.75
L 81.45 1.75
Q 78.5 1.75 76.15 2.6 73.7 3.4 71.85 4.95 70 6.5 68.95 8.75 67.85 10.9 67.85 13.75
L 67.85 30.3
Q 67.85 33.25 68.9 35.5 69.9 37.85 71.75 39.3 73.5 40.85 76.05 41.6 78.55 42.35 81.5 42.35
L 82.25 42.35
Q 85.25 42.35 87.6 41.55 90.15 40.8 91.9 39.25 93.7 37.85 94.8 35.5 95.85 33.25 95.85 30.3
L 95.85 13.75
Q 95.85 11 94.75 8.65 93.7 6.45 91.85 4.9 90 3.35 87.55 2.55
M 86.8 9.6
Q 88.65 11.1 88.65 13.8
L 88.65 30.3
Q 88.65 33.2 86.95 34.6 85.25 35.95 82.25 35.95
L 81.5 35.95
Q 78.6 35.95 76.85 34.6 75.05 33.25 75.05 30.3
L 75.05 13.75
Q 75.05 11.05 76.9 9.55 78.75 8.1 81.45 8.1
L 82.25 8.1
Q 85 8.1 86.8 9.6 Z"/>
</g>

<g id="CM_300x600_Generic_psd_Asset_Frame_3_SHOW_US_YOUR_PREGAME_RITUAL_AND_YOU_COULD_WIN__5_000__0_Layer0_0_MEMBER_3_FILL">
<path fill="#FFFFFF" stroke="none" d="
M 130.45 28.9
L 124.85 2.3 117.75 2.3 112.3 28.85 107.45 2.3 100.25 2.3 108 41.75 115.85 41.75 121.3 16.3 126.85 41.75 134.65 41.75 141.8 2.3 134.5 2.3 130.45 28.9 Z"/>
</g>

<g id="CM_300x600_Generic_psd_Asset_Frame_3_SHOW_US_YOUR_PREGAME_RITUAL_AND_YOU_COULD_WIN__5_000__0_Layer0_0_MEMBER_4_FILL">
<path fill="#FFFFFF" stroke="none" d="
M 190.5 2.3
L 183.35 2.3 183.35 29.9
Q 183.35 33 181.55 34.5 179.9 35.95 176.7 35.95 173.55 35.95 171.95 34.5 170.2 33 170.2 29.9
L 170.2 2.3 163 2.3 163 29.9
Q 163 32.9 164 35.3 165 37.7 166.8 39.2 168.7 40.8 171.15 41.55 173.6 42.35 176.75 42.35 179.95 42.35 182.35 41.55 184.9 40.75 186.7 39.15 188.5 37.55 189.5 35.3 190.5 33.1 190.5 29.9
L 190.5 2.3 Z"/>
</g>

<g id="CM_300x600_Generic_psd_Asset_Frame_3_SHOW_US_YOUR_PREGAME_RITUAL_AND_YOU_COULD_WIN__5_000__0_Layer0_0_MEMBER_5_FILL">
<path fill="#FFFFFF" stroke="none" d="
M 216 3.1
Q 214.5 2.4 213.15 2.1 211.75 1.75 210.35 1.75 207.55 1.75 205.4 2.4 203.15 3 201.45 4.3 199.9 5.65 198.9 7.6 198 9.55 198 12.25 198 14.7 198.75 16.5 199.55 18.35 200.6 19.65 201.85 21.05 203.1 21.95
L 205.65 23.75 208.5 25.25
Q 210.15 26.05 211.5 27 212.85 27.85 213.85 29 214.8 30 214.8 31.45 214.8 34.05 213.4 34.95 212.05 35.85 209.45 35.85 206.7 35.85 204.95 34.5 203.35 33.25 202.1 30.7
L 196.65 35
Q 198.7 39.05 202.1 40.6 205.55 42.25 209.8 42.25 212.25 42.25 214.6 41.55 216.75 40.9 218.45 39.5 220.1 38.1 221.05 36.1 222 34.2 222 31.5 222 28.7 221.5 27.05 221 25.35 220.05 24.1 219.15 22.85 217.9 21.95
L 215.05 19.95
Q 214.2 19.3 212.6 18.6 211 17.85 209.25 16.8 207.45 15.65 206.4 14.6 205.2 13.4 205.2 12.05 205.2 9.8 206.3 9 207.35 8.1 209.6 8.1 210.55 8.1 211.6 8.55 212.6 8.9 213.65 9.55 214.8 10.25 215.5 10.9 216.1 11.35 216.95 12.3
L 221.1 6.95
Q 220.05 5.75 218.75 4.75 217.35 3.75 216 3.1 Z"/>
</g>

<g id="CM_300x600_Generic_psd_Asset_Frame_3_SHOW_US_YOUR_PREGAME_RITUAL_AND_YOU_COULD_WIN__5_000__0_Layer0_0_MEMBER_6_FILL">
<path fill="#FFFFFF" stroke="none" d="
M 252 26.15
L 252 41.75 259.2 41.75 259.2 26.2 270.7 2.3 262.9 2.3 255.6 18.85 248.45 2.3 240.7 2.3 252 26.15 Z"/>
</g>

<g id="CM_300x600_Generic_psd_Asset_Frame_3_SHOW_US_YOUR_PREGAME_RITUAL_AND_YOU_COULD_WIN__5_000__0_Layer0_0_MEMBER_7_FILL">
<path fill="#FFFFFF" stroke="none" d="
M 293.95 2.55
Q 291.55 1.75 288.65 1.75
L 287.85 1.75
Q 284.85 1.75 282.5 2.6 280.1 3.4 278.25 4.95 276.45 6.45 275.3 8.75 274.25 10.95 274.25 13.75
L 274.25 30.3
Q 274.25 33.2 275.25 35.5 276.35 37.85 278.1 39.3 279.95 40.85 282.45 41.6 284.95 42.35 287.9 42.35
L 288.65 42.35
Q 291.6 42.35 294 41.55 296.55 40.8 298.3 39.25 300.15 37.7 301.15 35.5 302.2 33.25 302.2 30.3
L 302.2 13.75
Q 302.2 10.9 301.15 8.65 300.15 6.55 298.25 4.9 296.3 3.35 293.95 2.55
M 293.2 9.6
Q 295 11.1 295 13.8
L 295 30.3
Q 295 33.25 293.3 34.6 291.6 35.95 288.65 35.95
L 287.9 35.95
Q 285 35.95 283.2 34.6 281.45 33.25 281.45 30.3
L 281.45 13.75
Q 281.45 11.05 283.25 9.55 285.15 8.1 287.85 8.1
L 288.65 8.1
Q 291.4 8.1 293.2 9.6 Z"/>
</g>

<g id="CM_300x600_Generic_psd_Asset_Frame_3_SHOW_US_YOUR_PREGAME_RITUAL_AND_YOU_COULD_WIN__5_000__0_Layer0_0_MEMBER_8_FILL">
<path fill="#FFFFFF" stroke="none" d="
M 329.3 2.3
L 329.3 29.9
Q 329.3 33 327.5 34.5 325.85 35.95 322.7 35.95 319.55 35.95 317.9 34.5 316.2 33 316.2 29.9
L 316.2 2.3 309 2.3 309 29.9
Q 309 33.05 309.95 35.3 311.1 37.85 312.8 39.2 314.65 40.8 317.15 41.55 319.55 42.35 322.75 42.35 325.9 42.35 328.35 41.55 330.85 40.7 332.65 39.15 334.45 37.55 335.45 35.3 336.5 33 336.5 29.9
L 336.5 2.3 329.3 2.3 Z"/>
</g>

<g id="CM_300x600_Generic_psd_Asset_Frame_3_SHOW_US_YOUR_PREGAME_RITUAL_AND_YOU_COULD_WIN__5_000__0_Layer0_0_MEMBER_9_FILL">
<path fill="#FFFFFF" stroke="none" d="
M 366.25 21.7
Q 367.9 19.6 367.9 16.2
L 367.9 12.4
Q 367.9 7.25 365.2 4.75 362.45 2.3 357.3 2.3
L 344.05 2.3 344.05 41.75 351.25 41.75 351.25 25.75 354.55 25.75 361.9 41.75 369.25 41.75 361.5 25
Q 364.6 23.8 366.25 21.7
M 351.25 19.4
L 351.25 8.7 357.2 8.7
Q 359.1 8.7 359.9 9.6 360.7 10.45 360.7 12.35
L 360.7 16.15
Q 360.7 17.8 359.75 18.6 358.8 19.4 357.3 19.4
L 351.25 19.4 Z"/>
</g>

<g id="CM_300x600_Generic_psd_Asset_Frame_3_SHOW_US_YOUR_PREGAME_RITUAL_AND_YOU_COULD_WIN__5_000__0_Layer0_0_MEMBER_10_FILL">
<path fill="#FFFFFF" stroke="none" d="
M 15.3 65.95
L 3.7 65.95 3.7 105.4 10.9 105.4 10.9 90.9 15.45 90.9
Q 17.6 90.9 19.55 90.35 21.4 89.8 22.9 88.6 24.35 87.45 25.1 85.75 25.95 83.95 25.95 81.75
L 25.95 75.75
Q 25.95 70.75 23.1 68.35 20.25 65.95 15.3 65.95
M 15.3 72.35
Q 17.2 72.35 17.95 73.15 18.75 73.95 18.75 75.8
L 18.75 81.7
Q 18.75 83.35 17.85 83.95 17.05 84.5 15.3 84.5
L 10.9 84.5 10.9 72.35 15.3 72.35 Z"/>
</g>

<g id="CM_300x600_Generic_psd_Asset_Frame_3_SHOW_US_YOUR_PREGAME_RITUAL_AND_YOU_COULD_WIN__5_000__0_Layer0_0_MEMBER_11_FILL">
<path fill="#FFFFFF" stroke="none" d="
M 53.45 68.4
Q 50.8 65.95 45.55 65.95
L 32.3 65.95 32.3 105.4 39.5 105.4 39.5 89.4 42.8 89.4 50.2 105.4 57.5 105.4 49.8 88.65
Q 52.85 87.45 54.5 85.35 56.15 83.25 56.15 79.8
L 56.15 76.05
Q 56.15 70.8 53.45 68.4
M 39.5 83
L 39.5 72.35 45.5 72.35
Q 47.35 72.35 48.15 73.25 48.95 74.1 48.95 76
L 48.95 79.75
Q 48.95 81.45 48.05 82.25 47.15 83 45.55 83
L 39.5 83 Z"/>
</g>

<g id="CM_300x600_Generic_psd_Asset_Frame_3_SHOW_US_YOUR_PREGAME_RITUAL_AND_YOU_COULD_WIN__5_000__0_Layer0_0_MEMBER_12_FILL">
<path fill="#FFFFFF" stroke="none" d="
M 82.95 72.35
L 82.95 65.95 63.5 65.95 63.5 105.4 83.9 105.4 83.9 99.05 70.45 99.05 70.45 88.45 80.95 88.45 80.95 82.4 70.45 82.4 70.45 72.35 82.95 72.35 Z"/>
</g>

<g id="CM_300x600_Generic_psd_Asset_Frame_3_SHOW_US_YOUR_PREGAME_RITUAL_AND_YOU_COULD_WIN__5_000__0_Layer0_0_MEMBER_13_FILL">
<path fill="#FFFFFF" stroke="none" d="
M 109.9 66.85
Q 107.15 65.4 102.9 65.4 100.05 65.4 97.65 66.2 95.1 67.15 93.4 68.65 91.65 70.1 90.55 72.45 89.5 74.65 89.5 77.45
L 89.5 93.9
Q 89.5 96.85 90.55 99.1 91.5 101.3 93.35 102.9 95.25 104.5 97.6 105.2 100 106 102.95 106 106.5 106 109.7 104.7 112.9 103.4 115.6 101
L 115.6 83.6 102.3 83.6 102.3 89.4 108.55 89.4 108.55 97.95
Q 107 99.1 105.9 99.3 104.65 99.6 102.95 99.6 100 99.6 98.25 98.2 96.5 96.9 96.5 93.9
L 96.5 77.45
Q 96.5 74.75 98.35 73.25 100.15 71.75 102.9 71.75 105 71.75 107 73.05 109.1 74.4 110.4 76
L 114.85 71.05
Q 112.85 68.35 109.9 66.85 Z"/>
</g>

<g id="CM_300x600_Generic_psd_Asset_Frame_3_SHOW_US_YOUR_PREGAME_RITUAL_AND_YOU_COULD_WIN__5_000__0_Layer0_0_MEMBER_14_FILL">
<path fill="#FFFFFF" stroke="none" d="
M 140.1 65.85
L 131.25 65.85 120.7 105.4 128.05 105.4 130.4 96.05 140.8 96.05 143.05 105.4 150.35 105.4 140.1 65.85
M 139.25 90.25
L 131.9 90.25 135.6 73.15 139.25 90.25 Z"/>
</g>

<g id="CM_300x600_Generic_psd_Asset_Frame_3_SHOW_US_YOUR_PREGAME_RITUAL_AND_YOU_COULD_WIN__5_000__0_Layer0_0_MEMBER_15_FILL">
<path fill="#FFFFFF" stroke="none" d="
M 172.75 85.95
L 165.35 65.95 156.3 65.95 156.3 105.4 162.7 105.4 162.7 74.1 171.1 98.1 174.8 98.1 182.9 74 182.9 105.4 189.25 105.4 189.25 65.95 180.3 65.95 172.75 85.95 Z"/>
</g>

<g id="CM_300x600_Generic_psd_Asset_Frame_3_SHOW_US_YOUR_PREGAME_RITUAL_AND_YOU_COULD_WIN__5_000__0_Layer0_0_MEMBER_16_FILL">
<path fill="#FFFFFF" stroke="none" d="
M 203.85 88.45
L 214.35 88.45 214.35 82.4 203.85 82.4 203.85 72.35 216.3 72.35 216.3 65.95 196.9 65.95 196.9 105.4 217.3 105.4 217.3 99.05 203.85 99.05 203.85 88.45 Z"/>
</g>

<g id="CM_300x600_Generic_psd_Asset_Frame_3_SHOW_US_YOUR_PREGAME_RITUAL_AND_YOU_COULD_WIN__5_000__0_Layer0_0_MEMBER_17_FILL">
<path fill="#FFFFFF" stroke="none" d="
M 260.45 68.4
Q 257.8 65.95 252.5 65.95
L 239.3 65.95 239.3 105.4 246.5 105.4 246.5 89.4 249.8 89.4 257.15 105.4 264.45 105.4 256.75 88.65
Q 259.85 87.45 261.5 85.35 263.15 83.25 263.15 79.8
L 263.15 76.05
Q 263.15 70.8 260.45 68.4
M 246.5 72.35
L 252.45 72.35
Q 254.35 72.35 255.15 73.25 255.95 74.2 255.95 76
L 255.95 79.75
Q 255.95 81.45 255 82.25 254.1 83 252.5 83
L 246.5 83 246.5 72.35 Z"/>
</g>

<g id="CM_300x600_Generic_psd_Asset_Frame_3_SHOW_US_YOUR_PREGAME_RITUAL_AND_YOU_COULD_WIN__5_000__0_Layer0_0_MEMBER_18_FILL">
<path fill="#FFFFFF" stroke="none" d="
M 278.6 65.95
L 271.4 65.95 271.4 105.4 278.6 105.4 278.6 65.95 Z"/>
</g>

<g id="CM_300x600_Generic_psd_Asset_Frame_3_SHOW_US_YOUR_PREGAME_RITUAL_AND_YOU_COULD_WIN__5_000__0_Layer0_0_MEMBER_19_FILL">
<path fill="#FFFFFF" stroke="none" d="
M 285.2 72.35
L 294.85 72.35 294.85 105.4 302.05 105.4 302.05 72.35 311.75 72.35 311.75 65.95 285.2 65.95 285.2 72.35 Z"/>
</g>

<g id="CM_300x600_Generic_psd_Asset_Frame_3_SHOW_US_YOUR_PREGAME_RITUAL_AND_YOU_COULD_WIN__5_000__0_Layer0_0_MEMBER_20_FILL">
<path fill="#FFFFFF" stroke="none" d="
M 337.75 65.95
L 337.75 93.5
Q 337.75 96.65 335.95 98.15 334.2 99.6 331.1 99.6 328.05 99.6 326.3 98.15 324.6 96.6 324.6 93.5
L 324.6 65.95 317.4 65.95 317.4 93.5
Q 317.4 96.5 318.4 98.95 319.35 101.25 321.2 102.85 323.1 104.45 325.55 105.2 328 106 331.15 106 334.1 106 336.75 105.2 339.3 104.4 341.1 102.8 342.95 101.2 343.9 98.9 344.9 96.7 344.9 93.5
L 344.9 65.95 337.75 65.95 Z"/>
</g>

<g id="CM_300x600_Generic_psd_Asset_Frame_3_SHOW_US_YOUR_PREGAME_RITUAL_AND_YOU_COULD_WIN__5_000__0_Layer0_0_MEMBER_21_FILL">
<path fill="#FFFFFF" stroke="none" d="
M 369 65.85
L 360.2 65.85 349.65 105.4 357 105.4 359.3 96.05 369.7 96.05 371.95 105.4 379.3 105.4 369 65.85
M 364.55 73.15
L 368.2 90.25 360.85 90.25 364.55 73.15 Z"/>
</g>

<g id="CM_300x600_Generic_psd_Asset_Frame_3_SHOW_US_YOUR_PREGAME_RITUAL_AND_YOU_COULD_WIN__5_000__0_Layer0_0_MEMBER_22_FILL">
<path fill="#FFFFFF" stroke="none" d="
M 392.2 65.95
L 385.25 65.95 385.25 105.4 406.8 105.4 406.8 99.05 392.2 99.05 392.2 65.95 Z"/>
</g>

<g id="CM_300x600_Generic_psd_Asset_Frame_3_SHOW_US_YOUR_PREGAME_RITUAL_AND_YOU_COULD_WIN__5_000__0_Layer0_0_MEMBER_23_FILL">
<path fill="#FFFFFF" stroke="none" d="
M 20.5 129.5
L 11.65 129.5 1.1 169.05 8.45 169.05 10.8 159.7 21.2 159.7 23.45 169.05 30.75 169.05 20.5 129.5
M 19.65 153.9
L 12.3 153.9 16 136.8 19.65 153.9 Z"/>
</g>

<g id="CM_300x600_Generic_psd_Asset_Frame_3_SHOW_US_YOUR_PREGAME_RITUAL_AND_YOU_COULD_WIN__5_000__0_Layer0_0_MEMBER_24_FILL">
<path fill="#FFFFFF" stroke="none" d="
M 64.6 129.6
L 58.25 129.6 58.25 161.55 47.05 129.6 36.7 129.6 36.7 169.05 43.1 169.05 43.1 137.65 53.25 169.05 64.6 169.05 64.6 129.6 Z"/>
</g>

<g id="CM_300x600_Generic_psd_Asset_Frame_3_SHOW_US_YOUR_PREGAME_RITUAL_AND_YOU_COULD_WIN__5_000__0_Layer0_0_MEMBER_25_FILL">
<path fill="#FFFFFF" stroke="none" d="
M 72.25 129.6
L 72.25 169.1 83.15 169.1
Q 89.5 169.1 93.1 166.25 96.65 163.4 96.65 157.05
L 96.65 141.6
Q 96.65 135.5 93.2 132.55 89.65 129.6 83.6 129.6
L 72.25 129.6
M 79.2 162.7
L 79.2 135.95 83.6 135.95
Q 86.6 135.95 88.15 137.3 89.7 138.65 89.7 141.6
L 89.7 157.05
Q 89.7 160 87.9 161.35 86.05 162.7 83.1 162.7
L 79.2 162.7 Z"/>
</g>

<g id="CM_300x600_Generic_psd_Asset_Frame_3_SHOW_US_YOUR_PREGAME_RITUAL_AND_YOU_COULD_WIN__5_000__0_Layer0_0_MEMBER_26_FILL">
<path fill="#FFFFFF" stroke="none" d="
M 131.2 146.15
L 124.05 129.6 116.25 129.6 127.6 153.45 127.6 169.05 134.8 169.05 134.8 153.5 146.25 129.6 138.5 129.6 131.2 146.15 Z"/>
</g>

<g id="CM_300x600_Generic_psd_Asset_Frame_3_SHOW_US_YOUR_PREGAME_RITUAL_AND_YOU_COULD_WIN__5_000__0_Layer0_0_MEMBER_27_FILL">
<path fill="#FFFFFF" stroke="none" d="
M 169.55 129.8
Q 166.9 129 164.2 129
L 163.4 129
Q 160.65 129 158.1 129.85 155.7 130.65 153.8 132.25 151.9 133.8 150.9 136 149.85 138.25 149.85 141
L 149.85 157.55
Q 149.85 160.6 150.85 162.8 151.8 165 153.7 166.6 155.5 168.1 158 168.85 160.7 169.65 163.45 169.65
L 164.2 169.65
Q 166.95 169.65 169.6 168.85 172.1 168 173.9 166.5 175.7 165 176.75 162.75 177.8 160.5 177.8 157.55
L 177.8 141
Q 177.8 138.2 176.75 135.95 175.6 133.65 173.8 132.15 172 130.65 169.55 129.8
M 168.8 136.85
Q 170.6 138.35 170.6 141.1
L 170.6 157.55
Q 170.6 160.5 168.9 161.9 167.2 163.25 164.2 163.25
L 163.45 163.25
Q 160.6 163.25 158.8 161.9 157.05 160.5 157.05 157.55
L 157.05 141
Q 157.05 138.3 158.85 136.85 160.7 135.4 163.4 135.4
L 164.2 135.4
Q 166.9 135.4 168.8 136.85 Z"/>
</g>

<g id="CM_300x600_Generic_psd_Asset_Frame_3_SHOW_US_YOUR_PREGAME_RITUAL_AND_YOU_COULD_WIN__5_000__0_Layer0_0_MEMBER_28_FILL">
<path fill="#FFFFFF" stroke="none" d="
M 212.05 129.6
L 204.85 129.6 204.85 157.15
Q 204.85 160.35 203.1 161.75 201.3 163.25 198.25 163.25 195.2 163.25 193.45 161.75 191.75 160.3 191.75 157.15
L 191.75 129.6 184.55 129.6 184.55 157.15
Q 184.55 160.15 185.55 162.6 186.5 164.9 188.35 166.5 190.15 168 192.7 168.85 195.4 169.65 198.3 169.65 201.35 169.65 203.9 168.8 206.55 167.95 208.25 166.45 209.95 164.95 211.05 162.55 212.05 160.35 212.05 157.15
L 212.05 129.6 Z"/>
</g>

<g id="CM_300x600_Generic_psd_Asset_Frame_3_SHOW_US_YOUR_PREGAME_RITUAL_AND_YOU_COULD_WIN__5_000__0_Layer0_0_MEMBER_29_FILL">
<path fill="#FFFFFF" stroke="none" d="
M 235.5 136.05
Q 234.5 138.35 234.5 141.1
L 234.5 157.55
Q 234.5 163.55 238.1 166.6 241.7 169.65 247.55 169.65 251.05 169.65 253.8 168.45 256.45 167.25 258.95 164.7
L 254.7 159.65 253.15 161.15
Q 252.35 161.9 251.65 162.25 250.95 162.7 249.9 163 248.8 163.25 247.55 163.25 241.7 163.25 241.7 157.55
L 241.7 141.1
Q 241.7 138.4 243.25 136.85 244.85 135.4 247.5 135.4 250.2 135.5 251.95 136.65 253.7 137.9 254.55 139.2
L 259.1 134.75
Q 257.95 133 256.9 132.1 255.7 130.95 254.3 130.3 253.1 129.65 251.25 129.3 249.6 129 247.5 129 244.75 129 242.3 129.85 240 130.65 238.15 132.25 236.35 133.9 235.5 136.05 Z"/>
</g>

<g id="CM_300x600_Generic_psd_Asset_Frame_3_SHOW_US_YOUR_PREGAME_RITUAL_AND_YOU_COULD_WIN__5_000__0_Layer0_0_MEMBER_30_FILL">
<path fill="#FFFFFF" stroke="none" d="
M 288.15 132.15
Q 286.3 130.6 283.85 129.8 281.2 129 278.55 129
L 277.75 129
Q 274.95 129 272.4 129.85 269.9 130.7 268.15 132.25 266.3 133.7 265.25 136 264.15 138.2 264.15 141
L 264.15 157.55
Q 264.15 160.4 265.15 162.8 266.2 165 268 166.6 269.9 168.15 272.35 168.85 275 169.65 277.8 169.65
L 278.55 169.65
Q 281.25 169.65 283.9 168.85 286.5 168 288.2 166.5 290.1 164.95 291.1 162.75 292.1 160.45 292.1 157.55
L 292.1 141
Q 292.1 138.2 291.05 135.95 290.05 133.8 288.15 132.15
M 277.75 135.4
L 278.55 135.4
Q 281.25 135.4 283.1 136.85 284.95 138.4 284.95 141.1
L 284.95 157.55
Q 284.95 160.45 283.2 161.9 281.5 163.25 278.55 163.25
L 277.8 163.25
Q 274.9 163.25 273.1 161.9 271.35 160.45 271.35 157.55
L 271.35 141
Q 271.35 138.25 273.2 136.85 275.05 135.4 277.75 135.4 Z"/>
</g>

<g id="CM_300x600_Generic_psd_Asset_Frame_3_SHOW_US_YOUR_PREGAME_RITUAL_AND_YOU_COULD_WIN__5_000__0_Layer0_0_MEMBER_31_FILL">
<path fill="#FFFFFF" stroke="none" d="
M 325.35 162.55
Q 326.4 160.25 326.4 157.15
L 326.4 129.6 319.2 129.6 319.2 157.15
Q 319.2 160.35 317.4 161.75 315.7 163.25 312.6 163.25 309.55 163.25 307.8 161.75 306.1 160.35 306.1 157.15
L 306.1 129.6 298.9 129.6 298.9 157.15
Q 298.9 160.25 299.85 162.6 300.95 165.05 302.7 166.5 304.4 168 307.05 168.85 309.7 169.65 312.65 169.65 315.6 169.65 318.25 168.8 320.85 167.95 322.55 166.45 324.4 164.85 325.35 162.55 Z"/>
</g>

<g id="CM_300x600_Generic_psd_Asset_Frame_3_SHOW_US_YOUR_PREGAME_RITUAL_AND_YOU_COULD_WIN__5_000__0_Layer0_0_MEMBER_32_FILL">
<path fill="#FFFFFF" stroke="none" d="
M 340.95 129.6
L 334 129.6 334 169.05 355.55 169.05 355.55 162.65 340.95 162.65 340.95 129.6 Z"/>
</g>

<g id="CM_300x600_Generic_psd_Asset_Frame_3_SHOW_US_YOUR_PREGAME_RITUAL_AND_YOU_COULD_WIN__5_000__0_Layer0_0_MEMBER_33_FILL">
<path fill="#FFFFFF" stroke="none" d="
M 382.2 132.55
Q 378.65 129.6 372.6 129.6
L 361.25 129.6 361.25 169.1 372.15 169.1
Q 378.6 169.1 382.1 166.25 385.65 163.45 385.65 157.05
L 385.65 141.6
Q 385.65 135.5 382.2 132.55
M 377.15 137.3
Q 378.7 138.65 378.7 141.6
L 378.7 157.05
Q 378.7 160 376.9 161.35 375.1 162.7 372.15 162.7
L 368.2 162.7 368.2 135.95 372.6 135.95
Q 375.6 135.95 377.15 137.3 Z"/>
</g>

<g id="CM_300x600_Generic_psd_Asset_Frame_3_SHOW_US_YOUR_PREGAME_RITUAL_AND_YOU_COULD_WIN__5_000__0_Layer0_0_MEMBER_34_FILL">
<path fill="#FFFFFF" stroke="none" d="
M 25.55 193.25
L 18.45 193.25 13 219.75 8.1 193.25 0.95 193.25 8.7 232.7 16.55 232.7 22 207.2 27.55 232.7 35.35 232.7 42.45 193.25 35.15 193.25 31.15 219.8 25.55 193.25 Z"/>
</g>

<g id="CM_300x600_Generic_psd_Asset_Frame_3_SHOW_US_YOUR_PREGAME_RITUAL_AND_YOU_COULD_WIN__5_000__0_Layer0_0_MEMBER_35_FILL">
<path fill="#FFFFFF" stroke="none" d="
M 56.65 193.25
L 49.45 193.25 49.45 232.7 56.65 232.7 56.65 193.25 Z"/>
</g>

<g id="CM_300x600_Generic_psd_Asset_Frame_3_SHOW_US_YOUR_PREGAME_RITUAL_AND_YOU_COULD_WIN__5_000__0_Layer0_0_MEMBER_36_FILL">
<path fill="#FFFFFF" stroke="none" d="
M 75.55 193.25
L 65.25 193.25 65.25 232.7 71.6 232.7 71.6 201.3 81.75 232.7 93.15 232.7 93.15 193.25 86.75 193.25 86.75 225.2 75.55 193.25 Z"/>
</g>

<g id="CM_300x600_Generic_psd_Asset_Frame_3_SHOW_US_YOUR_PREGAME_RITUAL_AND_YOU_COULD_WIN__5_000__0_Layer0_0_MEMBER_37_FILL">
<path fill="#FFFFFF" stroke="none" d="
M 125.2 186.25
L 125.2 193.25
Q 120.9 193.85 118.55 196.5 116.25 199.1 116.25 203.3
L 116.25 210.35 131.95 218.95 131.95 221.15
Q 131.95 223.6 130.85 224.9 129.75 226.3 127.35 226.3 125.9 226.3 124.75 226.05 123.5 225.7 122.8 225.15 121.95 224.55 121.3 223.6 120.55 222.5 119.95 221.25
L 115.25 225.25
Q 115.75 226.8 116.65 228 117.5 229.15 118.85 230.35 120.2 231.4 121.6 231.95 123.2 232.55 124.65 232.7
L 124.65 239.55 130.4 239.55 130.4 232.75
Q 134.55 232 136.85 228.95 139.15 226 139.15 221.85
L 139.15 214.95 123.35 206.25 123.35 203.55
Q 123.35 201.35 124.65 200.5 125.95 199.6 128.2 199.6 130.25 199.6 131.8 200.7 133.3 201.85 134.8 204
L 139.4 199.75
Q 138.95 198.85 137.95 197.6 137 196.55 135.85 195.65 134.75 194.75 133.45 194.15 132.35 193.55 130.95 193.4
L 130.95 186.25 125.2 186.25 Z"/>
</g>

<g id="CM_300x600_Generic_psd_Asset_Frame_3_SHOW_US_YOUR_PREGAME_RITUAL_AND_YOU_COULD_WIN__5_000__0_Layer0_0_MEMBER_38_FILL">
<path fill="#FFFFFF" stroke="none" d="
M 157 207.9
L 153.95 207.9 154.55 199.6 166.25 199.6 166.25 193.25 148.1 193.25 146.35 214.3 156.45 214.3
Q 158.6 214.3 159.85 215.2 161.05 216.1 161.05 218.1
L 161.05 223.25
Q 161.05 225.35 160.2 226.1 159.3 226.9 157.25 226.9 155.65 226.9 154.8 226.25 153.75 225.6 153.25 224.9 152.6 224 152.4 223.3
L 151.95 222.05 145.1 224.15
Q 145.5 226.6 146.55 228.2 147.7 230 149.2 231.05 150.7 232.15 152.6 232.7 154.3 233.25 156.4 233.25 158.9 233.25 161 232.65 163.05 232.1 164.7 230.75 166.25 229.5 167.15 227.6 168 225.85 168 223.25
L 168 218.1
Q 168 213.1 165.05 210.5 162.05 207.9 157 207.9 Z"/>
</g>

<g id="CM_300x600_Generic_psd_Asset_Frame_3_SHOW_US_YOUR_PREGAME_RITUAL_AND_YOU_COULD_WIN__5_000__0_Layer0_0_MEMBER_39_FILL">
<path fill="#FFFFFF" stroke="none" d="
M 180.3 226.95
L 174.25 226.95 174.25 231.4
Q 174.25 233.95 173.65 235.65 173.05 237.4 172.05 238.65
L 175 240.75
Q 175.75 240.15 176.9 238.85 177.85 237.75 178.6 236.2 179.35 234.75 179.85 232.8 180.3 230.85 180.3 228.5
L 180.3 226.95 Z"/>
</g>

<g id="CM_300x600_Generic_psd_Asset_Frame_3_SHOW_US_YOUR_PREGAME_RITUAL_AND_YOU_COULD_WIN__5_000__0_Layer0_0_MEMBER_40_FILL">
<path fill="#FFFFFF" stroke="none" d="
M 199.05 192.65
Q 193.3 192.65 190.1 195.75 186.9 198.8 186.9 204.6
L 186.9 221.7
Q 186.9 227.5 190.1 230.35 193.3 233.25 199.05 233.25 201.85 233.25 204.1 232.5 206.45 231.65 208 230.2 209.55 228.85 210.5 226.55 211.35 224.5 211.35 221.55
L 211.35 204.6
Q 211.35 198.8 208.1 195.75 204.85 192.65 199.05 192.65
M 204.2 204.6
L 204.2 221.55
Q 204.2 224.15 202.95 225.55 201.75 226.9 199.05 226.9 196.5 226.9 195.25 225.6 194.1 224.3 194.1 221.7
L 194.1 204.6
Q 194.1 201.95 195.25 200.5 196.35 199.05 199.05 199.05 201.9 199.05 203 200.45 204.2 201.9 204.2 204.6 Z"/>
</g>

<g id="CM_300x600_Generic_psd_Asset_Frame_3_SHOW_US_YOUR_PREGAME_RITUAL_AND_YOU_COULD_WIN__5_000__0_Layer0_0_MEMBER_41_FILL">
<path fill="#FFFFFF" stroke="none" d="
M 230.45 192.65
Q 224.7 192.65 221.45 195.75 218.25 198.8 218.25 204.6
L 218.25 221.7
Q 218.25 227.5 221.5 230.35 224.7 233.25 230.45 233.25 233.25 233.25 235.5 232.5 237.8 231.65 239.4 230.2 241 228.75 241.9 226.55 242.75 224.3 242.75 221.55
L 242.75 204.6
Q 242.75 198.85 239.5 195.75 236.25 192.65 230.45 192.65
M 235.55 204.6
L 235.55 221.55
Q 235.55 224.2 234.35 225.55 233.1 226.9 230.45 226.9 227.9 226.9 226.65 225.6 225.45 224.35 225.45 221.7
L 225.45 204.6
Q 225.45 202.05 226.6 200.5 227.75 199.05 230.45 199.05 233.2 199.05 234.4 200.45 235.55 201.9 235.55 204.6 Z"/>
</g>

<g id="CM_300x600_Generic_psd_Asset_Frame_3_SHOW_US_YOUR_PREGAME_RITUAL_AND_YOU_COULD_WIN__5_000__0_Layer0_0_MEMBER_42_FILL">
<path fill="#FFFFFF" stroke="none" d="
M 261.8 192.65
Q 256.05 192.65 252.8 195.75 249.65 198.85 249.65 204.6
L 249.65 221.7
Q 249.65 227.5 252.85 230.35 256.05 233.25 261.8 233.25 264.6 233.25 266.85 232.5 269.15 231.65 270.75 230.2 272.3 228.85 273.25 226.55 274.1 224.5 274.1 221.55
L 274.1 204.6
Q 274.1 198.8 270.85 195.75 267.6 192.65 261.8 192.65
M 266.9 204.6
L 266.9 221.55
Q 266.9 224.2 265.7 225.55 264.5 226.9 261.8 226.9 259.25 226.9 258 225.6 256.85 224.4 256.85 221.7
L 256.85 204.6
Q 256.85 201.95 258 200.5 259.1 199.05 261.8 199.05 264.65 199.05 265.75 200.45 266.9 201.8 266.9 204.6 Z"/>
</g>

<g id="CM_300x600_Generic_psd_Asset_Frame_3_SHOW_US_YOUR_PREGAME_RITUAL_AND_YOU_COULD_WIN__5_000__0_Layer0_0_MEMBER_43_FILL">
<path fill="#FFFFFF" stroke="none" d="
M 288.05 232.7
L 288.05 224.85 280.6 224.85 280.6 232.7 288.05 232.7 Z"/>
</g>
</defs>

<g transform="matrix( 1, 0, 0, 1, 39,107) ">
<g transform="matrix( 0.5314788818359375, 0, 0, 0.5342864990234375, 0,-0.15) ">
<use xlink:href="#CM_300x600_Generic_psd_Asset_Frame_3_SHOW_US_YOUR_PREGAME_RITUAL_AND_YOU_COULD_WIN__5_000__0_Layer0_0_MEMBER_0_FILL"/>
</g>

<g transform="matrix( 0.5314788818359375, 0, 0, 0.5342864990234375, 0,-0.15) ">
<use xlink:href="#CM_300x600_Generic_psd_Asset_Frame_3_SHOW_US_YOUR_PREGAME_RITUAL_AND_YOU_COULD_WIN__5_000__0_Layer0_0_MEMBER_1_FILL"/>
</g>

<g transform="matrix( 0.5314788818359375, 0, 0, 0.5342864990234375, 0,-0.15) ">
<use xlink:href="#CM_300x600_Generic_psd_Asset_Frame_3_SHOW_US_YOUR_PREGAME_RITUAL_AND_YOU_COULD_WIN__5_000__0_Layer0_0_MEMBER_2_FILL"/>
</g>

<g transform="matrix( 0.5314788818359375, 0, 0, 0.5342864990234375, 0,-0.15) ">
<use xlink:href="#CM_300x600_Generic_psd_Asset_Frame_3_SHOW_US_YOUR_PREGAME_RITUAL_AND_YOU_COULD_WIN__5_000__0_Layer0_0_MEMBER_3_FILL"/>
</g>

<g transform="matrix( 0.5314788818359375, 0, 0, 0.5342864990234375, 0,-0.15) ">
<use xlink:href="#CM_300x600_Generic_psd_Asset_Frame_3_SHOW_US_YOUR_PREGAME_RITUAL_AND_YOU_COULD_WIN__5_000__0_Layer0_0_MEMBER_4_FILL"/>
</g>

<g transform="matrix( 0.5314788818359375, 0, 0, 0.5342864990234375, 0,-0.15) ">
<use xlink:href="#CM_300x600_Generic_psd_Asset_Frame_3_SHOW_US_YOUR_PREGAME_RITUAL_AND_YOU_COULD_WIN__5_000__0_Layer0_0_MEMBER_5_FILL"/>
</g>

<g transform="matrix( 0.5314788818359375, 0, 0, 0.5342864990234375, 0,-0.15) ">
<use xlink:href="#CM_300x600_Generic_psd_Asset_Frame_3_SHOW_US_YOUR_PREGAME_RITUAL_AND_YOU_COULD_WIN__5_000__0_Layer0_0_MEMBER_6_FILL"/>
</g>

<g transform="matrix( 0.5314788818359375, 0, 0, 0.5342864990234375, 0,-0.15) ">
<use xlink:href="#CM_300x600_Generic_psd_Asset_Frame_3_SHOW_US_YOUR_PREGAME_RITUAL_AND_YOU_COULD_WIN__5_000__0_Layer0_0_MEMBER_7_FILL"/>
</g>

<g transform="matrix( 0.5314788818359375, 0, 0, 0.5342864990234375, 0,-0.15) ">
<use xlink:href="#CM_300x600_Generic_psd_Asset_Frame_3_SHOW_US_YOUR_PREGAME_RITUAL_AND_YOU_COULD_WIN__5_000__0_Layer0_0_MEMBER_8_FILL"/>
</g>

<g transform="matrix( 0.5314788818359375, 0, 0, 0.5342864990234375, 0,-0.15) ">
<use xlink:href="#CM_300x600_Generic_psd_Asset_Frame_3_SHOW_US_YOUR_PREGAME_RITUAL_AND_YOU_COULD_WIN__5_000__0_Layer0_0_MEMBER_9_FILL"/>
</g>

<g transform="matrix( 0.5314788818359375, 0, 0, 0.5342864990234375, 0,-0.15) ">
<use xlink:href="#CM_300x600_Generic_psd_Asset_Frame_3_SHOW_US_YOUR_PREGAME_RITUAL_AND_YOU_COULD_WIN__5_000__0_Layer0_0_MEMBER_10_FILL"/>
</g>

<g transform="matrix( 0.5314788818359375, 0, 0, 0.5342864990234375, 0,-0.15) ">
<use xlink:href="#CM_300x600_Generic_psd_Asset_Frame_3_SHOW_US_YOUR_PREGAME_RITUAL_AND_YOU_COULD_WIN__5_000__0_Layer0_0_MEMBER_11_FILL"/>
</g>

<g transform="matrix( 0.5314788818359375, 0, 0, 0.5342864990234375, 0,-0.15) ">
<use xlink:href="#CM_300x600_Generic_psd_Asset_Frame_3_SHOW_US_YOUR_PREGAME_RITUAL_AND_YOU_COULD_WIN__5_000__0_Layer0_0_MEMBER_12_FILL"/>
</g>

<g transform="matrix( 0.5314788818359375, 0, 0, 0.5342864990234375, 0,-0.15) ">
<use xlink:href="#CM_300x600_Generic_psd_Asset_Frame_3_SHOW_US_YOUR_PREGAME_RITUAL_AND_YOU_COULD_WIN__5_000__0_Layer0_0_MEMBER_13_FILL"/>
</g>

<g transform="matrix( 0.5314788818359375, 0, 0, 0.5342864990234375, 0,-0.15) ">
<use xlink:href="#CM_300x600_Generic_psd_Asset_Frame_3_SHOW_US_YOUR_PREGAME_RITUAL_AND_YOU_COULD_WIN__5_000__0_Layer0_0_MEMBER_14_FILL"/>
</g>

<g transform="matrix( 0.5314788818359375, 0, 0, 0.5342864990234375, 0,-0.15) ">
<use xlink:href="#CM_300x600_Generic_psd_Asset_Frame_3_SHOW_US_YOUR_PREGAME_RITUAL_AND_YOU_COULD_WIN__5_000__0_Layer0_0_MEMBER_15_FILL"/>
</g>

<g transform="matrix( 0.5314788818359375, 0, 0, 0.5342864990234375, 0,-0.15) ">
<use xlink:href="#CM_300x600_Generic_psd_Asset_Frame_3_SHOW_US_YOUR_PREGAME_RITUAL_AND_YOU_COULD_WIN__5_000__0_Layer0_0_MEMBER_16_FILL"/>
</g>

<g transform="matrix( 0.5314788818359375, 0, 0, 0.5342864990234375, 0,-0.15) ">
<use xlink:href="#CM_300x600_Generic_psd_Asset_Frame_3_SHOW_US_YOUR_PREGAME_RITUAL_AND_YOU_COULD_WIN__5_000__0_Layer0_0_MEMBER_17_FILL"/>
</g>

<g transform="matrix( 0.5314788818359375, 0, 0, 0.5342864990234375, 0,-0.15) ">
<use xlink:href="#CM_300x600_Generic_psd_Asset_Frame_3_SHOW_US_YOUR_PREGAME_RITUAL_AND_YOU_COULD_WIN__5_000__0_Layer0_0_MEMBER_18_FILL"/>
</g>

<g transform="matrix( 0.5314788818359375, 0, 0, 0.5342864990234375, 0,-0.15) ">
<use xlink:href="#CM_300x600_Generic_psd_Asset_Frame_3_SHOW_US_YOUR_PREGAME_RITUAL_AND_YOU_COULD_WIN__5_000__0_Layer0_0_MEMBER_19_FILL"/>
</g>

<g transform="matrix( 0.5314788818359375, 0, 0, 0.5342864990234375, 0,-0.15) ">
<use xlink:href="#CM_300x600_Generic_psd_Asset_Frame_3_SHOW_US_YOUR_PREGAME_RITUAL_AND_YOU_COULD_WIN__5_000__0_Layer0_0_MEMBER_20_FILL"/>
</g>

<g transform="matrix( 0.5314788818359375, 0, 0, 0.5342864990234375, 0,-0.15) ">
<use xlink:href="#CM_300x600_Generic_psd_Asset_Frame_3_SHOW_US_YOUR_PREGAME_RITUAL_AND_YOU_COULD_WIN__5_000__0_Layer0_0_MEMBER_21_FILL"/>
</g>

<g transform="matrix( 0.5314788818359375, 0, 0, 0.5342864990234375, 0,-0.15) ">
<use xlink:href="#CM_300x600_Generic_psd_Asset_Frame_3_SHOW_US_YOUR_PREGAME_RITUAL_AND_YOU_COULD_WIN__5_000__0_Layer0_0_MEMBER_22_FILL"/>
</g>

<g transform="matrix( 0.5314788818359375, 0, 0, 0.5342864990234375, 0,-0.15) ">
<use xlink:href="#CM_300x600_Generic_psd_Asset_Frame_3_SHOW_US_YOUR_PREGAME_RITUAL_AND_YOU_COULD_WIN__5_000__0_Layer0_0_MEMBER_23_FILL"/>
</g>

<g transform="matrix( 0.5314788818359375, 0, 0, 0.5342864990234375, 0,-0.15) ">
<use xlink:href="#CM_300x600_Generic_psd_Asset_Frame_3_SHOW_US_YOUR_PREGAME_RITUAL_AND_YOU_COULD_WIN__5_000__0_Layer0_0_MEMBER_24_FILL"/>
</g>

<g transform="matrix( 0.5314788818359375, 0, 0, 0.5342864990234375, 0,-0.15) ">
<use xlink:href="#CM_300x600_Generic_psd_Asset_Frame_3_SHOW_US_YOUR_PREGAME_RITUAL_AND_YOU_COULD_WIN__5_000__0_Layer0_0_MEMBER_25_FILL"/>
</g>

<g transform="matrix( 0.5314788818359375, 0, 0, 0.5342864990234375, 0,-0.15) ">
<use xlink:href="#CM_300x600_Generic_psd_Asset_Frame_3_SHOW_US_YOUR_PREGAME_RITUAL_AND_YOU_COULD_WIN__5_000__0_Layer0_0_MEMBER_26_FILL"/>
</g>

<g transform="matrix( 0.5314788818359375, 0, 0, 0.5342864990234375, 0,-0.15) ">
<use xlink:href="#CM_300x600_Generic_psd_Asset_Frame_3_SHOW_US_YOUR_PREGAME_RITUAL_AND_YOU_COULD_WIN__5_000__0_Layer0_0_MEMBER_27_FILL"/>
</g>

<g transform="matrix( 0.5314788818359375, 0, 0, 0.5342864990234375, 0,-0.15) ">
<use xlink:href="#CM_300x600_Generic_psd_Asset_Frame_3_SHOW_US_YOUR_PREGAME_RITUAL_AND_YOU_COULD_WIN__5_000__0_Layer0_0_MEMBER_28_FILL"/>
</g>

<g transform="matrix( 0.5314788818359375, 0, 0, 0.5342864990234375, 0,-0.15) ">
<use xlink:href="#CM_300x600_Generic_psd_Asset_Frame_3_SHOW_US_YOUR_PREGAME_RITUAL_AND_YOU_COULD_WIN__5_000__0_Layer0_0_MEMBER_29_FILL"/>
</g>

<g transform="matrix( 0.5314788818359375, 0, 0, 0.5342864990234375, 0,-0.15) ">
<use xlink:href="#CM_300x600_Generic_psd_Asset_Frame_3_SHOW_US_YOUR_PREGAME_RITUAL_AND_YOU_COULD_WIN__5_000__0_Layer0_0_MEMBER_30_FILL"/>
</g>

<g transform="matrix( 0.5314788818359375, 0, 0, 0.5342864990234375, 0,-0.15) ">
<use xlink:href="#CM_300x600_Generic_psd_Asset_Frame_3_SHOW_US_YOUR_PREGAME_RITUAL_AND_YOU_COULD_WIN__5_000__0_Layer0_0_MEMBER_31_FILL"/>
</g>

<g transform="matrix( 0.5314788818359375, 0, 0, 0.5342864990234375, 0,-0.15) ">
<use xlink:href="#CM_300x600_Generic_psd_Asset_Frame_3_SHOW_US_YOUR_PREGAME_RITUAL_AND_YOU_COULD_WIN__5_000__0_Layer0_0_MEMBER_32_FILL"/>
</g>

<g transform="matrix( 0.5314788818359375, 0, 0, 0.5342864990234375, 0,-0.15) ">
<use xlink:href="#CM_300x600_Generic_psd_Asset_Frame_3_SHOW_US_YOUR_PREGAME_RITUAL_AND_YOU_COULD_WIN__5_000__0_Layer0_0_MEMBER_33_FILL"/>
</g>

<g transform="matrix( 0.5314788818359375, 0, 0, 0.5342864990234375, 0,-0.15) ">
<use xlink:href="#CM_300x600_Generic_psd_Asset_Frame_3_SHOW_US_YOUR_PREGAME_RITUAL_AND_YOU_COULD_WIN__5_000__0_Layer0_0_MEMBER_34_FILL"/>
</g>

<g transform="matrix( 0.5314788818359375, 0, 0, 0.5342864990234375, 0,-0.15) ">
<use xlink:href="#CM_300x600_Generic_psd_Asset_Frame_3_SHOW_US_YOUR_PREGAME_RITUAL_AND_YOU_COULD_WIN__5_000__0_Layer0_0_MEMBER_35_FILL"/>
</g>

<g transform="matrix( 0.5314788818359375, 0, 0, 0.5342864990234375, 0,-0.15) ">
<use xlink:href="#CM_300x600_Generic_psd_Asset_Frame_3_SHOW_US_YOUR_PREGAME_RITUAL_AND_YOU_COULD_WIN__5_000__0_Layer0_0_MEMBER_36_FILL"/>
</g>

<g transform="matrix( 0.5314788818359375, 0, 0, 0.5342864990234375, 0,-0.15) ">
<use xlink:href="#CM_300x600_Generic_psd_Asset_Frame_3_SHOW_US_YOUR_PREGAME_RITUAL_AND_YOU_COULD_WIN__5_000__0_Layer0_0_MEMBER_37_FILL"/>
</g>

<g transform="matrix( 0.5314788818359375, 0, 0, 0.5342864990234375, 0,-0.15) ">
<use xlink:href="#CM_300x600_Generic_psd_Asset_Frame_3_SHOW_US_YOUR_PREGAME_RITUAL_AND_YOU_COULD_WIN__5_000__0_Layer0_0_MEMBER_38_FILL"/>
</g>

<g transform="matrix( 0.5314788818359375, 0, 0, 0.5342864990234375, 0,-0.15) ">
<use xlink:href="#CM_300x600_Generic_psd_Asset_Frame_3_SHOW_US_YOUR_PREGAME_RITUAL_AND_YOU_COULD_WIN__5_000__0_Layer0_0_MEMBER_39_FILL"/>
</g>

<g transform="matrix( 0.5314788818359375, 0, 0, 0.5342864990234375, 0,-0.15) ">
<use xlink:href="#CM_300x600_Generic_psd_Asset_Frame_3_SHOW_US_YOUR_PREGAME_RITUAL_AND_YOU_COULD_WIN__5_000__0_Layer0_0_MEMBER_40_FILL"/>
</g>

<g transform="matrix( 0.5314788818359375, 0, 0, 0.5342864990234375, 0,-0.15) ">
<use xlink:href="#CM_300x600_Generic_psd_Asset_Frame_3_SHOW_US_YOUR_PREGAME_RITUAL_AND_YOU_COULD_WIN__5_000__0_Layer0_0_MEMBER_41_FILL"/>
</g>

<g transform="matrix( 0.5314788818359375, 0, 0, 0.5342864990234375, 0,-0.15) ">
<use xlink:href="#CM_300x600_Generic_psd_Asset_Frame_3_SHOW_US_YOUR_PREGAME_RITUAL_AND_YOU_COULD_WIN__5_000__0_Layer0_0_MEMBER_42_FILL"/>
</g>

<g transform="matrix( 0.5314788818359375, 0, 0, 0.5342864990234375, 0,-0.15) ">
<use xlink:href="#CM_300x600_Generic_psd_Asset_Frame_3_SHOW_US_YOUR_PREGAME_RITUAL_AND_YOU_COULD_WIN__5_000__0_Layer0_0_MEMBER_43_FILL"/>
</g>
</g>
</svg>
