
<svg xmlns="http://www.w3.org/2000/svg" version="1.1" xmlns:xlink="http://www.w3.org/1999/xlink" preserveAspectRatio="none" x="0px" y="0px" width="300px" height="50px" viewBox="0 0 300 50">
<defs>
<g id="CM_300x50_Mobile_psd_Asset_Frame_3_Show_us_your_pregame_ritual_and_you_could_win__5_000__0_Layer0_0_MEMBER_0_FILL">
<path fill="#FFFFFF" stroke="none" d="
M 12.8 2.5
Q 12.05 1.9 11.4 1.65 10.85 1.35 9.85 1.1 8.85 0.9 8.4 0.9 7.2 0.9 5.8 1.25 4.5 1.65 3.7 2.3 2.85 3 2.35 4 1.85 5.15 1.85 6.45 1.85 7.65 2.25 8.7 2.75 9.8 3.25 10.35 3.75 11 4.55 11.6
L 5.9 12.55 7.45 13.35
Q 8.2 13.7 9 14.25 9.5 14.55 10.25 15.3 10.75 15.85 10.75 16.6 10.75 18 10 18.45 9.35 18.95 7.95 18.95 6.5 18.95 5.55 18.25 4.55 17.35 4.05 16.2
L 1.15 18.5
Q 2.3 20.65 4.05 21.45 5.9 22.3 8.1 22.3 9.55 22.3 10.65 21.95 11.9 21.55 12.65 20.85 13.55 20.1 14.05 19.05 14.55 18.05 14.55 16.65 14.55 15.3 14.3 14.3 14.05 13.4 13.55 12.7 12.85 11.9 12.4 11.6
L 9.55 9.8
Q 8.5 9.3 7.85 8.85 7.1 8.4 6.3 7.7 5.65 7.05 5.65 6.35 5.65 5.2 6.25 4.75 6.85 4.3 8 4.3 8.6 4.3 9.05 4.5
L 10.15 5.05 11.1 5.75
Q 11.55 6.1 11.9 6.5
L 14.05 3.7
Q 13.5 3 12.8 2.5 Z"/>
</g>

<g id="CM_300x50_Mobile_psd_Asset_Frame_3_Show_us_your_pregame_ritual_and_you_could_win__5_000__0_Layer0_0_MEMBER_1_FILL">
<path fill="#FFFFFF" stroke="none" d="
M 22.2 10.25
L 22.2 1.25 18.55 1.25 18.55 22.05 22.2 22.05 22.2 13.65 28.75 13.65 28.75 22.05 32.5 22.05 32.5 1.25 28.75 1.25 28.75 10.25 22.2 10.25 Z"/>
</g>

<g id="CM_300x50_Mobile_psd_Asset_Frame_3_Show_us_your_pregame_ritual_and_you_could_win__5_000__0_Layer0_0_MEMBER_2_FILL">
<path fill="#FFFFFF" stroke="none" d="
M 50.6 4.6
Q 50 3.4 49.05 2.6 48.15 1.8 46.8 1.35 45.45 0.9 44 0.9
L 43.55 0.9
Q 42.05 0.9 40.75 1.35 39.6 1.75 38.5 2.6 37.55 3.4 36.95 4.6 36.4 5.85 36.4 7.25
L 36.4 16
Q 36.4 17.6 36.9 18.75 37.5 19.95 38.45 20.75 39.3 21.55 40.7 21.95 41.9 22.35 43.6 22.35
L 44 22.35
Q 45.65 22.35 46.8 21.95 47.95 21.65 49.1 20.75 50.05 19.95 50.6 18.75 51.15 17.5 51.15 16
L 51.15 7.25
Q 51.15 5.8 50.6 4.6
M 41.15 5.05
Q 42.15 4.3 43.55 4.3
L 44 4.3
Q 45.45 4.3 46.4 5.05 47.35 5.85 47.35 7.3
L 47.35 16
Q 47.35 17.55 46.45 18.3 45.5 19 44 19
L 43.6 19
Q 42.1 19 41.1 18.3 40.2 17.55 40.2 16
L 40.2 7.25
Q 40.2 5.8 41.15 5.05 Z"/>
</g>

<g id="CM_300x50_Mobile_psd_Asset_Frame_3_Show_us_your_pregame_ritual_and_you_could_win__5_000__0_Layer0_0_MEMBER_3_FILL">
<path fill="#FFFFFF" stroke="none" d="
M 66.75 1.25
L 63 1.25 60.1 15.25 57.55 1.25 53.75 1.25 57.85 22.05 62 22.05 64.85 8.6 67.8 22.05 71.9 22.05 75.7 1.25 71.8 1.25 69.7 15.25 66.75 1.25 Z"/>
</g>

<g id="CM_300x50_Mobile_psd_Asset_Frame_3_Show_us_your_pregame_ritual_and_you_could_win__5_000__0_Layer0_0_MEMBER_4_FILL">
<path fill="#FFFFFF" stroke="none" d="
M 101.4 15.8
L 101.4 1.25 97.6 1.25 97.6 15.8
Q 97.6 17.45 96.7 18.2 95.75 19 94.1 19 92.45 19 91.6 18.2 90.7 17.45 90.7 15.8
L 90.7 1.25 86.9 1.25 86.9 15.8
Q 86.9 17.45 87.4 18.65 87.95 19.9 88.9 20.7 90 21.6 91.2 21.95 92.4 22.35 94.15 22.35 95.65 22.35 97.1 21.95 98.45 21.5 99.4 20.7 100.3 19.9 100.9 18.65 101.4 17.45 101.4 15.8 Z"/>
</g>

<g id="CM_300x50_Mobile_psd_Asset_Frame_3_Show_us_your_pregame_ritual_and_you_could_win__5_000__0_Layer0_0_MEMBER_5_FILL">
<path fill="#FFFFFF" stroke="none" d="
M 117.8 3.7
Q 117.3 3.05 116.6 2.5 115.7 1.85 115.15 1.65 114.6 1.35 113.6 1.1 112.6 0.9 112.15 0.9 110.95 0.9 109.55 1.25 108.2 1.65 107.45 2.3 106.6 3 106.1 4 105.65 5.05 105.65 6.45 105.65 7.8 106 8.7 106.5 9.8 107 10.35 107.5 11 108.3 11.6
L 109.65 12.55 111.2 13.35
Q 112.15 13.8 112.75 14.25 113.25 14.55 114 15.3 114.5 15.85 114.5 16.6 114.5 18 113.8 18.45 113.1 18.95 111.7 18.95 110.25 18.95 109.3 18.25 108.45 17.45 107.8 16.2
L 104.9 18.5
Q 106.05 20.65 107.8 21.45 109.65 22.3 111.9 22.3 113.3 22.3 114.4 21.95 115.6 21.55 116.45 20.85 117.35 20.05 117.8 19.05 118.3 18.05 118.3 16.65 118.3 15.3 118.05 14.3 117.8 13.4 117.3 12.7 116.6 11.9 116.15 11.6
L 113.35 9.8
Q 112.3 9.35 111.6 8.85 110.85 8.4 110.05 7.7 109.45 7.1 109.45 6.35 109.45 5.15 110 4.75 110.6 4.3 111.75 4.3 112.3 4.3 112.85 4.5
L 113.9 5.05 114.9 5.75 115.65 6.5 117.8 3.7 Z"/>
</g>

<g id="CM_300x50_Mobile_psd_Asset_Frame_3_Show_us_your_pregame_ritual_and_you_could_win__5_000__0_Layer0_0_MEMBER_6_FILL">
<path fill="#FFFFFF" stroke="none" d="
M 134.15 22.05
L 137.95 22.05 137.95 13.85 144 1.25 139.9 1.25 136.05 9.95 132.3 1.25 128.2 1.25 134.15 13.8 134.15 22.05 Z"/>
</g>

<g id="CM_300x50_Mobile_psd_Asset_Frame_3_Show_us_your_pregame_ritual_and_you_could_win__5_000__0_Layer0_0_MEMBER_7_FILL">
<path fill="#FFFFFF" stroke="none" d="
M 156.6 1.35
Q 155.25 0.9 153.8 0.9
L 153.35 0.9
Q 151.85 0.9 150.55 1.35 149.4 1.75 148.3 2.6 147.35 3.4 146.75 4.6 146.2 5.7 146.2 7.25
L 146.2 16
Q 146.2 17.6 146.7 18.75 147.3 19.9 148.2 20.75 149.15 21.55 150.5 21.95 151.7 22.35 153.4 22.35
L 153.8 22.35
Q 155.45 22.35 156.6 21.95 157.75 21.65 158.9 20.75 159.85 19.95 160.4 18.75 160.95 17.5 160.95 16
L 160.95 7.25
Q 160.95 5.8 160.4 4.6 159.8 3.4 158.85 2.6 157.95 1.8 156.6 1.35
M 156.2 5.05
Q 157.15 5.85 157.15 7.3
L 157.15 16
Q 157.15 17.55 156.25 18.3 155.3 19 153.8 19
L 153.4 19
Q 151.9 19 150.9 18.3 150 17.55 150 16
L 150 7.25
Q 150 5.8 150.95 5.05 151.95 4.3 153.35 4.3
L 153.8 4.3
Q 155.25 4.3 156.2 5.05 Z"/>
</g>

<g id="CM_300x50_Mobile_psd_Asset_Frame_3_Show_us_your_pregame_ritual_and_you_could_win__5_000__0_Layer0_0_MEMBER_8_FILL">
<path fill="#FFFFFF" stroke="none" d="
M 179.3 1.25
L 175.5 1.25 175.5 15.8
Q 175.5 17.45 174.6 18.2 173.65 19 172 19 170.35 19 169.5 18.2 168.6 17.45 168.6 15.8
L 168.6 1.25 164.8 1.25 164.8 15.8
Q 164.8 17.45 165.3 18.65 165.85 19.9 166.8 20.7 167.9 21.6 169.1 21.95 170.3 22.35 172.05 22.35 173.55 22.35 175 21.95 176.35 21.5 177.3 20.7 178.1 20 178.8 18.65 179.3 17.45 179.3 15.8
L 179.3 1.25 Z"/>
</g>

<g id="CM_300x50_Mobile_psd_Asset_Frame_3_Show_us_your_pregame_ritual_and_you_could_win__5_000__0_Layer0_0_MEMBER_9_FILL">
<path fill="#FFFFFF" stroke="none" d="
M 195.3 11.45
Q 196.2 10.35 196.2 8.55
L 196.2 6.55
Q 196.2 3.8 194.75 2.5 193.35 1.25 190.55 1.25
L 183.6 1.25 183.6 22.05 187.4 22.05 187.4 13.6 189.15 13.6 193.05 22.05 196.9 22.05 192.8 13.2
Q 194.45 12.6 195.3 11.45
M 192.4 6.55
L 192.4 8.5
Q 192.4 9.4 191.9 9.8 191.4 10.25 190.55 10.25
L 187.4 10.25 187.4 4.6 190.55 4.6
Q 191.5 4.6 191.95 5.05 192.4 5.6 192.4 6.55 Z"/>
</g>

<g id="CM_300x50_Mobile_psd_Asset_Frame_3_Show_us_your_pregame_ritual_and_you_could_win__5_000__0_Layer0_0_MEMBER_10_FILL">
<path fill="#FFFFFF" stroke="none" d="
M 219.3 11.65
Q 219.7 10.7 219.7 9.55
L 219.7 6.4
Q 219.7 3.8 218.2 2.5 216.75 1.25 214.1 1.25
L 208 1.25 208 22.05 211.8 22.05 211.8 14.4 214.15 14.4
Q 215.3 14.4 216.35 14.1 217.35 13.8 218.1 13.2 218.85 12.6 219.3 11.65
M 214.1 4.6
Q 215 4.6 215.5 5 215.9 5.5 215.9 6.45
L 215.9 9.55
Q 215.9 10.4 215.45 10.7 214.95 11.05 214.1 11.05
L 211.8 11.05 211.8 4.6 214.1 4.6 Z"/>
</g>

<g id="CM_300x50_Mobile_psd_Asset_Frame_3_Show_us_your_pregame_ritual_and_you_could_win__5_000__0_Layer0_0_MEMBER_11_FILL">
<path fill="#FFFFFF" stroke="none" d="
M 235.05 11.45
Q 235.95 10.35 235.95 8.55
L 235.95 6.55
Q 235.95 3.8 234.5 2.5 233.1 1.25 230.35 1.25
L 223.35 1.25 223.35 22.05 227.15 22.05 227.15 13.6 228.9 13.6 232.8 22.05 236.65 22.05 232.55 13.2
Q 234.2 12.6 235.05 11.45
M 230.3 4.6
Q 231.35 4.6 231.7 5.05 232.15 5.6 232.15 6.55
L 232.15 8.5
Q 232.15 9.45 231.65 9.8 231.15 10.25 230.35 10.25
L 227.15 10.25 227.15 4.6 230.3 4.6 Z"/>
</g>

<g id="CM_300x50_Mobile_psd_Asset_Frame_3_Show_us_your_pregame_ritual_and_you_could_win__5_000__0_Layer0_0_MEMBER_12_FILL">
<path fill="#FFFFFF" stroke="none" d="
M 250.35 4.6
L 250.35 1.25 240.05 1.25 240.05 22.05 250.85 22.05 250.85 18.7 243.75 18.7 243.75 13.1 249.3 13.1 249.3 9.9 243.75 9.9 243.75 4.6 250.35 4.6 Z"/>
</g>

<g id="CM_300x50_Mobile_psd_Asset_Frame_3_Show_us_your_pregame_ritual_and_you_could_win__5_000__0_Layer0_0_MEMBER_13_FILL">
<path fill="#FFFFFF" stroke="none" d="
M 267.85 19.75
L 267.85 10.55 260.8 10.55 260.8 13.6 264.1 13.6 264.1 18.1
Q 263.35 18.7 262.7 18.85 262.05 19 261.15 19 259.6 19 258.7 18.25 257.75 17.5 257.75 16
L 257.75 7.3
Q 257.75 5.85 258.7 5.1 259.65 4.3 261.15 4.3 262.3 4.3 263.3 4.95 264.3 5.6 265.1 6.55
L 267.45 3.9
Q 266.3 2.4 264.85 1.7 263.3 0.9 261.15 0.9 259.7 0.9 258.35 1.35 257.15 1.8 256.1 2.65 255.1 3.5 254.6 4.65 254.05 5.9 254.05 7.3
L 254.05 16
Q 254.05 17.45 254.6 18.7 255.15 19.95 256.1 20.75 257.15 21.6 258.35 21.95 259.5 22.35 261.15 22.35 263.1 22.35 264.7 21.7 266.3 21.1 267.85 19.75 Z"/>
</g>

<g id="CM_300x50_Mobile_psd_Asset_Frame_3_Show_us_your_pregame_ritual_and_you_could_win__5_000__0_Layer0_0_MEMBER_14_FILL">
<path fill="#FFFFFF" stroke="none" d="
M 281 1.15
L 276.35 1.15 270.8 22.05 274.7 22.05 275.9 17.15 281.4 17.15 282.6 22.05 286.45 22.05 281 1.15
M 280.6 14.05
L 276.7 14.05 278.65 5 280.6 14.05 Z"/>
</g>

<g id="CM_300x50_Mobile_psd_Asset_Frame_3_Show_us_your_pregame_ritual_and_you_could_win__5_000__0_Layer0_0_MEMBER_15_FILL">
<path fill="#FFFFFF" stroke="none" d="
M 303.9 5.5
L 303.9 22.05 307.25 22.05 307.25 1.25 302.5 1.25 298.5 11.8 294.65 1.25 289.85 1.25 289.85 22.05 293.2 22.05 293.2 5.5 297.65 18.2 299.6 18.2 303.9 5.5 Z"/>
</g>

<g id="CM_300x50_Mobile_psd_Asset_Frame_3_Show_us_your_pregame_ritual_and_you_could_win__5_000__0_Layer0_0_MEMBER_16_FILL">
<path fill="#FFFFFF" stroke="none" d="
M 321.8 4.6
L 321.8 1.25 311.55 1.25 311.55 22.05 322.35 22.05 322.35 18.7 315.2 18.7 315.2 13.1 320.75 13.1 320.75 9.9 315.2 9.9 315.2 4.6 321.8 4.6 Z"/>
</g>

<g id="CM_300x50_Mobile_psd_Asset_Frame_3_Show_us_your_pregame_ritual_and_you_could_win__5_000__0_Layer0_0_MEMBER_17_FILL">
<path fill="#FFFFFF" stroke="none" d="
M 345.65 11.45
Q 346.55 10.35 346.55 8.55
L 346.55 6.55
Q 346.55 3.8 345.1 2.5 343.7 1.25 340.95 1.25
L 333.95 1.25 333.95 22.05 337.75 22.05 337.75 13.6 339.5 13.6 343.4 22.05 347.25 22.05 343.15 13.2
Q 344.8 12.6 345.65 11.45
M 337.75 10.25
L 337.75 4.6 340.9 4.6
Q 341.85 4.6 342.3 5.05 342.75 5.6 342.75 6.55
L 342.75 8.5
Q 342.75 9.4 342.25 9.8 341.75 10.25 340.95 10.25
L 337.75 10.25 Z"/>
</g>

<g id="CM_300x50_Mobile_psd_Asset_Frame_3_Show_us_your_pregame_ritual_and_you_could_win__5_000__0_Layer0_0_MEMBER_18_FILL">
<path fill="#FFFFFF" stroke="none" d="
M 351.15 1.25
L 351.15 22.05 354.95 22.05 354.95 1.25 351.15 1.25 Z"/>
</g>

<g id="CM_300x50_Mobile_psd_Asset_Frame_3_Show_us_your_pregame_ritual_and_you_could_win__5_000__0_Layer0_0_MEMBER_19_FILL">
<path fill="#FFFFFF" stroke="none" d="
M 372.75 4.6
L 372.75 1.25 358.75 1.25 358.75 4.6 363.85 4.6 363.85 22.05 367.65 22.05 367.65 4.6 372.75 4.6 Z"/>
</g>

<g id="CM_300x50_Mobile_psd_Asset_Frame_3_Show_us_your_pregame_ritual_and_you_could_win__5_000__0_Layer0_0_MEMBER_20_FILL">
<path fill="#FFFFFF" stroke="none" d="
M 386.7 1.25
L 386.7 15.8
Q 386.7 17.45 385.8 18.2 384.85 19 383.2 19 381.55 19 380.7 18.2 379.8 17.45 379.8 15.8
L 379.8 1.25 376 1.25 376 15.8
Q 376 17.45 376.5 18.65 377.05 19.9 378 20.7 379.1 21.6 380.3 21.95 381.5 22.35 383.25 22.35 384.75 22.35 386.2 21.95 387.55 21.5 388.5 20.7 389.3 20 390 18.65 390.5 17.45 390.5 15.8
L 390.5 1.25 386.7 1.25 Z"/>
</g>

<g id="CM_300x50_Mobile_psd_Asset_Frame_3_Show_us_your_pregame_ritual_and_you_could_win__5_000__0_Layer0_0_MEMBER_21_FILL">
<path fill="#FFFFFF" stroke="none" d="
M 405.1 22.05
L 408.95 22.05 403.5 1.15 398.85 1.15 393.3 22.05 397.2 22.05 398.4 17.15 403.9 17.15 405.1 22.05
M 403.1 14.05
L 399.2 14.05 401.15 5 403.1 14.05 Z"/>
</g>

<g id="CM_300x50_Mobile_psd_Asset_Frame_3_Show_us_your_pregame_ritual_and_you_could_win__5_000__0_Layer0_0_MEMBER_22_FILL">
<path fill="#FFFFFF" stroke="none" d="
M 416 1.25
L 412.35 1.25 412.35 22.05 423.75 22.05 423.75 18.7 416 18.7 416 1.25 Z"/>
</g>

<g id="CM_300x50_Mobile_psd_Asset_Frame_3_Show_us_your_pregame_ritual_and_you_could_win__5_000__0_Layer0_0_MEMBER_23_FILL">
<path fill="#FFFFFF" stroke="none" d="
M 10.8 36.9
L 6.15 36.9 0.6 57.8 4.45 57.8 5.7 52.85 11.2 52.85 12.4 57.8 16.25 57.8 10.8 36.9
M 10.4 49.8
L 6.5 49.8 8.45 40.75 10.4 49.8 Z"/>
</g>

<g id="CM_300x50_Mobile_psd_Asset_Frame_3_Show_us_your_pregame_ritual_and_you_could_win__5_000__0_Layer0_0_MEMBER_24_FILL">
<path fill="#FFFFFF" stroke="none" d="
M 34.4 36.95
L 31 36.95 31 53.85 25.1 36.95 19.65 36.95 19.65 57.8 23 57.8 23 41.25 28.35 57.8 34.4 57.8 34.4 36.95 Z"/>
</g>

<g id="CM_300x50_Mobile_psd_Asset_Frame_3_Show_us_your_pregame_ritual_and_you_could_win__5_000__0_Layer0_0_MEMBER_25_FILL">
<path fill="#FFFFFF" stroke="none" d="
M 49.75 38.55
Q 47.85 36.95 44.7 36.95
L 38.65 36.95 38.65 57.85 44.45 57.85
Q 47.85 57.85 49.7 56.35 51.55 54.85 51.55 51.45
L 51.55 43.3
Q 51.55 40.15 49.75 38.55
M 47.05 41.05
Q 47.9 41.75 47.9 43.3
L 47.9 51.45
Q 47.9 52.95 46.95 53.75 46.05 54.45 44.4 54.45
L 42.35 54.45 42.35 40.35 44.65 40.35
Q 46.2 40.35 47.05 41.05 Z"/>
</g>

<g id="CM_300x50_Mobile_psd_Asset_Frame_3_Show_us_your_pregame_ritual_and_you_could_win__5_000__0_Layer0_0_MEMBER_26_FILL">
<path fill="#FFFFFF" stroke="none" d="
M 66.05 36.95
L 61.95 36.95 67.9 49.55 67.9 57.8 71.7 57.8 71.7 49.6 77.75 36.95 73.65 36.95 69.8 45.7 66.05 36.95 Z"/>
</g>

<g id="CM_300x50_Mobile_psd_Asset_Frame_3_Show_us_your_pregame_ritual_and_you_could_win__5_000__0_Layer0_0_MEMBER_27_FILL">
<path fill="#FFFFFF" stroke="none" d="
M 90.35 37.1
Q 89 36.65 87.55 36.65
L 87.1 36.65
Q 85.6 36.65 84.3 37.1 82.85 37.6 82.05 38.35 81.1 39.15 80.5 40.35 79.95 41.45 79.95 43
L 79.95 51.75
Q 79.95 53.35 80.45 54.5 81.05 55.65 81.95 56.5 82.95 57.35 84.25 57.7 85.45 58.1 87.15 58.1
L 87.55 58.1
Q 89.2 58.1 90.35 57.7 91.7 57.25 92.65 56.45 93.55 55.75 94.15 54.5 94.7 53.25 94.7 51.75
L 94.7 43
Q 94.7 41.55 94.15 40.35 93.55 39.15 92.6 38.35 91.7 37.55 90.35 37.1
M 89.95 40.8
Q 90.9 41.6 90.9 43.05
L 90.9 51.75
Q 90.9 53.35 90 54 89.1 54.75 87.55 54.75
L 87.15 54.75
Q 85.65 54.75 84.65 54 83.75 53.35 83.75 51.75
L 83.75 43
Q 83.75 41.55 84.7 40.8 85.7 40.05 87.1 40.05
L 87.55 40.05
Q 89 40.05 89.95 40.8 Z"/>
</g>

<g id="CM_300x50_Mobile_psd_Asset_Frame_3_Show_us_your_pregame_ritual_and_you_could_win__5_000__0_Layer0_0_MEMBER_28_FILL">
<path fill="#FFFFFF" stroke="none" d="
M 113.05 36.95
L 109.25 36.95 109.25 51.55
Q 109.25 53.2 108.35 53.95 107.4 54.75 105.75 54.75 104.1 54.75 103.25 53.95 102.35 53.2 102.35 51.55
L 102.35 36.95 98.55 36.95 98.55 51.55
Q 98.55 53.2 99.05 54.4 99.6 55.65 100.55 56.45 101.5 57.25 102.85 57.7 104.05 58.1 105.8 58.1 107.3 58.1 108.75 57.7 110.1 57.25 111.05 56.45 111.85 55.75 112.55 54.4 113.05 53.2 113.05 51.55
L 113.05 36.95 Z"/>
</g>

<g id="CM_300x50_Mobile_psd_Asset_Frame_3_Show_us_your_pregame_ritual_and_you_could_win__5_000__0_Layer0_0_MEMBER_29_FILL">
<path fill="#FFFFFF" stroke="none" d="
M 133.75 36.8
L 131.8 36.65
Q 130.25 36.65 129.05 37.1 127.8 37.55 126.85 38.4 125.85 39.3 125.45 40.4 124.9 41.6 124.9 43.05
L 124.9 51.75
Q 124.9 54.9 126.8 56.5 128.6 58.1 131.8 58.1 133.7 58.1 135.1 57.5 136.55 56.8 137.8 55.5
L 135.6 52.85 134 54.2
Q 133.65 54.45 133.05 54.6 132.55 54.75 131.8 54.75 128.7 54.75 128.7 51.75
L 128.7 43.05
Q 128.7 41.65 129.55 40.8 130.4 40.05 131.8 40.05 133.1 40.05 134.15 40.7 135.05 41.4 135.5 42.05
L 137.9 39.7
Q 137.45 39 136.75 38.3 136.1 37.75 135.35 37.35 134.6 36.95 133.75 36.8 Z"/>
</g>

<g id="CM_300x50_Mobile_psd_Asset_Frame_3_Show_us_your_pregame_ritual_and_you_could_win__5_000__0_Layer0_0_MEMBER_30_FILL">
<path fill="#FFFFFF" stroke="none" d="
M 141.4 40.35
Q 140.85 41.45 140.85 43
L 140.85 51.75
Q 140.85 53.35 141.35 54.5 141.95 55.65 142.85 56.5 143.8 57.3 145.15 57.7 146.35 58.1 148.05 58.1
L 148.45 58.1
Q 150.1 58.1 151.25 57.7 152.6 57.25 153.55 56.45 154.45 55.75 155.05 54.5 155.6 53.25 155.6 51.75
L 155.6 43
Q 155.6 41.55 155.05 40.35 154.45 39.15 153.5 38.35 152.6 37.55 151.25 37.1 149.9 36.65 148.45 36.65
L 148 36.65
Q 146.5 36.65 145.2 37.1 143.9 37.55 142.95 38.35 142 39.15 141.4 40.35
M 150.85 40.8
Q 151.8 41.6 151.8 43.05
L 151.8 51.75
Q 151.8 53.35 150.9 54 150 54.75 148.45 54.75
L 148.05 54.75
Q 146.55 54.75 145.55 54 144.65 53.35 144.65 51.75
L 144.65 43
Q 144.65 41.55 145.6 40.8 146.6 40.05 148 40.05
L 148.45 40.05
Q 149.9 40.05 150.85 40.8 Z"/>
</g>

<g id="CM_300x50_Mobile_psd_Asset_Frame_3_Show_us_your_pregame_ritual_and_you_could_win__5_000__0_Layer0_0_MEMBER_31_FILL">
<path fill="#FFFFFF" stroke="none" d="
M 173.95 36.95
L 170.15 36.95 170.15 51.55
Q 170.15 53.2 169.25 53.95 168.3 54.75 166.7 54.75 165 54.75 164.15 53.95 163.25 53.2 163.25 51.55
L 163.25 36.95 159.45 36.95 159.45 51.55
Q 159.45 53.2 159.95 54.4 160.5 55.65 161.45 56.45 162.4 57.25 163.75 57.7 164.95 58.1 166.7 58.1 168.2 58.1 169.65 57.7 171 57.25 171.95 56.45 172.75 55.75 173.45 54.4 173.95 53.2 173.95 51.55
L 173.95 36.95 Z"/>
</g>

<g id="CM_300x50_Mobile_psd_Asset_Frame_3_Show_us_your_pregame_ritual_and_you_could_win__5_000__0_Layer0_0_MEMBER_32_FILL">
<path fill="#FFFFFF" stroke="none" d="
M 181.95 36.95
L 178.25 36.95 178.25 57.8 189.65 57.8 189.65 54.45 181.95 54.45 181.95 36.95 Z"/>
</g>

<g id="CM_300x50_Mobile_psd_Asset_Frame_3_Show_us_your_pregame_ritual_and_you_could_win__5_000__0_Layer0_0_MEMBER_33_FILL">
<path fill="#FFFFFF" stroke="none" d="
M 205.8 43.3
Q 205.8 40.1 203.95 38.55 202.1 36.95 198.9 36.95
L 192.9 36.95 192.9 57.85 198.65 57.85
Q 202.05 57.85 203.9 56.35 205.8 54.85 205.8 51.45
L 205.8 43.3
M 201.3 41.05
Q 202.15 41.75 202.15 43.3
L 202.15 51.45
Q 202.15 53 201.15 53.75 200.25 54.45 198.65 54.45
L 196.6 54.45 196.6 40.35 198.9 40.35
Q 200.45 40.35 201.3 41.05 Z"/>
</g>

<g id="CM_300x50_Mobile_psd_Asset_Frame_3_Show_us_your_pregame_ritual_and_you_could_win__5_000__0_Layer0_0_MEMBER_34_FILL">
<path fill="#FFFFFF" stroke="none" d="
M 229.15 36.95
L 225.4 36.95 222.55 50.95 219.95 36.95 216.15 36.95 220.25 57.8 224.4 57.8 227.3 44.35 230.2 57.8 234.35 57.8 238.1 36.95 234.25 36.95 232.1 51 229.15 36.95 Z"/>
</g>

<g id="CM_300x50_Mobile_psd_Asset_Frame_3_Show_us_your_pregame_ritual_and_you_could_win__5_000__0_Layer0_0_MEMBER_35_FILL">
<path fill="#FFFFFF" stroke="none" d="
M 245.9 57.8
L 245.9 36.95 242.1 36.95 242.1 57.8 245.9 57.8 Z"/>
</g>

<g id="CM_300x50_Mobile_psd_Asset_Frame_3_Show_us_your_pregame_ritual_and_you_could_win__5_000__0_Layer0_0_MEMBER_36_FILL">
<path fill="#FFFFFF" stroke="none" d="
M 265.45 36.95
L 262.05 36.95 262.05 53.85 256.15 36.95 250.7 36.95 250.7 57.8 254.05 57.8 254.05 41.25 259.45 57.8 265.45 57.8 265.45 36.95 Z"/>
</g>

<g id="CM_300x50_Mobile_psd_Asset_Frame_3_Show_us_your_pregame_ritual_and_you_could_win__5_000__0_Layer0_0_MEMBER_37_FILL">
<path fill="#FFFFFF" stroke="none" d="
M 285.4 37.05
L 285.4 33.3 282.4 33.3 282.4 36.95
Q 280 37.35 278.85 38.7 277.65 40.15 277.65 42.3
L 277.65 46 285.95 50.55 285.95 51.7
Q 285.95 52.95 285.35 53.7 284.75 54.45 283.5 54.45 282.7 54.45 282.1 54.3 281.55 54.15 281.1 53.85 280.65 53.45 280.3 53
L 279.6 51.75 277.1 53.9
Q 277.35 54.7 277.85 55.35 278.3 55.95 279 56.55 279.75 57.1 280.5 57.4 281.1 57.7 282.05 57.8
L 282.05 61.4 285.1 61.4 285.1 57.85
Q 287.35 57.4 288.5 55.85 289.75 54.3 289.75 52.1
L 289.75 48.45 281.4 43.85 281.4 42.45
Q 281.4 41.25 282.05 40.8 282.75 40.35 283.95 40.35 285.05 40.35 285.85 40.9 286.6 41.5 287.45 42.65
L 289.85 40.4
Q 289.45 39.75 289.1 39.3 288.55 38.65 288 38.25 287.2 37.65 286.75 37.45 286 37.1 285.4 37.05 Z"/>
</g>

<g id="CM_300x50_Mobile_psd_Asset_Frame_3_Show_us_your_pregame_ritual_and_you_could_win__5_000__0_Layer0_0_MEMBER_38_FILL">
<path fill="#FFFFFF" stroke="none" d="
M 297.8 44.7
L 298.1 40.35 304.3 40.35 304.3 36.95 294.7 36.95 293.8 48.1 299.15 48.1
Q 300.3 48.1 300.9 48.55 301.55 49.05 301.55 50.1
L 301.55 52.8
Q 301.55 53.9 301.1 54.35 300.6 54.75 299.55 54.75 298.75 54.75 298.25 54.4 297.9 54.2 297.4 53.7 297.05 53.2 296.95 52.85
L 296.75 52.2 293.15 53.3
Q 293.3 54.55 293.9 55.45 294.55 56.4 295.3 56.95 296.2 57.6 297.1 57.8 298.1 58.1 299.1 58.1 300.45 58.1 301.55 57.8 302.65 57.5 303.5 56.8 304.3 56.15 304.75 55.15 305.25 54.15 305.25 52.8
L 305.25 50.1
Q 305.25 47.45 303.65 46.1 302 44.7 299.4 44.7
L 297.8 44.7 Z"/>
</g>

<g id="CM_300x50_Mobile_psd_Asset_Frame_3_Show_us_your_pregame_ritual_and_you_could_win__5_000__0_Layer0_0_MEMBER_39_FILL">
<path fill="#FFFFFF" stroke="none" d="
M 312 54.75
L 308.8 54.75 308.8 57.15
Q 308.8 58.45 308.5 59.4 308.05 60.5 307.65 60.95
L 309.2 62.05
Q 309.55 61.8 310.2 61.05 310.75 60.45 311.1 59.7 311.6 58.65 311.75 57.85 312 56.75 312 55.6
L 312 54.75 Z"/>
</g>

<g id="CM_300x50_Mobile_psd_Asset_Frame_3_Show_us_your_pregame_ritual_and_you_could_win__5_000__0_Layer0_0_MEMBER_40_FILL">
<path fill="#FFFFFF" stroke="none" d="
M 328.7 43
Q 328.7 40 326.95 38.3 325.25 36.65 322.2 36.65 319.1 36.65 317.45 38.3 315.75 39.95 315.75 43
L 315.75 52
Q 315.75 55.05 317.45 56.6 319.2 58.1 322.2 58.1 323.8 58.1 324.85 57.7 326.2 57.2 326.9 56.5 327.75 55.8 328.2 54.55 328.7 53.5 328.7 51.9
L 328.7 43
M 324.25 40.8
Q 324.9 41.5 324.9 43
L 324.9 51.9
Q 324.9 53.25 324.25 54.05 323.55 54.75 322.2 54.75 320.8 54.75 320.2 54.05 319.55 53.4 319.55 52
L 319.55 43
Q 319.55 41.65 320.15 40.8 320.75 40.05 322.2 40.05 323.65 40.05 324.25 40.8 Z"/>
</g>

<g id="CM_300x50_Mobile_psd_Asset_Frame_3_Show_us_your_pregame_ritual_and_you_could_win__5_000__0_Layer0_0_MEMBER_41_FILL">
<path fill="#FFFFFF" stroke="none" d="
M 339.05 36.65
Q 335.95 36.65 334.3 38.3 332.6 39.95 332.6 43
L 332.6 52
Q 332.6 55.05 334.3 56.6 336.05 58.1 339.05 58.1 340.65 58.1 341.7 57.7 342.95 57.25 343.75 56.5 344.6 55.7 345.05 54.55 345.5 53.45 345.5 51.9
L 345.5 43
Q 345.5 39.95 343.8 38.3 342.1 36.65 339.05 36.65
M 341.1 40.8
Q 341.7 41.55 341.7 43
L 341.7 51.9
Q 341.7 53.3 341.1 54.05 340.4 54.75 339.05 54.75 337.7 54.75 337 54.05 336.4 53.4 336.4 52
L 336.4 43
Q 336.4 41.65 337 40.8 337.6 40.05 339.05 40.05 340.5 40.05 341.1 40.8 Z"/>
</g>

<g id="CM_300x50_Mobile_psd_Asset_Frame_3_Show_us_your_pregame_ritual_and_you_could_win__5_000__0_Layer0_0_MEMBER_42_FILL">
<path fill="#FFFFFF" stroke="none" d="
M 355.85 36.65
Q 352.85 36.65 351.1 38.3 349.45 39.95 349.45 43
L 349.45 52
Q 349.45 55.05 351.15 56.6 352.8 58.1 355.85 58.1 357.5 58.1 358.55 57.7 359.8 57.25 360.6 56.5 361.45 55.7 361.9 54.55 362.35 53.45 362.35 51.9
L 362.35 43
Q 362.35 39.95 360.65 38.3 358.95 36.65 355.85 36.65
M 357.95 40.8
Q 358.55 41.55 358.55 43
L 358.55 51.9
Q 358.55 53.35 357.9 54.05 357.3 54.75 355.85 54.75 354.55 54.75 353.85 54.05 353.25 53.4 353.25 52
L 353.25 43
Q 353.25 41.65 353.85 40.8 354.45 40.05 355.85 40.05 357.35 40.05 357.95 40.8 Z"/>
</g>

<g id="CM_300x50_Mobile_psd_Asset_Frame_3_Show_us_your_pregame_ritual_and_you_could_win__5_000__0_Layer0_0_MEMBER_43_FILL">
<path fill="#FFFFFF" stroke="none" d="
M 366.1 53.65
L 366.1 57.8 370 57.8 370 53.65 366.1 53.65 Z"/>
</g>
</defs>

<g transform="matrix( 1, 0, 0, 1, 65,14) ">
<g transform="matrix( 0.388671875, 0, 0, 0.391632080078125, 0,-0.05) ">
<use xlink:href="#CM_300x50_Mobile_psd_Asset_Frame_3_Show_us_your_pregame_ritual_and_you_could_win__5_000__0_Layer0_0_MEMBER_0_FILL"/>
</g>

<g transform="matrix( 0.388671875, 0, 0, 0.391632080078125, 0,-0.05) ">
<use xlink:href="#CM_300x50_Mobile_psd_Asset_Frame_3_Show_us_your_pregame_ritual_and_you_could_win__5_000__0_Layer0_0_MEMBER_1_FILL"/>
</g>

<g transform="matrix( 0.388671875, 0, 0, 0.391632080078125, 0,-0.05) ">
<use xlink:href="#CM_300x50_Mobile_psd_Asset_Frame_3_Show_us_your_pregame_ritual_and_you_could_win__5_000__0_Layer0_0_MEMBER_2_FILL"/>
</g>

<g transform="matrix( 0.388671875, 0, 0, 0.391632080078125, 0,-0.05) ">
<use xlink:href="#CM_300x50_Mobile_psd_Asset_Frame_3_Show_us_your_pregame_ritual_and_you_could_win__5_000__0_Layer0_0_MEMBER_3_FILL"/>
</g>

<g transform="matrix( 0.388671875, 0, 0, 0.391632080078125, 0,-0.05) ">
<use xlink:href="#CM_300x50_Mobile_psd_Asset_Frame_3_Show_us_your_pregame_ritual_and_you_could_win__5_000__0_Layer0_0_MEMBER_4_FILL"/>
</g>

<g transform="matrix( 0.388671875, 0, 0, 0.391632080078125, 0,-0.05) ">
<use xlink:href="#CM_300x50_Mobile_psd_Asset_Frame_3_Show_us_your_pregame_ritual_and_you_could_win__5_000__0_Layer0_0_MEMBER_5_FILL"/>
</g>

<g transform="matrix( 0.388671875, 0, 0, 0.391632080078125, 0,-0.05) ">
<use xlink:href="#CM_300x50_Mobile_psd_Asset_Frame_3_Show_us_your_pregame_ritual_and_you_could_win__5_000__0_Layer0_0_MEMBER_6_FILL"/>
</g>

<g transform="matrix( 0.388671875, 0, 0, 0.391632080078125, 0,-0.05) ">
<use xlink:href="#CM_300x50_Mobile_psd_Asset_Frame_3_Show_us_your_pregame_ritual_and_you_could_win__5_000__0_Layer0_0_MEMBER_7_FILL"/>
</g>

<g transform="matrix( 0.388671875, 0, 0, 0.391632080078125, 0,-0.05) ">
<use xlink:href="#CM_300x50_Mobile_psd_Asset_Frame_3_Show_us_your_pregame_ritual_and_you_could_win__5_000__0_Layer0_0_MEMBER_8_FILL"/>
</g>

<g transform="matrix( 0.388671875, 0, 0, 0.391632080078125, 0,-0.05) ">
<use xlink:href="#CM_300x50_Mobile_psd_Asset_Frame_3_Show_us_your_pregame_ritual_and_you_could_win__5_000__0_Layer0_0_MEMBER_9_FILL"/>
</g>

<g transform="matrix( 0.388671875, 0, 0, 0.391632080078125, 0,-0.05) ">
<use xlink:href="#CM_300x50_Mobile_psd_Asset_Frame_3_Show_us_your_pregame_ritual_and_you_could_win__5_000__0_Layer0_0_MEMBER_10_FILL"/>
</g>

<g transform="matrix( 0.388671875, 0, 0, 0.391632080078125, 0,-0.05) ">
<use xlink:href="#CM_300x50_Mobile_psd_Asset_Frame_3_Show_us_your_pregame_ritual_and_you_could_win__5_000__0_Layer0_0_MEMBER_11_FILL"/>
</g>

<g transform="matrix( 0.388671875, 0, 0, 0.391632080078125, 0,-0.05) ">
<use xlink:href="#CM_300x50_Mobile_psd_Asset_Frame_3_Show_us_your_pregame_ritual_and_you_could_win__5_000__0_Layer0_0_MEMBER_12_FILL"/>
</g>

<g transform="matrix( 0.388671875, 0, 0, 0.391632080078125, 0,-0.05) ">
<use xlink:href="#CM_300x50_Mobile_psd_Asset_Frame_3_Show_us_your_pregame_ritual_and_you_could_win__5_000__0_Layer0_0_MEMBER_13_FILL"/>
</g>

<g transform="matrix( 0.388671875, 0, 0, 0.391632080078125, 0,-0.05) ">
<use xlink:href="#CM_300x50_Mobile_psd_Asset_Frame_3_Show_us_your_pregame_ritual_and_you_could_win__5_000__0_Layer0_0_MEMBER_14_FILL"/>
</g>

<g transform="matrix( 0.388671875, 0, 0, 0.391632080078125, 0,-0.05) ">
<use xlink:href="#CM_300x50_Mobile_psd_Asset_Frame_3_Show_us_your_pregame_ritual_and_you_could_win__5_000__0_Layer0_0_MEMBER_15_FILL"/>
</g>

<g transform="matrix( 0.388671875, 0, 0, 0.391632080078125, 0,-0.05) ">
<use xlink:href="#CM_300x50_Mobile_psd_Asset_Frame_3_Show_us_your_pregame_ritual_and_you_could_win__5_000__0_Layer0_0_MEMBER_16_FILL"/>
</g>

<g transform="matrix( 0.388671875, 0, 0, 0.391632080078125, 0,-0.05) ">
<use xlink:href="#CM_300x50_Mobile_psd_Asset_Frame_3_Show_us_your_pregame_ritual_and_you_could_win__5_000__0_Layer0_0_MEMBER_17_FILL"/>
</g>

<g transform="matrix( 0.388671875, 0, 0, 0.391632080078125, 0,-0.05) ">
<use xlink:href="#CM_300x50_Mobile_psd_Asset_Frame_3_Show_us_your_pregame_ritual_and_you_could_win__5_000__0_Layer0_0_MEMBER_18_FILL"/>
</g>

<g transform="matrix( 0.388671875, 0, 0, 0.391632080078125, 0,-0.05) ">
<use xlink:href="#CM_300x50_Mobile_psd_Asset_Frame_3_Show_us_your_pregame_ritual_and_you_could_win__5_000__0_Layer0_0_MEMBER_19_FILL"/>
</g>

<g transform="matrix( 0.388671875, 0, 0, 0.391632080078125, 0,-0.05) ">
<use xlink:href="#CM_300x50_Mobile_psd_Asset_Frame_3_Show_us_your_pregame_ritual_and_you_could_win__5_000__0_Layer0_0_MEMBER_20_FILL"/>
</g>

<g transform="matrix( 0.388671875, 0, 0, 0.391632080078125, 0,-0.05) ">
<use xlink:href="#CM_300x50_Mobile_psd_Asset_Frame_3_Show_us_your_pregame_ritual_and_you_could_win__5_000__0_Layer0_0_MEMBER_21_FILL"/>
</g>

<g transform="matrix( 0.388671875, 0, 0, 0.391632080078125, 0,-0.05) ">
<use xlink:href="#CM_300x50_Mobile_psd_Asset_Frame_3_Show_us_your_pregame_ritual_and_you_could_win__5_000__0_Layer0_0_MEMBER_22_FILL"/>
</g>

<g transform="matrix( 0.388671875, 0, 0, 0.391632080078125, 0,-0.05) ">
<use xlink:href="#CM_300x50_Mobile_psd_Asset_Frame_3_Show_us_your_pregame_ritual_and_you_could_win__5_000__0_Layer0_0_MEMBER_23_FILL"/>
</g>

<g transform="matrix( 0.388671875, 0, 0, 0.391632080078125, 0,-0.05) ">
<use xlink:href="#CM_300x50_Mobile_psd_Asset_Frame_3_Show_us_your_pregame_ritual_and_you_could_win__5_000__0_Layer0_0_MEMBER_24_FILL"/>
</g>

<g transform="matrix( 0.388671875, 0, 0, 0.391632080078125, 0,-0.05) ">
<use xlink:href="#CM_300x50_Mobile_psd_Asset_Frame_3_Show_us_your_pregame_ritual_and_you_could_win__5_000__0_Layer0_0_MEMBER_25_FILL"/>
</g>

<g transform="matrix( 0.388671875, 0, 0, 0.391632080078125, 0,-0.05) ">
<use xlink:href="#CM_300x50_Mobile_psd_Asset_Frame_3_Show_us_your_pregame_ritual_and_you_could_win__5_000__0_Layer0_0_MEMBER_26_FILL"/>
</g>

<g transform="matrix( 0.388671875, 0, 0, 0.391632080078125, 0,-0.05) ">
<use xlink:href="#CM_300x50_Mobile_psd_Asset_Frame_3_Show_us_your_pregame_ritual_and_you_could_win__5_000__0_Layer0_0_MEMBER_27_FILL"/>
</g>

<g transform="matrix( 0.388671875, 0, 0, 0.391632080078125, 0,-0.05) ">
<use xlink:href="#CM_300x50_Mobile_psd_Asset_Frame_3_Show_us_your_pregame_ritual_and_you_could_win__5_000__0_Layer0_0_MEMBER_28_FILL"/>
</g>

<g transform="matrix( 0.388671875, 0, 0, 0.391632080078125, 0,-0.05) ">
<use xlink:href="#CM_300x50_Mobile_psd_Asset_Frame_3_Show_us_your_pregame_ritual_and_you_could_win__5_000__0_Layer0_0_MEMBER_29_FILL"/>
</g>

<g transform="matrix( 0.388671875, 0, 0, 0.391632080078125, 0,-0.05) ">
<use xlink:href="#CM_300x50_Mobile_psd_Asset_Frame_3_Show_us_your_pregame_ritual_and_you_could_win__5_000__0_Layer0_0_MEMBER_30_FILL"/>
</g>

<g transform="matrix( 0.388671875, 0, 0, 0.391632080078125, 0,-0.05) ">
<use xlink:href="#CM_300x50_Mobile_psd_Asset_Frame_3_Show_us_your_pregame_ritual_and_you_could_win__5_000__0_Layer0_0_MEMBER_31_FILL"/>
</g>

<g transform="matrix( 0.388671875, 0, 0, 0.391632080078125, 0,-0.05) ">
<use xlink:href="#CM_300x50_Mobile_psd_Asset_Frame_3_Show_us_your_pregame_ritual_and_you_could_win__5_000__0_Layer0_0_MEMBER_32_FILL"/>
</g>

<g transform="matrix( 0.388671875, 0, 0, 0.391632080078125, 0,-0.05) ">
<use xlink:href="#CM_300x50_Mobile_psd_Asset_Frame_3_Show_us_your_pregame_ritual_and_you_could_win__5_000__0_Layer0_0_MEMBER_33_FILL"/>
</g>

<g transform="matrix( 0.388671875, 0, 0, 0.391632080078125, 0,-0.05) ">
<use xlink:href="#CM_300x50_Mobile_psd_Asset_Frame_3_Show_us_your_pregame_ritual_and_you_could_win__5_000__0_Layer0_0_MEMBER_34_FILL"/>
</g>

<g transform="matrix( 0.388671875, 0, 0, 0.391632080078125, 0,-0.05) ">
<use xlink:href="#CM_300x50_Mobile_psd_Asset_Frame_3_Show_us_your_pregame_ritual_and_you_could_win__5_000__0_Layer0_0_MEMBER_35_FILL"/>
</g>

<g transform="matrix( 0.388671875, 0, 0, 0.391632080078125, 0,-0.05) ">
<use xlink:href="#CM_300x50_Mobile_psd_Asset_Frame_3_Show_us_your_pregame_ritual_and_you_could_win__5_000__0_Layer0_0_MEMBER_36_FILL"/>
</g>

<g transform="matrix( 0.388671875, 0, 0, 0.391632080078125, 0,-0.05) ">
<use xlink:href="#CM_300x50_Mobile_psd_Asset_Frame_3_Show_us_your_pregame_ritual_and_you_could_win__5_000__0_Layer0_0_MEMBER_37_FILL"/>
</g>

<g transform="matrix( 0.388671875, 0, 0, 0.391632080078125, 0,-0.05) ">
<use xlink:href="#CM_300x50_Mobile_psd_Asset_Frame_3_Show_us_your_pregame_ritual_and_you_could_win__5_000__0_Layer0_0_MEMBER_38_FILL"/>
</g>

<g transform="matrix( 0.388671875, 0, 0, 0.391632080078125, 0,-0.05) ">
<use xlink:href="#CM_300x50_Mobile_psd_Asset_Frame_3_Show_us_your_pregame_ritual_and_you_could_win__5_000__0_Layer0_0_MEMBER_39_FILL"/>
</g>

<g transform="matrix( 0.388671875, 0, 0, 0.391632080078125, 0,-0.05) ">
<use xlink:href="#CM_300x50_Mobile_psd_Asset_Frame_3_Show_us_your_pregame_ritual_and_you_could_win__5_000__0_Layer0_0_MEMBER_40_FILL"/>
</g>

<g transform="matrix( 0.388671875, 0, 0, 0.391632080078125, 0,-0.05) ">
<use xlink:href="#CM_300x50_Mobile_psd_Asset_Frame_3_Show_us_your_pregame_ritual_and_you_could_win__5_000__0_Layer0_0_MEMBER_41_FILL"/>
</g>

<g transform="matrix( 0.388671875, 0, 0, 0.391632080078125, 0,-0.05) ">
<use xlink:href="#CM_300x50_Mobile_psd_Asset_Frame_3_Show_us_your_pregame_ritual_and_you_could_win__5_000__0_Layer0_0_MEMBER_42_FILL"/>
</g>

<g transform="matrix( 0.388671875, 0, 0, 0.391632080078125, 0,-0.05) ">
<use xlink:href="#CM_300x50_Mobile_psd_Asset_Frame_3_Show_us_your_pregame_ritual_and_you_could_win__5_000__0_Layer0_0_MEMBER_43_FILL"/>
</g>
</g>
</svg>
