
<svg xmlns="http://www.w3.org/2000/svg" version="1.1" xmlns:xlink="http://www.w3.org/1999/xlink" preserveAspectRatio="none" x="0px" y="0px" width="728px" height="90px" viewBox="0 0 728 90">
<defs>
<g id="CM_728x90_Generic_psd_Asset_Frame_3_SHOW_US_YOUR_PREGAME_RITUAL_AND_YOU_COULD_WIN__5_000__0_Layer0_0_MEMBER_0_FILL">
<path fill="#FFFFFF" stroke="none" d="
M 19.9 5.2
Q 18.95 4.15 18.15 3.55 17.3 2.9 16.1 2.3 15.15 1.9 13.95 1.55 12.8 1.3 11.85 1.3 9.8 1.3 8.15 1.8 6.5 2.25 5.25 3.25 4 4.25 3.35 5.65 2.65 7.05 2.65 9.15 2.65 10.9 3.2 12.3 3.85 13.75 4.6 14.65 5.4 15.6 6.45 16.4
L 8.35 17.7
Q 9.55 18.45 10.5 18.85 11.55 19.35 12.75 20.15 13.7 20.75 14.5 21.65 15.2 22.45 15.2 23.5 15.2 25.45 14.15 26.1 13.15 26.75 11.2 26.75 9.05 26.75 7.85 25.75 6.55 24.7 5.7 22.9
L 1.65 26.1
Q 3.15 29.1 5.7 30.3 8.2 31.55 11.5 31.55 13.3 31.55 15.05 31 16.7 30.5 17.9 29.5 19.2 28.45 19.85 26.95 20.6 25.45 20.6 23.5 20.6 21.55 20.2 20.2 19.9 19.15 19.15 18 18.6 17.2 17.5 16.35
L 15.4 14.9
Q 14.55 14.35 13.55 13.9 12.55 13.4 11.05 12.55 9.95 11.85 8.9 10.9 8 10 8 9 8 7.4 8.85 6.7 9.75 6.05 11.3 6.05 12.05 6.05 12.8 6.35 13.65 6.65 14.35 7.15
L 15.75 8.1 16.8 9.2 19.9 5.2 Z"/>
</g>

<g id="CM_728x90_Generic_psd_Asset_Frame_3_SHOW_US_YOUR_PREGAME_RITUAL_AND_YOU_COULD_WIN__5_000__0_Layer0_0_MEMBER_1_FILL">
<path fill="#FFFFFF" stroke="none" d="
M 40.5 1.75
L 40.5 14.5 31.2 14.5 31.2 1.75 26 1.75 26 31.2 31.2 31.2 31.2 19.3 40.5 19.3 40.5 31.2 45.75 31.2 45.75 1.75 40.5 1.75 Z"/>
</g>

<g id="CM_728x90_Generic_psd_Asset_Frame_3_SHOW_US_YOUR_PREGAME_RITUAL_AND_YOU_COULD_WIN__5_000__0_Layer0_0_MEMBER_2_FILL">
<path fill="#FFFFFF" stroke="none" d="
M 71.95 10.25
Q 71.95 8.1 71.15 6.5 70.5 4.95 69 3.65 67.65 2.5 65.8 1.9 63.95 1.3 61.85 1.3
L 61.2 1.3
Q 59.05 1.3 57.25 1.95 55.4 2.55 54.05 3.7 52.65 4.9 51.9 6.5 51.1 8.15 51.1 10.25
L 51.1 22.6
Q 51.1 24.85 51.85 26.5 52.6 28.25 53.95 29.35 55.4 30.55 57.2 31.05 58.9 31.6 61.25 31.6
L 61.85 31.6
Q 64.15 31.6 65.85 31.05 67.7 30.45 69.05 29.3 70.35 28.25 71.2 26.5 71.95 24.85 71.95 22.6
L 71.95 10.25
M 61.2 6.05
L 61.85 6.05
Q 63.75 6.05 65.25 7.15 66.6 8.3 66.6 10.3
L 66.6 22.6
Q 66.6 24.8 65.3 25.85 64 26.85 61.85 26.85
L 61.25 26.85
Q 59.1 26.85 57.8 25.85 56.45 24.8 56.45 22.6
L 56.45 10.25
Q 56.45 8.2 57.8 7.15 59.3 6.05 61.2 6.05 Z"/>
</g>

<g id="CM_728x90_Generic_psd_Asset_Frame_3_SHOW_US_YOUR_PREGAME_RITUAL_AND_YOU_COULD_WIN__5_000__0_Layer0_0_MEMBER_3_FILL">
<path fill="#FFFFFF" stroke="none" d="
M 93.8 1.75
L 88.55 1.75 84.45 21.55 80.8 1.75 75.45 1.75 81.25 31.2 87.1 31.2 91.15 12.15 95.35 31.2 101.15 31.2 106.45 1.75 101 1.75 98 21.55 93.8 1.75 Z"/>
</g>

<g id="CM_728x90_Generic_psd_Asset_Frame_3_SHOW_US_YOUR_PREGAME_RITUAL_AND_YOU_COULD_WIN__5_000__0_Layer0_0_MEMBER_4_FILL">
<path fill="#FFFFFF" stroke="none" d="
M 142.85 22.3
L 142.85 1.75 137.5 1.75 137.5 22.3
Q 137.5 24.65 136.15 25.75 134.9 26.85 132.55 26.85 130.2 26.85 128.95 25.75 127.7 24.65 127.7 22.3
L 127.7 1.75 122.3 1.75 122.3 22.3
Q 122.3 24.65 123.05 26.35 123.75 28.05 125.15 29.3 126.55 30.45 128.4 31.05 130.1 31.6 132.6 31.6 134.9 31.6 136.75 31 138.6 30.4 140 29.25 141.35 28.05 142.1 26.35 142.85 24.65 142.85 22.3 Z"/>
</g>

<g id="CM_728x90_Generic_psd_Asset_Frame_3_SHOW_US_YOUR_PREGAME_RITUAL_AND_YOU_COULD_WIN__5_000__0_Layer0_0_MEMBER_5_FILL">
<path fill="#FFFFFF" stroke="none" d="
M 165.1 18
Q 164.6 17.25 163.5 16.35
L 161.35 14.9
Q 160.65 14.35 159.5 13.9 158.05 13.2 157.05 12.55 155.7 11.7 154.9 10.9 154 10 154 9 154 7.35 154.8 6.7 155.7 6.05 157.3 6.05 158.05 6.05 158.8 6.35 159.7 6.65 160.3 7.15
L 161.7 8.1 162.8 9.2 165.85 5.2
Q 165.15 4.35 164.1 3.55 163.15 2.85 162.1 2.3
L 159.95 1.55
Q 158.7 1.3 157.85 1.3 155.8 1.3 154.15 1.8 152.55 2.2 151.2 3.25 150.1 4.15 149.3 5.65 148.65 7.1 148.65 9.15 148.65 11.05 149.2 12.3 149.7 13.6 150.6 14.65 151.35 15.65 152.45 16.4
L 154.35 17.7
Q 155.55 18.45 156.5 18.85 157.65 19.45 158.7 20.15 159.8 20.85 160.45 21.65 161.2 22.4 161.2 23.5 161.2 25.45 160.15 26.1 159.15 26.75 157.2 26.75 155 26.75 153.85 25.75 152.6 24.8 151.7 22.9
L 147.65 26.1
Q 149.15 29.1 151.7 30.3 154.2 31.55 157.45 31.55 159.25 31.55 161 31 162.6 30.5 163.9 29.5 165.1 28.45 165.85 26.95 166.55 25.4 166.55 23.5 166.55 21.35 166.15 20.2 165.8 18.95 165.1 18 Z"/>
</g>

<g id="CM_728x90_Generic_psd_Asset_Frame_3_SHOW_US_YOUR_PREGAME_RITUAL_AND_YOU_COULD_WIN__5_000__0_Layer0_0_MEMBER_6_FILL">
<path fill="#FFFFFF" stroke="none" d="
M 188.95 19.55
L 188.95 31.2 194.35 31.2 194.35 19.6 202.9 1.75 197.1 1.75 191.65 14.1 186.3 1.75 180.5 1.75 188.95 19.55 Z"/>
</g>

<g id="CM_728x90_Generic_psd_Asset_Frame_3_SHOW_US_YOUR_PREGAME_RITUAL_AND_YOU_COULD_WIN__5_000__0_Layer0_0_MEMBER_7_FILL">
<path fill="#FFFFFF" stroke="none" d="
M 225.85 6.5
Q 225.2 4.95 223.7 3.65 222.35 2.5 220.5 1.9 218.65 1.3 216.55 1.3
L 215.9 1.3
Q 213.75 1.3 211.95 1.95 210.1 2.55 208.75 3.7 207.35 4.9 206.6 6.5 205.8 8.15 205.8 10.25
L 205.8 22.6
Q 205.8 24.85 206.55 26.5 207.3 28.25 208.65 29.35 210.2 30.6 211.9 31.05 213.6 31.6 215.95 31.6
L 216.55 31.6
Q 218.85 31.6 220.55 31.05 222.4 30.45 223.75 29.3 225.05 28.25 225.9 26.5 226.65 24.85 226.65 22.6
L 226.65 10.25
Q 226.65 8.1 225.85 6.5
M 219.95 7.15
Q 221.3 8.3 221.3 10.3
L 221.3 22.6
Q 221.3 24.8 220 25.85 218.7 26.85 216.55 26.85
L 215.95 26.85
Q 213.8 26.85 212.5 25.85 211.15 24.8 211.15 22.6
L 211.15 10.25
Q 211.15 8.2 212.5 7.15 214 6.05 215.9 6.05
L 216.55 6.05
Q 218.45 6.05 219.95 7.15 Z"/>
</g>

<g id="CM_728x90_Generic_psd_Asset_Frame_3_SHOW_US_YOUR_PREGAME_RITUAL_AND_YOU_COULD_WIN__5_000__0_Layer0_0_MEMBER_8_FILL">
<path fill="#FFFFFF" stroke="none" d="
M 247.1 1.75
L 247.1 22.3
Q 247.1 24.65 245.75 25.75 244.5 26.85 242.15 26.85 239.8 26.85 238.55 25.75 237.3 24.65 237.3 22.3
L 237.3 1.75 231.9 1.75 231.9 22.3
Q 231.9 24.65 232.65 26.35 233.35 28.05 234.75 29.3 236.15 30.45 238 31.05 239.7 31.6 242.2 31.6 244.5 31.6 246.35 31 248.2 30.4 249.6 29.25 250.95 28.05 251.7 26.35 252.45 24.65 252.45 22.3
L 252.45 1.75 247.1 1.75 Z"/>
</g>

<g id="CM_728x90_Generic_psd_Asset_Frame_3_SHOW_US_YOUR_PREGAME_RITUAL_AND_YOU_COULD_WIN__5_000__0_Layer0_0_MEMBER_9_FILL">
<path fill="#FFFFFF" stroke="none" d="
M 276.1 9.25
Q 276.1 5.35 274.1 3.55 272.1 1.75 268.2 1.75
L 258.3 1.75 258.3 31.2 263.65 31.2 263.65 19.25 266.15 19.25 271.65 31.2 277.1 31.2 271.35 18.65
Q 273.7 17.7 274.85 16.2 276.1 14.65 276.1 12.1
L 276.1 9.25
M 270.75 9.25
L 270.75 12.05
Q 270.75 13.3 270.05 13.9 269.35 14.45 268.2 14.45
L 263.65 14.45 263.65 6.5 268.15 6.5
Q 269.5 6.5 270.15 7.15 270.75 7.85 270.75 9.25 Z"/>
</g>

<g id="CM_728x90_Generic_psd_Asset_Frame_3_SHOW_US_YOUR_PREGAME_RITUAL_AND_YOU_COULD_WIN__5_000__0_Layer0_0_MEMBER_10_FILL">
<path fill="#FFFFFF" stroke="none" d="
M 309.4 9.05
Q 309.4 5.4 307.25 3.55 305.15 1.75 301.45 1.75
L 292.8 1.75 292.8 31.2 298.15 31.2 298.15 20.35 301.55 20.35
Q 303.1 20.35 304.6 19.95 306 19.5 307.1 18.65 308.1 17.85 308.75 16.5 309.4 15.1 309.4 13.5
L 309.4 9.05
M 304 9.1
L 304 13.45
Q 304 14.7 303.35 15.15 302.7 15.6 301.45 15.6
L 298.15 15.6 298.15 6.5 301.45 6.5
Q 302.9 6.5 303.4 7.1 304 7.7 304 9.1 Z"/>
</g>

<g id="CM_728x90_Generic_psd_Asset_Frame_3_SHOW_US_YOUR_PREGAME_RITUAL_AND_YOU_COULD_WIN__5_000__0_Layer0_0_MEMBER_11_FILL">
<path fill="#FFFFFF" stroke="none" d="
M 330.15 3.55
Q 328.15 1.75 324.2 1.75
L 314.35 1.75 314.35 31.2 319.7 31.2 319.7 19.25 322.2 19.25 327.7 31.2 333.15 31.2 327.4 18.65
Q 329.75 17.7 330.9 16.2 332.15 14.65 332.15 12.1
L 332.15 9.25
Q 332.15 5.35 330.15 3.55
M 326.15 7.15
Q 326.8 7.9 326.8 9.25
L 326.8 12.05
Q 326.8 13.3 326.1 13.9 325.3 14.45 324.2 14.45
L 319.7 14.45 319.7 6.5 324.2 6.5
Q 325.55 6.5 326.15 7.15 Z"/>
</g>

<g id="CM_728x90_Generic_psd_Asset_Frame_3_SHOW_US_YOUR_PREGAME_RITUAL_AND_YOU_COULD_WIN__5_000__0_Layer0_0_MEMBER_12_FILL">
<path fill="#FFFFFF" stroke="none" d="
M 350.85 18.55
L 350.85 14 343 14 343 6.5 352.3 6.5 352.3 1.75 337.8 1.75 337.8 31.2 353.05 31.2 353.05 26.4 343 26.4 343 18.55 350.85 18.55 Z"/>
</g>

<g id="CM_728x90_Generic_psd_Asset_Frame_3_SHOW_US_YOUR_PREGAME_RITUAL_AND_YOU_COULD_WIN__5_000__0_Layer0_0_MEMBER_13_FILL">
<path fill="#FFFFFF" stroke="none" d="
M 366.95 14.9
L 366.95 19.25 371.65 19.25 371.65 25.6
Q 370.6 26.45 369.65 26.65 368.85 26.85 367.45 26.85 365.3 26.85 363.95 25.8 362.65 24.85 362.65 22.6
L 362.65 10.3
Q 362.65 8.35 364 7.2 365.45 6.05 367.45 6.05 368.9 6.05 370.5 7 372 8 373 9.25
L 376.35 5.55
Q 374.75 3.4 372.65 2.4 370.6 1.3 367.45 1.3 365.3 1.3 363.5 1.95 361.75 2.55 360.35 3.7 358.9 5 358.2 6.55 357.45 8.2 357.45 10.3
L 357.45 22.6
Q 357.45 24.8 358.2 26.45 358.95 28.2 360.3 29.3 361.7 30.45 363.45 31.05 365.15 31.6 367.5 31.6 370.25 31.6 372.5 30.65 374.8 29.75 376.9 27.9
L 376.9 14.9 366.95 14.9 Z"/>
</g>

<g id="CM_728x90_Generic_psd_Asset_Frame_3_SHOW_US_YOUR_PREGAME_RITUAL_AND_YOU_COULD_WIN__5_000__0_Layer0_0_MEMBER_14_FILL">
<path fill="#FFFFFF" stroke="none" d="
M 388.15 24.2
L 395.9 24.2 397.6 31.2 403.05 31.2 395.4 1.65 388.8 1.65 380.9 31.2 386.4 31.2 388.15 24.2
M 394.8 19.9
L 389.25 19.9 392.05 7.1 394.8 19.9 Z"/>
</g>

<g id="CM_728x90_Generic_psd_Asset_Frame_3_SHOW_US_YOUR_PREGAME_RITUAL_AND_YOU_COULD_WIN__5_000__0_Layer0_0_MEMBER_15_FILL">
<path fill="#FFFFFF" stroke="none" d="
M 432.3 1.75
L 425.6 1.75 419.95 16.7 414.45 1.75 407.7 1.75 407.7 31.2 412.45 31.2 412.45 7.8 418.75 25.75 421.5 25.75 427.55 7.75 427.55 31.2 432.3 31.2 432.3 1.75 Z"/>
</g>

<g id="CM_728x90_Generic_psd_Asset_Frame_3_SHOW_US_YOUR_PREGAME_RITUAL_AND_YOU_COULD_WIN__5_000__0_Layer0_0_MEMBER_16_FILL">
<path fill="#FFFFFF" stroke="none" d="
M 453.45 31.2
L 453.45 26.4 443.4 26.4 443.4 18.55 451.25 18.55 451.25 14 443.4 14 443.4 6.5 452.7 6.5 452.7 1.75 438.2 1.75 438.2 31.2 453.45 31.2 Z"/>
</g>

<g id="CM_728x90_Generic_psd_Asset_Frame_3_SHOW_US_YOUR_PREGAME_RITUAL_AND_YOU_COULD_WIN__5_000__0_Layer0_0_MEMBER_17_FILL">
<path fill="#FFFFFF" stroke="none" d="
M 486.4 16.2
Q 487.65 14.65 487.65 12.1
L 487.65 9.25
Q 487.65 5.35 485.65 3.55 483.65 1.75 479.75 1.75
L 469.85 1.75 469.85 31.2 475.2 31.2 475.2 19.25 477.7 19.25 483.2 31.2 488.65 31.2 482.9 18.65
Q 485.25 17.7 486.4 16.2
M 479.7 6.5
Q 481.05 6.5 481.7 7.15 482.3 7.85 482.3 9.25
L 482.3 12.05
Q 482.3 13.3 481.6 13.9 480.9 14.45 479.75 14.45
L 475.2 14.45 475.2 6.5 479.7 6.5 Z"/>
</g>

<g id="CM_728x90_Generic_psd_Asset_Frame_3_SHOW_US_YOUR_PREGAME_RITUAL_AND_YOU_COULD_WIN__5_000__0_Layer0_0_MEMBER_18_FILL">
<path fill="#FFFFFF" stroke="none" d="
M 494.05 1.75
L 494.05 31.2 499.4 31.2 499.4 1.75 494.05 1.75 Z"/>
</g>

<g id="CM_728x90_Generic_psd_Asset_Frame_3_SHOW_US_YOUR_PREGAME_RITUAL_AND_YOU_COULD_WIN__5_000__0_Layer0_0_MEMBER_19_FILL">
<path fill="#FFFFFF" stroke="none" d="
M 504.55 6.5
L 511.75 6.5 511.75 31.2 517.1 31.2 517.1 6.5 524.35 6.5 524.35 1.75 504.55 1.75 504.55 6.5 Z"/>
</g>

<g id="CM_728x90_Generic_psd_Asset_Frame_3_SHOW_US_YOUR_PREGAME_RITUAL_AND_YOU_COULD_WIN__5_000__0_Layer0_0_MEMBER_20_FILL">
<path fill="#FFFFFF" stroke="none" d="
M 549.3 22.3
L 549.3 1.75 543.95 1.75 543.95 22.3
Q 543.95 24.6 542.65 25.75 541.35 26.85 539 26.85 536.7 26.85 535.45 25.75 534.15 24.6 534.15 22.3
L 534.15 1.75 528.8 1.75 528.8 22.3
Q 528.8 24.55 529.5 26.35 530.2 28.05 531.6 29.3 533.1 30.5 534.85 31.05 536.65 31.6 539.05 31.6 541.4 31.6 543.25 31 545.05 30.45 546.45 29.25 547.8 28.05 548.55 26.35 549.3 24.65 549.3 22.3 Z"/>
</g>

<g id="CM_728x90_Generic_psd_Asset_Frame_3_SHOW_US_YOUR_PREGAME_RITUAL_AND_YOU_COULD_WIN__5_000__0_Layer0_0_MEMBER_21_FILL">
<path fill="#FFFFFF" stroke="none" d="
M 575.2 31.2
L 567.5 1.65 560.95 1.65 553.05 31.2 558.55 31.2 560.3 24.2 568.05 24.2 569.75 31.2 575.2 31.2
M 566.9 19.9
L 561.4 19.9 564.2 7.1 566.9 19.9 Z"/>
</g>

<g id="CM_728x90_Generic_psd_Asset_Frame_3_SHOW_US_YOUR_PREGAME_RITUAL_AND_YOU_COULD_WIN__5_000__0_Layer0_0_MEMBER_22_FILL">
<path fill="#FFFFFF" stroke="none" d="
M 585 1.75
L 579.8 1.75 579.8 31.2 595.95 31.2 595.95 26.4 585 26.4 585 1.75 Z"/>
</g>

<g id="CM_728x90_Generic_psd_Asset_Frame_3_SHOW_US_YOUR_PREGAME_RITUAL_AND_YOU_COULD_WIN__5_000__0_Layer0_0_MEMBER_23_FILL">
<path fill="#FFFFFF" stroke="none" d="
M 15.3 48.6
L 8.7 48.6 0.8 78.1 6.3 78.1 8.05 71.15 15.8 71.15 17.5 78.1 22.95 78.1 15.3 48.6
M 14.7 66.8
L 9.2 66.8 11.95 54.05 14.7 66.8 Z"/>
</g>

<g id="CM_728x90_Generic_psd_Asset_Frame_3_SHOW_US_YOUR_PREGAME_RITUAL_AND_YOU_COULD_WIN__5_000__0_Layer0_0_MEMBER_24_FILL">
<path fill="#FFFFFF" stroke="none" d="
M 48.45 48.65
L 43.65 48.65 43.65 72.55 35.3 48.65 27.6 48.65 27.6 78.1 32.35 78.1 32.35 54.7 39.95 78.1 48.45 78.1 48.45 48.65 Z"/>
</g>

<g id="CM_728x90_Generic_psd_Asset_Frame_3_SHOW_US_YOUR_PREGAME_RITUAL_AND_YOU_COULD_WIN__5_000__0_Layer0_0_MEMBER_25_FILL">
<path fill="#FFFFFF" stroke="none" d="
M 62.8 48.65
L 54.35 48.65 54.35 78.15 62.45 78.15
Q 67.2 78.15 69.9 76.05 72.55 74 72.55 69.15
L 72.55 57.65
Q 72.55 53.1 69.95 50.85 67.35 48.65 62.8 48.65
M 67.35 57.65
L 67.35 69.15
Q 67.35 71.35 66 72.4 64.6 73.4 62.45 73.4
L 59.55 73.4 59.55 53.45 62.8 53.45
Q 65.1 53.45 66.2 54.4 67.35 55.4 67.35 57.65 Z"/>
</g>

<g id="CM_728x90_Generic_psd_Asset_Frame_3_SHOW_US_YOUR_PREGAME_RITUAL_AND_YOU_COULD_WIN__5_000__0_Layer0_0_MEMBER_26_FILL">
<path fill="#FFFFFF" stroke="none" d="
M 93 48.65
L 87.2 48.65 95.65 66.45 95.65 78.1 101.05 78.1 101.05 66.5 109.6 48.65 103.8 48.65 98.35 61 93 48.65 Z"/>
</g>

<g id="CM_728x90_Generic_psd_Asset_Frame_3_SHOW_US_YOUR_PREGAME_RITUAL_AND_YOU_COULD_WIN__5_000__0_Layer0_0_MEMBER_27_FILL">
<path fill="#FFFFFF" stroke="none" d="
M 127.2 48.85
Q 125.35 48.25 123.25 48.25
L 122.6 48.25
Q 120.55 48.25 118.65 48.85 116.6 49.6 115.45 50.65 114.05 51.85 113.3 53.45 112.5 55.05 112.5 57.2
L 112.5 69.55
Q 112.5 71.75 113.25 73.45 114 75.1 115.35 76.3 116.65 77.35 118.6 78 120.55 78.55 122.65 78.55
L 123.25 78.55
Q 125.4 78.55 127.25 77.95 129.05 77.45 130.45 76.25 131.8 75.05 132.6 73.4 133.35 71.75 133.35 69.55
L 133.35 57.2
Q 133.35 55 132.55 53.4 131.8 51.8 130.4 50.6 129.05 49.45 127.2 48.85
M 119.2 72.75
Q 117.85 71.8 117.85 69.55
L 117.85 57.2
Q 117.85 55.15 119.2 54.1 120.6 53 122.6 53
L 123.25 53
Q 125.25 53 126.65 54.1 128 55.25 128 57.25
L 128 69.55
Q 128 71.75 126.7 72.75 125.45 73.8 123.25 73.8
L 122.65 73.8
Q 120.5 73.8 119.2 72.75 Z"/>
</g>

<g id="CM_728x90_Generic_psd_Asset_Frame_3_SHOW_US_YOUR_PREGAME_RITUAL_AND_YOU_COULD_WIN__5_000__0_Layer0_0_MEMBER_28_FILL">
<path fill="#FFFFFF" stroke="none" d="
M 159.15 48.65
L 153.8 48.65 153.8 69.25
Q 153.8 71.6 152.45 72.7 151.05 73.8 148.85 73.8 146.6 73.8 145.25 72.7 144 71.6 144 69.25
L 144 48.65 138.6 48.65 138.6 69.25
Q 138.6 71.5 139.35 73.3 140.15 75.1 141.45 76.2 142.85 77.45 144.7 77.95 146.6 78.55 148.9 78.55 151.2 78.55 153.05 77.95 154.95 77.35 156.3 76.15 157.6 75.05 158.4 73.25 159.15 71.55 159.15 69.25
L 159.15 48.65 Z"/>
</g>

<g id="CM_728x90_Generic_psd_Asset_Frame_3_SHOW_US_YOUR_PREGAME_RITUAL_AND_YOU_COULD_WIN__5_000__0_Layer0_0_MEMBER_29_FILL">
<path fill="#FFFFFF" stroke="none" d="
M 185.6 48.25
Q 183.5 48.25 181.7 48.85 179.9 49.55 178.65 50.65 177.3 51.95 176.65 53.5 175.9 55.15 175.9 57.25
L 175.9 69.55
Q 175.9 74 178.6 76.3 181.25 78.55 185.65 78.55 188.3 78.55 190.3 77.65 192.45 76.7 194.15 74.85
L 191 71.1 189.8 72.2
Q 189.35 72.65 188.7 73.05 188.2 73.35 187.4 73.6 186.4 73.8 185.65 73.8 181.3 73.8 181.3 69.55
L 181.3 57.25
Q 181.3 55.2 182.45 54.1 183.55 53 185.6 53 187.55 53 188.95 53.95 190.25 54.85 190.85 55.85
L 194.3 52.5
Q 193.3 51.15 192.6 50.55 191.65 49.65 190.7 49.2 189.65 48.65 188.4 48.45 187.35 48.25 185.6 48.25 Z"/>
</g>

<g id="CM_728x90_Generic_psd_Asset_Frame_3_SHOW_US_YOUR_PREGAME_RITUAL_AND_YOU_COULD_WIN__5_000__0_Layer0_0_MEMBER_30_FILL">
<path fill="#FFFFFF" stroke="none" d="
M 212.95 48.85
Q 211.1 48.25 209 48.25
L 208.4 48.25
Q 206.3 48.25 204.4 48.85 202.35 49.6 201.2 50.65 199.9 51.7 199.05 53.45 198.25 55.05 198.25 57.2
L 198.25 69.55
Q 198.25 71.75 199 73.45 199.75 75.1 201.1 76.3 202.5 77.4 204.35 78 206.3 78.55 208.4 78.55
L 209 78.55
Q 211.15 78.55 213 77.95 214.8 77.45 216.2 76.25 217.55 75.05 218.35 73.4 219.1 71.75 219.1 69.55
L 219.1 57.2
Q 219.1 55 218.3 53.4 217.55 51.8 216.15 50.6 214.8 49.45 212.95 48.85
M 209 53
Q 211 53 212.4 54.1 213.75 55.25 213.75 57.25
L 213.75 69.55
Q 213.75 71.75 212.45 72.75 211.2 73.8 209 73.8
L 208.4 73.8
Q 206.25 73.8 204.95 72.75 203.6 71.8 203.6 69.55
L 203.6 57.2
Q 203.6 55.15 205 54.1 206.3 53 208.4 53
L 209 53 Z"/>
</g>

<g id="CM_728x90_Generic_psd_Asset_Frame_3_SHOW_US_YOUR_PREGAME_RITUAL_AND_YOU_COULD_WIN__5_000__0_Layer0_0_MEMBER_31_FILL">
<path fill="#FFFFFF" stroke="none" d="
M 244.15 73.25
Q 244.9 71.55 244.9 69.25
L 244.9 48.65 239.55 48.65 239.55 69.25
Q 239.55 71.6 238.2 72.7 236.85 73.8 234.6 73.8 232.35 73.8 231 72.7 229.75 71.6 229.75 69.25
L 229.75 48.65 224.35 48.65 224.35 69.25
Q 224.35 71.5 225.1 73.3 225.9 75.1 227.2 76.2 228.6 77.45 230.45 77.95 232.35 78.55 234.65 78.55 236.95 78.55 238.8 77.95 240.7 77.35 242.05 76.15 243.35 75.05 244.15 73.25 Z"/>
</g>

<g id="CM_728x90_Generic_psd_Asset_Frame_3_SHOW_US_YOUR_PREGAME_RITUAL_AND_YOU_COULD_WIN__5_000__0_Layer0_0_MEMBER_32_FILL">
<path fill="#FFFFFF" stroke="none" d="
M 256 48.65
L 250.8 48.65 250.8 78.1 266.9 78.1 266.9 73.35 256 73.35 256 48.65 Z"/>
</g>

<g id="CM_728x90_Generic_psd_Asset_Frame_3_SHOW_US_YOUR_PREGAME_RITUAL_AND_YOU_COULD_WIN__5_000__0_Layer0_0_MEMBER_33_FILL">
<path fill="#FFFFFF" stroke="none" d="
M 279.8 48.65
L 271.3 48.65 271.3 78.15 279.45 78.15
Q 284.2 78.15 286.9 76.05 289.55 73.95 289.55 69.15
L 289.55 57.65
Q 289.55 53.1 286.95 50.85 284.35 48.65 279.8 48.65
M 279.8 53.45
Q 282.1 53.45 283.2 54.4 284.35 55.4 284.35 57.65
L 284.35 69.15
Q 284.35 71.35 283 72.4 281.6 73.4 279.45 73.4
L 276.5 73.4 276.5 53.45 279.8 53.45 Z"/>
</g>

<g id="CM_728x90_Generic_psd_Asset_Frame_3_SHOW_US_YOUR_PREGAME_RITUAL_AND_YOU_COULD_WIN__5_000__0_Layer0_0_MEMBER_34_FILL">
<path fill="#FFFFFF" stroke="none" d="
M 335.2 48.65
L 329.75 48.65 326.75 68.5 322.55 48.65 317.3 48.65 313.2 68.45 309.6 48.65 304.2 48.65 310 78.1 315.85 78.1 319.95 59.1 324.1 78.1 329.9 78.1 335.2 48.65 Z"/>
</g>

<g id="CM_728x90_Generic_psd_Asset_Frame_3_SHOW_US_YOUR_PREGAME_RITUAL_AND_YOU_COULD_WIN__5_000__0_Layer0_0_MEMBER_35_FILL">
<path fill="#FFFFFF" stroke="none" d="
M 346.05 48.65
L 340.65 48.65 340.65 78.1 346.05 78.1 346.05 48.65 Z"/>
</g>

<g id="CM_728x90_Generic_psd_Asset_Frame_3_SHOW_US_YOUR_PREGAME_RITUAL_AND_YOU_COULD_WIN__5_000__0_Layer0_0_MEMBER_36_FILL">
<path fill="#FFFFFF" stroke="none" d="
M 373.5 48.65
L 368.7 48.65 368.7 72.55 360.35 48.65 352.65 48.65 352.65 78.1 357.4 78.1 357.4 54.7 365 78.1 373.5 78.1 373.5 48.65 Z"/>
</g>

<g id="CM_728x90_Generic_psd_Asset_Frame_3_SHOW_US_YOUR_PREGAME_RITUAL_AND_YOU_COULD_WIN__5_000__0_Layer0_0_MEMBER_37_FILL">
<path fill="#FFFFFF" stroke="none" d="
M 407.85 70
L 407.85 64.85 396.05 58.35 396.05 56.35
Q 396.05 54.7 397 54.1 397.95 53.45 399.65 53.45 401.25 53.45 402.35 54.25 403.5 55.1 404.6 56.7
L 408 53.5
Q 407.55 52.65 406.95 51.95 406.15 51.05 405.4 50.45 404.65 49.85 403.6 49.35 402.55 48.85 401.75 48.8
L 401.75 43.45 397.45 43.45 397.45 48.65
Q 394.15 49.2 392.45 51.1 390.75 53 390.75 56.2
L 390.75 61.45 402.45 67.85 402.45 69.5
Q 402.45 71.3 401.65 72.3 400.85 73.35 399.05 73.35 397.8 73.35 397.05 73.15 396.3 73 395.65 72.5 395.1 72.15 394.5 71.35
L 393.5 69.6 390 72.6
Q 390.3 73.7 391.05 74.65 391.75 75.55 392.7 76.35 393.7 77.2 394.75 77.6 395.8 78 397 78.1
L 397 83.25 401.3 83.25 401.3 78.15
Q 404.4 77.65 406.15 75.35 407.85 73.05 407.85 70 Z"/>
</g>

<g id="CM_728x90_Generic_psd_Asset_Frame_3_SHOW_US_YOUR_PREGAME_RITUAL_AND_YOU_COULD_WIN__5_000__0_Layer0_0_MEMBER_38_FILL">
<path fill="#FFFFFF" stroke="none" d="
M 428.25 48.65
L 414.75 48.65 413.45 64.4 420.95 64.4
Q 422.55 64.4 423.5 65.05 424.4 65.75 424.4 67.25
L 424.4 71.05
Q 424.4 72.55 423.75 73.2 423.15 73.8 421.55 73.8 420.45 73.8 419.7 73.35 419.05 72.95 418.55 72.3 418.15 71.75 417.9 71.1
L 417.6 70.2 412.45 71.75
Q 412.75 73.55 413.55 74.75 414.35 76 415.55 76.9 416.6 77.7 418.1 78.15 419.55 78.55 420.9 78.55 422.8 78.55 424.35 78.1 426.05 77.6 427.1 76.7 428.25 75.8 428.95 74.35 429.6 72.8 429.6 71.05
L 429.6 67.25
Q 429.6 63.5 427.35 61.55 425.2 59.6 421.35 59.6
L 419.1 59.6 419.55 53.45 428.25 53.45 428.25 48.65 Z"/>
</g>

<g id="CM_728x90_Generic_psd_Asset_Frame_3_SHOW_US_YOUR_PREGAME_RITUAL_AND_YOU_COULD_WIN__5_000__0_Layer0_0_MEMBER_39_FILL">
<path fill="#FFFFFF" stroke="none" d="
M 438.95 73.85
L 434.45 73.85 434.45 77.15
Q 434.45 79 434 80.35 433.55 81.7 432.8 82.6
L 435 84.15
Q 435.75 83.55 436.4 82.75 437.25 81.75 437.7 80.75 438.3 79.65 438.6 78.2 438.95 76.85 438.95 75
L 438.95 73.85 Z"/>
</g>

<g id="CM_728x90_Generic_psd_Asset_Frame_3_SHOW_US_YOUR_PREGAME_RITUAL_AND_YOU_COULD_WIN__5_000__0_Layer0_0_MEMBER_40_FILL">
<path fill="#FFFFFF" stroke="none" d="
M 444.1 57.15
L 444.1 69.95
Q 444.1 74.25 446.5 76.4 448.85 78.55 453.2 78.55 455.3 78.55 456.95 77.95 458.5 77.5 459.85 76.3 461.15 75.1 461.7 73.55 462.35 71.95 462.35 69.8
L 462.35 57.15
Q 462.35 52.9 459.95 50.55 457.6 48.25 453.2 48.25 448.85 48.25 446.45 50.55 444.1 52.9 444.1 57.15
M 456.15 54.05
Q 457 55.15 457 57.15
L 457 69.8
Q 457 71.85 456.1 72.8 455.2 73.8 453.2 73.8 451.3 73.8 450.35 72.85 449.45 71.9 449.45 69.95
L 449.45 57.15
Q 449.45 55.25 450.35 54.1 451.15 53 453.2 53 455.25 53 456.15 54.05 Z"/>
</g>

<g id="CM_728x90_Generic_psd_Asset_Frame_3_SHOW_US_YOUR_PREGAME_RITUAL_AND_YOU_COULD_WIN__5_000__0_Layer0_0_MEMBER_41_FILL">
<path fill="#FFFFFF" stroke="none" d="
M 486 69.8
L 486 57.15
Q 486 52.9 483.6 50.55 481.15 48.25 476.8 48.25 472.5 48.25 470.1 50.55 467.7 52.9 467.7 57.15
L 467.7 69.95
Q 467.7 74.25 470.15 76.4 472.5 78.55 476.8 78.55 478.9 78.55 480.6 77.95 482.2 77.45 483.5 76.3 484.7 75.2 485.35 73.55 486 71.95 486 69.8
M 479.75 54.05
Q 480.65 55.1 480.65 57.15
L 480.65 69.8
Q 480.65 71.85 479.7 72.8 478.8 73.8 476.8 73.8 474.85 73.8 474 72.85 473.1 71.9 473.1 69.95
L 473.1 57.15
Q 473.1 55.25 473.95 54.1 474.85 53 476.8 53 478.95 53 479.75 54.05 Z"/>
</g>

<g id="CM_728x90_Generic_psd_Asset_Frame_3_SHOW_US_YOUR_PREGAME_RITUAL_AND_YOU_COULD_WIN__5_000__0_Layer0_0_MEMBER_42_FILL">
<path fill="#FFFFFF" stroke="none" d="
M 509.65 57.15
Q 509.65 52.85 507.2 50.55 504.85 48.25 500.45 48.25 496.05 48.25 493.75 50.55 491.35 52.9 491.35 57.15
L 491.35 69.95
Q 491.35 74.25 493.75 76.4 496.1 78.55 500.45 78.55 502.55 78.55 504.2 77.95 505.75 77.5 507.1 76.3 508.3 75.25 509 73.55 509.65 71.75 509.65 69.8
L 509.65 57.15
M 503.4 54.05
Q 504.25 55.15 504.25 57.15
L 504.25 69.8
Q 504.25 71.85 503.35 72.8 502.45 73.8 500.45 73.8 498.55 73.8 497.6 72.85 496.75 71.95 496.75 69.95
L 496.75 57.15
Q 496.75 55.15 497.6 54.1 498.4 53 500.45 53 502.5 53 503.4 54.05 Z"/>
</g>

<g id="CM_728x90_Generic_psd_Asset_Frame_3_SHOW_US_YOUR_PREGAME_RITUAL_AND_YOU_COULD_WIN__5_000__0_Layer0_0_MEMBER_43_FILL">
<path fill="#FFFFFF" stroke="none" d="
M 514.7 72.25
L 514.7 78.1 520.25 78.1 520.25 72.25 514.7 72.25 Z"/>
</g>
</defs>

<g transform="matrix( 1, 0, 0, 1, 137,26) ">
<g transform="matrix( 0.5511016845703125, 0, 0, 0.5540008544921875, -0.5,-0.65) ">
<use xlink:href="#CM_728x90_Generic_psd_Asset_Frame_3_SHOW_US_YOUR_PREGAME_RITUAL_AND_YOU_COULD_WIN__5_000__0_Layer0_0_MEMBER_0_FILL"/>
</g>

<g transform="matrix( 0.5511016845703125, 0, 0, 0.5540008544921875, -0.5,-0.65) ">
<use xlink:href="#CM_728x90_Generic_psd_Asset_Frame_3_SHOW_US_YOUR_PREGAME_RITUAL_AND_YOU_COULD_WIN__5_000__0_Layer0_0_MEMBER_1_FILL"/>
</g>

<g transform="matrix( 0.5511016845703125, 0, 0, 0.5540008544921875, -0.5,-0.65) ">
<use xlink:href="#CM_728x90_Generic_psd_Asset_Frame_3_SHOW_US_YOUR_PREGAME_RITUAL_AND_YOU_COULD_WIN__5_000__0_Layer0_0_MEMBER_2_FILL"/>
</g>

<g transform="matrix( 0.5511016845703125, 0, 0, 0.5540008544921875, -0.5,-0.65) ">
<use xlink:href="#CM_728x90_Generic_psd_Asset_Frame_3_SHOW_US_YOUR_PREGAME_RITUAL_AND_YOU_COULD_WIN__5_000__0_Layer0_0_MEMBER_3_FILL"/>
</g>

<g transform="matrix( 0.5511016845703125, 0, 0, 0.5540008544921875, -0.5,-0.65) ">
<use xlink:href="#CM_728x90_Generic_psd_Asset_Frame_3_SHOW_US_YOUR_PREGAME_RITUAL_AND_YOU_COULD_WIN__5_000__0_Layer0_0_MEMBER_4_FILL"/>
</g>

<g transform="matrix( 0.5511016845703125, 0, 0, 0.5540008544921875, -0.5,-0.65) ">
<use xlink:href="#CM_728x90_Generic_psd_Asset_Frame_3_SHOW_US_YOUR_PREGAME_RITUAL_AND_YOU_COULD_WIN__5_000__0_Layer0_0_MEMBER_5_FILL"/>
</g>

<g transform="matrix( 0.5511016845703125, 0, 0, 0.5540008544921875, -0.5,-0.65) ">
<use xlink:href="#CM_728x90_Generic_psd_Asset_Frame_3_SHOW_US_YOUR_PREGAME_RITUAL_AND_YOU_COULD_WIN__5_000__0_Layer0_0_MEMBER_6_FILL"/>
</g>

<g transform="matrix( 0.5511016845703125, 0, 0, 0.5540008544921875, -0.5,-0.65) ">
<use xlink:href="#CM_728x90_Generic_psd_Asset_Frame_3_SHOW_US_YOUR_PREGAME_RITUAL_AND_YOU_COULD_WIN__5_000__0_Layer0_0_MEMBER_7_FILL"/>
</g>

<g transform="matrix( 0.5511016845703125, 0, 0, 0.5540008544921875, -0.5,-0.65) ">
<use xlink:href="#CM_728x90_Generic_psd_Asset_Frame_3_SHOW_US_YOUR_PREGAME_RITUAL_AND_YOU_COULD_WIN__5_000__0_Layer0_0_MEMBER_8_FILL"/>
</g>

<g transform="matrix( 0.5511016845703125, 0, 0, 0.5540008544921875, -0.5,-0.65) ">
<use xlink:href="#CM_728x90_Generic_psd_Asset_Frame_3_SHOW_US_YOUR_PREGAME_RITUAL_AND_YOU_COULD_WIN__5_000__0_Layer0_0_MEMBER_9_FILL"/>
</g>

<g transform="matrix( 0.5511016845703125, 0, 0, 0.5540008544921875, -0.5,-0.65) ">
<use xlink:href="#CM_728x90_Generic_psd_Asset_Frame_3_SHOW_US_YOUR_PREGAME_RITUAL_AND_YOU_COULD_WIN__5_000__0_Layer0_0_MEMBER_10_FILL"/>
</g>

<g transform="matrix( 0.5511016845703125, 0, 0, 0.5540008544921875, -0.5,-0.65) ">
<use xlink:href="#CM_728x90_Generic_psd_Asset_Frame_3_SHOW_US_YOUR_PREGAME_RITUAL_AND_YOU_COULD_WIN__5_000__0_Layer0_0_MEMBER_11_FILL"/>
</g>

<g transform="matrix( 0.5511016845703125, 0, 0, 0.5540008544921875, -0.5,-0.65) ">
<use xlink:href="#CM_728x90_Generic_psd_Asset_Frame_3_SHOW_US_YOUR_PREGAME_RITUAL_AND_YOU_COULD_WIN__5_000__0_Layer0_0_MEMBER_12_FILL"/>
</g>

<g transform="matrix( 0.5511016845703125, 0, 0, 0.5540008544921875, -0.5,-0.65) ">
<use xlink:href="#CM_728x90_Generic_psd_Asset_Frame_3_SHOW_US_YOUR_PREGAME_RITUAL_AND_YOU_COULD_WIN__5_000__0_Layer0_0_MEMBER_13_FILL"/>
</g>

<g transform="matrix( 0.5511016845703125, 0, 0, 0.5540008544921875, -0.5,-0.65) ">
<use xlink:href="#CM_728x90_Generic_psd_Asset_Frame_3_SHOW_US_YOUR_PREGAME_RITUAL_AND_YOU_COULD_WIN__5_000__0_Layer0_0_MEMBER_14_FILL"/>
</g>

<g transform="matrix( 0.5511016845703125, 0, 0, 0.5540008544921875, -0.5,-0.65) ">
<use xlink:href="#CM_728x90_Generic_psd_Asset_Frame_3_SHOW_US_YOUR_PREGAME_RITUAL_AND_YOU_COULD_WIN__5_000__0_Layer0_0_MEMBER_15_FILL"/>
</g>

<g transform="matrix( 0.5511016845703125, 0, 0, 0.5540008544921875, -0.5,-0.65) ">
<use xlink:href="#CM_728x90_Generic_psd_Asset_Frame_3_SHOW_US_YOUR_PREGAME_RITUAL_AND_YOU_COULD_WIN__5_000__0_Layer0_0_MEMBER_16_FILL"/>
</g>

<g transform="matrix( 0.5511016845703125, 0, 0, 0.5540008544921875, -0.5,-0.65) ">
<use xlink:href="#CM_728x90_Generic_psd_Asset_Frame_3_SHOW_US_YOUR_PREGAME_RITUAL_AND_YOU_COULD_WIN__5_000__0_Layer0_0_MEMBER_17_FILL"/>
</g>

<g transform="matrix( 0.5511016845703125, 0, 0, 0.5540008544921875, -0.5,-0.65) ">
<use xlink:href="#CM_728x90_Generic_psd_Asset_Frame_3_SHOW_US_YOUR_PREGAME_RITUAL_AND_YOU_COULD_WIN__5_000__0_Layer0_0_MEMBER_18_FILL"/>
</g>

<g transform="matrix( 0.5511016845703125, 0, 0, 0.5540008544921875, -0.5,-0.65) ">
<use xlink:href="#CM_728x90_Generic_psd_Asset_Frame_3_SHOW_US_YOUR_PREGAME_RITUAL_AND_YOU_COULD_WIN__5_000__0_Layer0_0_MEMBER_19_FILL"/>
</g>

<g transform="matrix( 0.5511016845703125, 0, 0, 0.5540008544921875, -0.5,-0.65) ">
<use xlink:href="#CM_728x90_Generic_psd_Asset_Frame_3_SHOW_US_YOUR_PREGAME_RITUAL_AND_YOU_COULD_WIN__5_000__0_Layer0_0_MEMBER_20_FILL"/>
</g>

<g transform="matrix( 0.5511016845703125, 0, 0, 0.5540008544921875, -0.5,-0.65) ">
<use xlink:href="#CM_728x90_Generic_psd_Asset_Frame_3_SHOW_US_YOUR_PREGAME_RITUAL_AND_YOU_COULD_WIN__5_000__0_Layer0_0_MEMBER_21_FILL"/>
</g>

<g transform="matrix( 0.5511016845703125, 0, 0, 0.5540008544921875, -0.5,-0.65) ">
<use xlink:href="#CM_728x90_Generic_psd_Asset_Frame_3_SHOW_US_YOUR_PREGAME_RITUAL_AND_YOU_COULD_WIN__5_000__0_Layer0_0_MEMBER_22_FILL"/>
</g>

<g transform="matrix( 0.5511016845703125, 0, 0, 0.5540008544921875, -0.5,-0.65) ">
<use xlink:href="#CM_728x90_Generic_psd_Asset_Frame_3_SHOW_US_YOUR_PREGAME_RITUAL_AND_YOU_COULD_WIN__5_000__0_Layer0_0_MEMBER_23_FILL"/>
</g>

<g transform="matrix( 0.5511016845703125, 0, 0, 0.5540008544921875, -0.5,-0.65) ">
<use xlink:href="#CM_728x90_Generic_psd_Asset_Frame_3_SHOW_US_YOUR_PREGAME_RITUAL_AND_YOU_COULD_WIN__5_000__0_Layer0_0_MEMBER_24_FILL"/>
</g>

<g transform="matrix( 0.5511016845703125, 0, 0, 0.5540008544921875, -0.5,-0.65) ">
<use xlink:href="#CM_728x90_Generic_psd_Asset_Frame_3_SHOW_US_YOUR_PREGAME_RITUAL_AND_YOU_COULD_WIN__5_000__0_Layer0_0_MEMBER_25_FILL"/>
</g>

<g transform="matrix( 0.5511016845703125, 0, 0, 0.5540008544921875, -0.5,-0.65) ">
<use xlink:href="#CM_728x90_Generic_psd_Asset_Frame_3_SHOW_US_YOUR_PREGAME_RITUAL_AND_YOU_COULD_WIN__5_000__0_Layer0_0_MEMBER_26_FILL"/>
</g>

<g transform="matrix( 0.5511016845703125, 0, 0, 0.5540008544921875, -0.5,-0.65) ">
<use xlink:href="#CM_728x90_Generic_psd_Asset_Frame_3_SHOW_US_YOUR_PREGAME_RITUAL_AND_YOU_COULD_WIN__5_000__0_Layer0_0_MEMBER_27_FILL"/>
</g>

<g transform="matrix( 0.5511016845703125, 0, 0, 0.5540008544921875, -0.5,-0.65) ">
<use xlink:href="#CM_728x90_Generic_psd_Asset_Frame_3_SHOW_US_YOUR_PREGAME_RITUAL_AND_YOU_COULD_WIN__5_000__0_Layer0_0_MEMBER_28_FILL"/>
</g>

<g transform="matrix( 0.5511016845703125, 0, 0, 0.5540008544921875, -0.5,-0.65) ">
<use xlink:href="#CM_728x90_Generic_psd_Asset_Frame_3_SHOW_US_YOUR_PREGAME_RITUAL_AND_YOU_COULD_WIN__5_000__0_Layer0_0_MEMBER_29_FILL"/>
</g>

<g transform="matrix( 0.5511016845703125, 0, 0, 0.5540008544921875, -0.5,-0.65) ">
<use xlink:href="#CM_728x90_Generic_psd_Asset_Frame_3_SHOW_US_YOUR_PREGAME_RITUAL_AND_YOU_COULD_WIN__5_000__0_Layer0_0_MEMBER_30_FILL"/>
</g>

<g transform="matrix( 0.5511016845703125, 0, 0, 0.5540008544921875, -0.5,-0.65) ">
<use xlink:href="#CM_728x90_Generic_psd_Asset_Frame_3_SHOW_US_YOUR_PREGAME_RITUAL_AND_YOU_COULD_WIN__5_000__0_Layer0_0_MEMBER_31_FILL"/>
</g>

<g transform="matrix( 0.5511016845703125, 0, 0, 0.5540008544921875, -0.5,-0.65) ">
<use xlink:href="#CM_728x90_Generic_psd_Asset_Frame_3_SHOW_US_YOUR_PREGAME_RITUAL_AND_YOU_COULD_WIN__5_000__0_Layer0_0_MEMBER_32_FILL"/>
</g>

<g transform="matrix( 0.5511016845703125, 0, 0, 0.5540008544921875, -0.5,-0.65) ">
<use xlink:href="#CM_728x90_Generic_psd_Asset_Frame_3_SHOW_US_YOUR_PREGAME_RITUAL_AND_YOU_COULD_WIN__5_000__0_Layer0_0_MEMBER_33_FILL"/>
</g>

<g transform="matrix( 0.5511016845703125, 0, 0, 0.5540008544921875, -0.5,-0.65) ">
<use xlink:href="#CM_728x90_Generic_psd_Asset_Frame_3_SHOW_US_YOUR_PREGAME_RITUAL_AND_YOU_COULD_WIN__5_000__0_Layer0_0_MEMBER_34_FILL"/>
</g>

<g transform="matrix( 0.5511016845703125, 0, 0, 0.5540008544921875, -0.5,-0.65) ">
<use xlink:href="#CM_728x90_Generic_psd_Asset_Frame_3_SHOW_US_YOUR_PREGAME_RITUAL_AND_YOU_COULD_WIN__5_000__0_Layer0_0_MEMBER_35_FILL"/>
</g>

<g transform="matrix( 0.5511016845703125, 0, 0, 0.5540008544921875, -0.5,-0.65) ">
<use xlink:href="#CM_728x90_Generic_psd_Asset_Frame_3_SHOW_US_YOUR_PREGAME_RITUAL_AND_YOU_COULD_WIN__5_000__0_Layer0_0_MEMBER_36_FILL"/>
</g>

<g transform="matrix( 0.5511016845703125, 0, 0, 0.5540008544921875, -0.5,-0.65) ">
<use xlink:href="#CM_728x90_Generic_psd_Asset_Frame_3_SHOW_US_YOUR_PREGAME_RITUAL_AND_YOU_COULD_WIN__5_000__0_Layer0_0_MEMBER_37_FILL"/>
</g>

<g transform="matrix( 0.5511016845703125, 0, 0, 0.5540008544921875, -0.5,-0.65) ">
<use xlink:href="#CM_728x90_Generic_psd_Asset_Frame_3_SHOW_US_YOUR_PREGAME_RITUAL_AND_YOU_COULD_WIN__5_000__0_Layer0_0_MEMBER_38_FILL"/>
</g>

<g transform="matrix( 0.5511016845703125, 0, 0, 0.5540008544921875, -0.5,-0.65) ">
<use xlink:href="#CM_728x90_Generic_psd_Asset_Frame_3_SHOW_US_YOUR_PREGAME_RITUAL_AND_YOU_COULD_WIN__5_000__0_Layer0_0_MEMBER_39_FILL"/>
</g>

<g transform="matrix( 0.5511016845703125, 0, 0, 0.5540008544921875, -0.5,-0.65) ">
<use xlink:href="#CM_728x90_Generic_psd_Asset_Frame_3_SHOW_US_YOUR_PREGAME_RITUAL_AND_YOU_COULD_WIN__5_000__0_Layer0_0_MEMBER_40_FILL"/>
</g>

<g transform="matrix( 0.5511016845703125, 0, 0, 0.5540008544921875, -0.5,-0.65) ">
<use xlink:href="#CM_728x90_Generic_psd_Asset_Frame_3_SHOW_US_YOUR_PREGAME_RITUAL_AND_YOU_COULD_WIN__5_000__0_Layer0_0_MEMBER_41_FILL"/>
</g>

<g transform="matrix( 0.5511016845703125, 0, 0, 0.5540008544921875, -0.5,-0.65) ">
<use xlink:href="#CM_728x90_Generic_psd_Asset_Frame_3_SHOW_US_YOUR_PREGAME_RITUAL_AND_YOU_COULD_WIN__5_000__0_Layer0_0_MEMBER_42_FILL"/>
</g>

<g transform="matrix( 0.5511016845703125, 0, 0, 0.5540008544921875, -0.5,-0.65) ">
<use xlink:href="#CM_728x90_Generic_psd_Asset_Frame_3_SHOW_US_YOUR_PREGAME_RITUAL_AND_YOU_COULD_WIN__5_000__0_Layer0_0_MEMBER_43_FILL"/>
</g>
</g>
</svg>
