
<svg xmlns="http://www.w3.org/2000/svg" version="1.1" xmlns:xlink="http://www.w3.org/1999/xlink" preserveAspectRatio="none" x="0px" y="0px" width="300px" height="250px" viewBox="0 0 300 250">
<defs>
<g id="CM_300x250_Generic_psd_Asset_1_Frame_1_Your_pregame_ritual_may_be_putting_on_lucky_socks______0_Layer0_0_MEMBER_0_FILL">
<path fill="#FFFFFF" stroke="none" d="
M 35.2 2.65
L 26.35 2.65 18 21.45 9.9 2.65 1.05 2.65 13.95 29.75 13.95 47.55 22.1 47.55 22.1 29.85 35.2 2.65 Z"/>
</g>

<g id="CM_300x250_Generic_psd_Asset_1_Frame_1_Your_pregame_ritual_may_be_putting_on_lucky_socks______0_Layer0_0_MEMBER_1_FILL">
<path fill="#FFFFFF" stroke="none" d="
M 66.35 5.6
Q 64.35 3.85 61.5 2.9 58.65 2 55.45 2
L 54.5 2
Q 51.2 2 48.5 2.95 45.75 3.9 43.6 5.65 41.5 7.35 40.3 9.95 39.05 12.6 39.05 15.65
L 39.05 34.45
Q 39.05 37.8 40.2 40.4 41.45 43 43.45 44.75 45.5 46.45 48.4 47.35 51.25 48.2 54.6 48.2
L 55.45 48.2
Q 58.8 48.2 61.55 47.3 64.45 46.35 66.45 44.65 68.5 42.9 69.7 40.35 70.9 37.8 70.9 34.45
L 70.9 15.65
Q 70.9 12.35 69.65 9.85 68.45 7.35 66.35 5.6
M 55.45 9.25
Q 58.6 9.25 60.6 10.9 62.7 12.65 62.7 15.7
L 62.7 34.45
Q 62.7 37.85 60.75 39.4 58.75 40.95 55.45 40.95
L 54.6 40.95
Q 51.35 40.95 49.25 39.4 47.25 37.8 47.25 34.45
L 47.25 15.65
Q 47.25 12.55 49.35 10.9 51.4 9.25 54.5 9.25
L 55.45 9.25 Z"/>
</g>

<g id="CM_300x250_Generic_psd_Asset_1_Frame_1_Your_pregame_ritual_may_be_putting_on_lucky_socks______0_Layer0_0_MEMBER_2_FILL">
<path fill="#FFFFFF" stroke="none" d="
M 109.7 2.65
L 101.5 2.65 101.5 34
Q 101.5 37.55 99.5 39.25 97.4 40.95 94 40.95 90.55 40.95 88.55 39.25 86.6 37.55 86.6 34
L 86.6 2.65 78.4 2.65 78.4 34
Q 78.4 37.45 79.55 40.15 80.7 42.9 82.75 44.65 84.9 46.4 87.7 47.3 90.55 48.2 94.05 48.2 97.6 48.2 100.45 47.25 103.35 46.35 105.35 44.55 107.45 42.65 108.55 40.15 109.7 37.45 109.7 34
L 109.7 2.65 Z"/>
</g>

<g id="CM_300x250_Generic_psd_Asset_1_Frame_1_Your_pregame_ritual_may_be_putting_on_lucky_socks______0_Layer0_0_MEMBER_3_FILL">
<path fill="#FFFFFF" stroke="none" d="
M 143.4 24.7
Q 145.3 22.25 145.3 18.4
L 145.3 14.15
Q 145.3 8.2 142.2 5.4 139.15 2.65 133.2 2.65
L 118.15 2.65 118.15 47.55 126.35 47.55 126.35 29.3 130.1 29.3 138.5 47.55 146.8 47.55 138 28.45
Q 141.45 27.15 143.4 24.7
M 126.35 22.05
L 126.35 9.9 133.15 9.9
Q 135.25 9.9 136.15 10.9 137.1 11.9 137.1 14.05
L 137.1 18.35
Q 137.1 20.25 136.05 21.15 135 22.05 133.2 22.05
L 126.35 22.05 Z"/>
</g>

<g id="CM_300x250_Generic_psd_Asset_1_Frame_1_Your_pregame_ritual_may_be_putting_on_lucky_socks______0_Layer0_0_MEMBER_4_FILL">
<path fill="#FFFFFF" stroke="none" d="
M 192.75 5.4
Q 189.55 2.65 183.9 2.65
L 170.7 2.65 170.7 47.55 178.9 47.55 178.9 31.05 184.05 31.05
Q 186.45 31.05 188.7 30.35 190.95 29.75 192.5 28.4 194.15 27.15 195.05 25.15 196 23.1 196 20.6
L 196 13.8
Q 196 8.1 192.75 5.4
M 187.8 13.85
L 187.8 20.55
Q 187.8 22.45 186.75 23.1 185.8 23.75 183.9 23.75
L 178.9 23.75 178.9 9.9 183.9 9.9
Q 186 9.9 186.9 10.85 187.8 11.75 187.8 13.85 Z"/>
</g>

<g id="CM_300x250_Generic_psd_Asset_1_Frame_1_Your_pregame_ritual_may_be_putting_on_lucky_socks______0_Layer0_0_MEMBER_5_FILL">
<path fill="#FFFFFF" stroke="none" d="
M 228.35 24.7
Q 230.2 22.35 230.2 18.4
L 230.2 14.15
Q 230.2 8.15 227.15 5.4 224.1 2.65 218.15 2.65
L 203.1 2.65 203.1 47.55 211.25 47.55 211.25 29.3 215.05 29.3 223.4 47.55 231.75 47.55 222.95 28.45
Q 226.4 27.15 228.35 24.7
M 218.05 9.9
Q 220.2 9.9 221.1 10.9 222.05 12 222.05 14.05
L 222.05 18.35
Q 222.05 20.2 220.95 21.15 219.9 22.05 218.15 22.05
L 211.25 22.05 211.25 9.9 218.05 9.9 Z"/>
</g>

<g id="CM_300x250_Generic_psd_Asset_1_Frame_1_Your_pregame_ritual_may_be_putting_on_lucky_socks______0_Layer0_0_MEMBER_6_FILL">
<path fill="#FFFFFF" stroke="none" d="
M 258.25 21.3
L 246.3 21.3 246.3 9.9 260.5 9.9 260.5 2.65 238.4 2.65 238.4 47.55 261.6 47.55 261.6 40.25 246.3 40.25 246.3 28.25 258.25 28.25 258.25 21.3 Z"/>
</g>

<g id="CM_300x250_Generic_psd_Asset_1_Frame_1_Your_pregame_ritual_may_be_putting_on_lucky_socks______0_Layer0_0_MEMBER_7_FILL">
<path fill="#FFFFFF" stroke="none" d="
M 297.55 42.5
L 297.55 22.7 282.35 22.7 282.35 29.3 289.5 29.3 289.5 39
Q 287.9 40.3 286.45 40.6 284.8 40.95 283.1 40.95 279.85 40.95 277.8 39.35 275.75 37.75 275.75 34.45
L 275.75 15.7
Q 275.75 12.7 277.85 10.95 280 9.25 283.1 9.25 285.45 9.25 287.75 10.7 289.9 12.1 291.6 14.05
L 296.7 8.45
Q 294.3 5.3 291.05 3.65 287.75 2 283.1 2 279.9 2 277.1 2.95 274.3 3.95 272.25 5.7 270.2 7.45 269 10 267.85 12.6 267.85 15.7
L 267.85 34.45
Q 267.85 37.85 269 40.35 270.1 42.85 272.2 44.65 274.15 46.4 277.05 47.3 279.85 48.2 283.15 48.2 287.2 48.2 290.8 46.75 294.45 45.25 297.55 42.5 Z"/>
</g>

<g id="CM_300x250_Generic_psd_Asset_1_Frame_1_Your_pregame_ritual_may_be_putting_on_lucky_socks______0_Layer0_0_MEMBER_8_FILL">
<path fill="#FFFFFF" stroke="none" d="
M 336.9 47.55
L 325.2 2.5 315.2 2.5 303.15 47.55 311.55 47.55 314.2 36.9 326 36.9 328.6 47.55 336.9 47.55
M 315.9 30.3
L 320.15 10.85 324.3 30.3 315.9 30.3 Z"/>
</g>

<g id="CM_300x250_Generic_psd_Asset_1_Frame_1_Your_pregame_ritual_may_be_putting_on_lucky_socks______0_Layer0_0_MEMBER_9_FILL">
<path fill="#FFFFFF" stroke="none" d="
M 381.05 2.65
L 370.8 2.65 362.2 25.4 353.85 2.65 343.55 2.65 343.55 47.55 350.8 47.55 350.8 11.9 360.35 39.2 364.6 39.2 373.75 11.8 373.75 47.55 381.05 47.55 381.05 2.65 Z"/>
</g>

<g id="CM_300x250_Generic_psd_Asset_1_Frame_1_Your_pregame_ritual_may_be_putting_on_lucky_socks______0_Layer0_0_MEMBER_10_FILL">
<path fill="#FFFFFF" stroke="none" d="
M 412.75 47.55
L 412.75 40.25 397.45 40.25 397.45 28.25 409.4 28.25 409.4 21.3 397.45 21.3 397.45 9.9 411.65 9.9 411.65 2.65 389.5 2.65 389.5 47.55 412.75 47.55 Z"/>
</g>

<g id="CM_300x250_Generic_psd_Asset_1_Frame_1_Your_pregame_ritual_may_be_putting_on_lucky_socks______0_Layer0_0_MEMBER_11_FILL">
<path fill="#FFFFFF" stroke="none" d="
M 464.9 18.4
L 464.9 14.15
Q 464.9 8.15 461.85 5.4 458.8 2.65 452.85 2.65
L 437.75 2.65 437.75 47.55 445.95 47.55 445.95 29.3 449.7 29.3 458.1 47.55 466.45 47.55 457.65 28.45
Q 460.95 27.2 463.05 24.7 464.9 22.35 464.9 18.4
M 445.95 9.9
L 452.75 9.9
Q 454.9 9.9 455.8 10.9 456.7 11.95 456.7 14.05
L 456.7 18.35
Q 456.7 20.25 455.65 21.15 454.6 22.05 452.85 22.05
L 445.95 22.05 445.95 9.9 Z"/>
</g>

<g id="CM_300x250_Generic_psd_Asset_1_Frame_1_Your_pregame_ritual_may_be_putting_on_lucky_socks______0_Layer0_0_MEMBER_12_FILL">
<path fill="#FFFFFF" stroke="none" d="
M 474.15 2.65
L 474.15 47.55 482.3 47.55 482.3 2.65 474.15 2.65 Z"/>
</g>

<g id="CM_300x250_Generic_psd_Asset_1_Frame_1_Your_pregame_ritual_may_be_putting_on_lucky_socks______0_Layer0_0_MEMBER_13_FILL">
<path fill="#FFFFFF" stroke="none" d="
M 489.7 9.9
L 500.65 9.9 500.65 47.55 508.85 47.55 508.85 9.9 519.85 9.9 519.85 2.65 489.7 2.65 489.7 9.9 Z"/>
</g>

<g id="CM_300x250_Generic_psd_Asset_1_Frame_1_Your_pregame_ritual_may_be_putting_on_lucky_socks______0_Layer0_0_MEMBER_14_FILL">
<path fill="#FFFFFF" stroke="none" d="
M 557.45 2.65
L 549.3 2.65 549.3 34
Q 549.3 37.5 547.25 39.25 545.25 40.95 541.75 40.95 538.3 40.95 536.3 39.25 534.35 37.55 534.35 34
L 534.35 2.65 526.2 2.65 526.2 34
Q 526.2 37.6 527.3 40.15 528.45 42.9 530.5 44.65 532.65 46.4 535.45 47.3 538.3 48.2 541.8 48.2 545.4 48.2 548.2 47.25 551.1 46.35 553.1 44.55 555.2 42.75 556.3 40.15 557.45 37.65 557.45 34
L 557.45 2.65 Z"/>
</g>

<g id="CM_300x250_Generic_psd_Asset_1_Frame_1_Your_pregame_ritual_may_be_putting_on_lucky_socks______0_Layer0_0_MEMBER_15_FILL">
<path fill="#FFFFFF" stroke="none" d="
M 584.7 2.5
L 574.65 2.5 562.65 47.55 571.05 47.55 573.7 36.9 585.5 36.9 588.05 47.55 596.4 47.55 584.7 2.5
M 583.8 30.3
L 575.4 30.3 579.6 10.85 583.8 30.3 Z"/>
</g>

<g id="CM_300x250_Generic_psd_Asset_1_Frame_1_Your_pregame_ritual_may_be_putting_on_lucky_socks______0_Layer0_0_MEMBER_16_FILL">
<path fill="#FFFFFF" stroke="none" d="
M 610.95 40.25
L 610.95 2.65 603 2.65 603 47.55 627.6 47.55 627.6 40.25 610.95 40.25 Z"/>
</g>

<g id="CM_300x250_Generic_psd_Asset_1_Frame_1_Your_pregame_ritual_may_be_putting_on_lucky_socks______0_Layer0_0_MEMBER_17_FILL">
<path fill="#FFFFFF" stroke="none" d="
M 14.6 74.3
L 4.3 74.3 4.3 119.2 11.55 119.2 11.55 83.55 21.15 110.85 25.35 110.85 34.55 83.45 34.55 119.2 41.8 119.2 41.8 74.3 31.55 74.3 22.95 97.05 14.6 74.3 Z"/>
</g>

<g id="CM_300x250_Generic_psd_Asset_1_Frame_1_Your_pregame_ritual_may_be_putting_on_lucky_socks______0_Layer0_0_MEMBER_18_FILL">
<path fill="#FFFFFF" stroke="none" d="
M 70.45 74.15
L 60.4 74.15 48.4 119.2 56.75 119.2 59.4 108.55 71.2 108.55 73.8 119.2 82.1 119.2 70.45 74.15
M 69.5 101.95
L 61.1 101.95 65.35 82.45 69.5 101.95 Z"/>
</g>

<g id="CM_300x250_Generic_psd_Asset_1_Frame_1_Your_pregame_ritual_may_be_putting_on_lucky_socks______0_Layer0_0_MEMBER_19_FILL">
<path fill="#FFFFFF" stroke="none" d="
M 89.95 74.3
L 81.1 74.3 93.95 101.4 93.95 119.2 102.15 119.2 102.15 101.5 115.2 74.3 106.35 74.3 98.05 93.1 89.95 74.3 Z"/>
</g>

<g id="CM_300x250_Generic_psd_Asset_1_Frame_1_Your_pregame_ritual_may_be_putting_on_lucky_socks______0_Layer0_0_MEMBER_20_FILL">
<path fill="#FFFFFF" stroke="none" d="
M 163.6 92.75
Q 164.65 90.5 164.65 87.7
L 164.65 84.8
Q 164.65 79.85 161.8 77.05 158.9 74.3 153.95 74.3
L 139.3 74.3 139.3 119.2 155.15 119.2
Q 157.5 119.2 159.6 118.35 161.65 117.5 163 116.05 164.45 114.45 165.15 112.5 165.9 110.5 165.9 107.95
L 165.9 104.85
Q 165.9 103.5 165.5 102 165 100.45 164.25 99.35 163.5 98.15 162.4 97.2 161.2 96.25 160.05 95.8 162.55 95 163.6 92.75
M 155.35 82.45
Q 156.4 83.35 156.4 85.65
L 156.4 88.55
Q 156.4 90.85 155.35 91.9 154.3 92.95 152 92.95
L 147.5 92.95 147.5 81.55 152 81.55
Q 154.3 81.55 155.35 82.45
M 156.2 100.85
Q 157.75 102.15 157.75 104.45
L 157.75 107.95
Q 157.75 110.25 156.6 111.1 155.5 111.9 153.15 111.9
L 147.5 111.9 147.5 99.55 152.3 99.55
Q 154.6 99.55 156.2 100.85 Z"/>
</g>

<g id="CM_300x250_Generic_psd_Asset_1_Frame_1_Your_pregame_ritual_may_be_putting_on_lucky_socks______0_Layer0_0_MEMBER_21_FILL">
<path fill="#FFFFFF" stroke="none" d="
M 195.35 74.3
L 173.25 74.3 173.25 119.2 196.5 119.2 196.5 111.9 181.2 111.9 181.2 99.9 193.1 99.9 193.1 92.95 181.2 92.95 181.2 81.55 195.35 81.55 195.35 74.3 Z"/>
</g>

<g id="CM_300x250_Generic_psd_Asset_1_Frame_1_Your_pregame_ritual_may_be_putting_on_lucky_socks______0_Layer0_0_MEMBER_22_FILL">
<path fill="#FFFFFF" stroke="none" d="
M 246.8 85.45
Q 246.8 79.75 243.55 77.05 240.35 74.3 234.7 74.3
L 221.5 74.3 221.5 119.2 229.7 119.2 229.7 102.65 234.85 102.65
Q 237.45 102.65 239.55 102 241.7 101.35 243.35 100.05 244.95 98.75 245.85 96.8 246.8 94.9 246.8 92.25
L 246.8 85.45
M 238.6 92.2
Q 238.6 94.05 237.6 94.75 236.6 95.4 234.7 95.4
L 229.7 95.4 229.7 81.55 234.7 81.55
Q 236.8 81.55 237.7 82.45 238.6 83.45 238.6 85.5
L 238.6 92.2 Z"/>
</g>

<g id="CM_300x250_Generic_psd_Asset_1_Frame_1_Your_pregame_ritual_may_be_putting_on_lucky_socks______0_Layer0_0_MEMBER_23_FILL">
<path fill="#FFFFFF" stroke="none" d="
M 262.1 74.3
L 253.95 74.3 253.95 105.65
Q 253.95 109.25 255.05 111.8 256.2 114.55 258.25 116.25 260.35 118.05 263.2 118.95 266.05 119.85 269.6 119.85 273.15 119.85 275.95 118.9 278.85 118 280.85 116.2 282.95 114.4 284.05 111.8 285.2 109.2 285.2 105.65
L 285.2 74.3 277.05 74.3 277.05 105.65
Q 277.05 109.15 275 110.9 273 112.6 269.5 112.6 266.05 112.6 264.05 110.9 262.1 109.2 262.1 105.65
L 262.1 74.3 Z"/>
</g>

<g id="CM_300x250_Generic_psd_Asset_1_Frame_1_Your_pregame_ritual_may_be_putting_on_lucky_socks______0_Layer0_0_MEMBER_24_FILL">
<path fill="#FFFFFF" stroke="none" d="
M 291.55 81.55
L 302.5 81.55 302.5 119.2 310.7 119.2 310.7 81.55 321.7 81.55 321.7 74.3 291.55 74.3 291.55 81.55 Z"/>
</g>

<g id="CM_300x250_Generic_psd_Asset_1_Frame_1_Your_pregame_ritual_may_be_putting_on_lucky_socks______0_Layer0_0_MEMBER_25_FILL">
<path fill="#FFFFFF" stroke="none" d="
M 326.35 81.55
L 337.3 81.55 337.3 119.2 345.5 119.2 345.5 81.55 356.55 81.55 356.55 74.3 326.35 74.3 326.35 81.55 Z"/>
</g>

<g id="CM_300x250_Generic_psd_Asset_1_Frame_1_Your_pregame_ritual_may_be_putting_on_lucky_socks______0_Layer0_0_MEMBER_26_FILL">
<path fill="#FFFFFF" stroke="none" d="
M 372.1 74.3
L 363.9 74.3 363.9 119.2 372.1 119.2 372.1 74.3 Z"/>
</g>

<g id="CM_300x250_Generic_psd_Asset_1_Frame_1_Your_pregame_ritual_may_be_putting_on_lucky_socks______0_Layer0_0_MEMBER_27_FILL">
<path fill="#FFFFFF" stroke="none" d="
M 413.4 74.3
L 406.15 74.3 406.15 110.65 393.4 74.3 381.65 74.3 381.65 119.2 388.9 119.2 388.9 83.45 400.45 119.2 413.4 119.2 413.4 74.3 Z"/>
</g>

<g id="CM_300x250_Generic_psd_Asset_1_Frame_1_Your_pregame_ritual_may_be_putting_on_lucky_socks______0_Layer0_0_MEMBER_28_FILL">
<path fill="#FFFFFF" stroke="none" d="
M 422.2 81.65
Q 421.05 84.1 421.05 87.35
L 421.05 106.1
Q 421.05 109.5 422.2 112 423.35 114.6 425.4 116.3 427.5 118.1 430.25 118.95 433.05 119.85 436.35 119.85 440.35 119.85 444 118.4 447.5 116.95 450.75 114.15
L 450.75 94.35 435.55 94.35 435.55 100.95 442.7 100.95 442.7 110.65
Q 441 111.95 439.65 112.25 438 112.6 436.3 112.6 433 112.6 430.95 111 428.95 109.45 428.95 106.1
L 428.95 87.35
Q 428.95 84.35 431.05 82.6 433.1 80.9 436.3 80.9 438.8 80.9 440.95 82.35 443.1 83.75 444.8 85.7
L 449.85 80.1
Q 447.55 77 444.25 75.3 440.95 73.65 436.3 73.65 433 73.65 430.3 74.6 427.6 75.5 425.45 77.3 423.45 79.05 422.2 81.65 Z"/>
</g>

<g id="CM_300x250_Generic_psd_Asset_1_Frame_1_Your_pregame_ritual_may_be_putting_on_lucky_socks______0_Layer0_0_MEMBER_29_FILL">
<path fill="#FFFFFF" stroke="none" d="
M 497.75 74.55
Q 495 73.65 491.75 73.65
L 490.8 73.65
Q 487.55 73.65 484.75 74.6 481.9 75.55 479.9 77.3 477.8 79 476.6 81.6 475.35 84.1 475.35 87.3
L 475.35 106.1
Q 475.35 109.45 476.5 112.05 477.75 114.7 479.75 116.35 481.8 118.1 484.65 119 487.6 119.85 490.85 119.85
L 491.75 119.85
Q 495 119.85 497.85 118.95 500.65 118.05 502.7 116.3 504.8 114.6 506 112 507.2 109.45 507.2 106.1
L 507.2 87.3
Q 507.2 84.15 505.95 81.5 504.8 79.05 502.65 77.2 500.45 75.4 497.75 74.55
M 496.9 82.55
Q 499 84.3 499 87.35
L 499 106.1
Q 499 109.5 497.05 111.05 495.05 112.6 491.75 112.6
L 490.85 112.6
Q 487.65 112.6 485.55 111.05 483.55 109.5 483.55 106.1
L 483.55 87.3
Q 483.55 84.2 485.6 82.55 487.7 80.9 490.8 80.9
L 491.75 80.9
Q 494.8 80.9 496.9 82.55 Z"/>
</g>

<g id="CM_300x250_Generic_psd_Asset_1_Frame_1_Your_pregame_ritual_may_be_putting_on_lucky_socks______0_Layer0_0_MEMBER_30_FILL">
<path fill="#FFFFFF" stroke="none" d="
M 546.6 74.3
L 539.35 74.3 539.35 110.65 526.6 74.3 514.85 74.3 514.85 119.2 522.1 119.2 522.1 83.45 533.65 119.2 546.6 119.2 546.6 74.3 Z"/>
</g>

<g id="CM_300x250_Generic_psd_Asset_1_Frame_1_Your_pregame_ritual_may_be_putting_on_lucky_socks______0_Layer0_0_MEMBER_31_FILL">
<path fill="#FFFFFF" stroke="none" d="
M 12.2 145.95
L 4.3 145.95 4.3 190.85 28.85 190.85 28.85 183.55 12.2 183.55 12.2 145.95 Z"/>
</g>

<g id="CM_300x250_Generic_psd_Asset_1_Frame_1_Your_pregame_ritual_may_be_putting_on_lucky_socks______0_Layer0_0_MEMBER_32_FILL">
<path fill="#FFFFFF" stroke="none" d="
M 66.1 145.95
L 57.9 145.95 57.9 177.3
Q 57.9 180.85 55.9 182.55 53.9 184.2 50.4 184.2 46.9 184.2 44.95 182.55 43 180.85 43 177.3
L 43 145.95 34.8 145.95 34.8 177.3
Q 34.8 180.75 35.95 183.45 37.1 186.2 39.15 187.9 41.2 189.7 44.1 190.6 46.95 191.5 50.45 191.5 54 191.5 56.85 190.55 59.75 189.65 61.75 187.85 63.85 185.95 64.95 183.45 66.1 180.7 66.1 177.3
L 66.1 145.95 Z"/>
</g>

<g id="CM_300x250_Generic_psd_Asset_1_Frame_1_Your_pregame_ritual_may_be_putting_on_lucky_socks______0_Layer0_0_MEMBER_33_FILL">
<path fill="#FFFFFF" stroke="none" d="
M 73.65 177.75
Q 73.65 184.55 77.7 188 81.7 191.5 88.5 191.5 92.5 191.5 95.55 190.15 98.65 188.8 101.45 185.85
L 96.6 180.15 94.85 181.8
Q 93.9 182.65 93.15 183.1 92.15 183.7 91.15 183.95 89.9 184.2 88.5 184.2 81.8 184.2 81.8 177.75
L 81.8 159
Q 81.8 155.95 83.55 154.2 85.35 152.55 88.4 152.55 91.55 152.65 93.45 154 95.45 155.35 96.4 156.9
L 101.65 151.8
Q 100.5 150.05 99.1 148.75 97.65 147.45 96.15 146.75 94.5 145.9 92.7 145.6 90.5 145.25 88.4 145.25 85.25 145.25 82.5 146.25 79.85 147.15 77.8 148.95 75.85 150.7 74.7 153.3 73.65 155.85 73.65 159
L 73.65 177.75 Z"/>
</g>

<g id="CM_300x250_Generic_psd_Asset_1_Frame_1_Your_pregame_ritual_may_be_putting_on_lucky_socks______0_Layer0_0_MEMBER_34_FILL">
<path fill="#FFFFFF" stroke="none" d="
M 139.45 145.95
L 129.7 145.95 116.75 162.85 116.75 145.95 108.55 145.95 108.55 190.85 116.75 190.85 116.75 175.45 118.2 173.05 130.45 190.85 140.7 190.85 123.4 166.45 139.45 145.95 Z"/>
</g>

<g id="CM_300x250_Generic_psd_Asset_1_Frame_1_Your_pregame_ritual_may_be_putting_on_lucky_socks______0_Layer0_0_MEMBER_35_FILL">
<path fill="#FFFFFF" stroke="none" d="
M 178.9 145.95
L 170.05 145.95 161.75 164.75 153.65 145.95 144.8 145.95 157.65 173.05 157.65 190.85 165.85 190.85 165.85 173.15 178.9 145.95 Z"/>
</g>

<g id="CM_300x250_Generic_psd_Asset_1_Frame_1_Your_pregame_ritual_may_be_putting_on_lucky_socks______0_Layer0_0_MEMBER_36_FILL">
<path fill="#FFFFFF" stroke="none" d="
M 211.25 146
Q 208.55 146.8 206.75 148.2 204.85 149.75 203.85 151.95 202.8 154.2 202.8 157.2 202.8 159.95 203.65 162.05 204.6 164.15 205.8 165.65 207.1 167.15 208.6 168.3
L 214.8 172.05
Q 216.7 173 218.2 174 219.85 175.1 220.85 176.25 221.95 177.5 221.95 179.05 221.95 182.1 220.35 183.05 218.8 184.1 215.9 184.1 212.6 184.1 210.75 182.55 208.85 181 207.5 178.2
L 201.3 183.1
Q 203.6 187.65 207.5 189.5 211.35 191.35 216.3 191.35 219.25 191.35 221.7 190.55 224.2 189.8 226.1 188.2 227.85 186.8 229.05 184.4 230.15 182.15 230.15 179.15 230.15 176.1 229.55 174.05 228.95 172.05 227.95 170.7 226.95 169.35 225.45 168.25
L 222.2 166
Q 221.45 165.45 219.4 164.45 217.2 163.4 215.65 162.4 213.8 161.3 212.4 159.9 211 158.6 211 157 211 154.5 212.25 153.55 213.45 152.55 216 152.55 217.2 152.55 218.3 153 219.45 153.45 220.65 154.15 221.8 154.85 222.75 155.65 223.75 156.5 224.4 157.3
L 229.1 151.2
Q 227.85 149.8 226.4 148.7 225 147.65 223.3 146.8 222 146.2 220.05 145.65 218.3 145.25 216.85 145.25 213.8 145.25 211.25 146 Z"/>
</g>

<g id="CM_300x250_Generic_psd_Asset_1_Frame_1_Your_pregame_ritual_may_be_putting_on_lucky_socks______0_Layer0_0_MEMBER_37_FILL">
<path fill="#FFFFFF" stroke="none" d="
M 237.55 183.7
Q 238.8 186.35 240.8 188 242.85 189.75 245.7 190.65 248.65 191.5 251.9 191.5
L 252.8 191.5
Q 256.05 191.5 258.9 190.6 261.7 189.7 263.75 187.95 265.85 186.25 267.05 183.65 268.25 181.1 268.25 177.75
L 268.25 158.95
Q 268.25 155.8 267 153.15 265.85 150.7 263.7 148.85 261.5 147.05 258.8 146.2 255.85 145.25 252.8 145.25
L 251.85 145.25
Q 248.7 145.25 245.8 146.25 242.95 147.2 240.95 148.95 238.85 150.65 237.65 153.25 236.4 155.7 236.4 158.95
L 236.4 177.75
Q 236.4 181.1 237.55 183.7
M 257.95 154.2
Q 260.05 155.95 260.05 159
L 260.05 177.75
Q 260.05 181.15 258.1 182.65 256.2 184.2 252.8 184.2
L 251.9 184.2
Q 248.6 184.2 246.6 182.65 244.6 181.15 244.6 177.75
L 244.6 158.95
Q 244.6 155.85 246.65 154.2 248.75 152.55 251.85 152.55
L 252.8 152.55
Q 255.85 152.55 257.95 154.2 Z"/>
</g>

<g id="CM_300x250_Generic_psd_Asset_1_Frame_1_Your_pregame_ritual_may_be_putting_on_lucky_socks______0_Layer0_0_MEMBER_38_FILL">
<path fill="#FFFFFF" stroke="none" d="
M 289.75 145.25
Q 286.55 145.25 283.8 146.25 281.3 147.1 279.1 148.95 277.2 150.7 276.05 153.3 274.95 155.95 274.95 159
L 274.95 177.75
Q 274.95 184.55 279.05 188 283.05 191.5 289.8 191.5 293.75 191.5 296.9 190.15 299.95 188.8 302.75 185.85
L 297.95 180.15 296.15 181.8
Q 295.4 182.55 294.45 183.1 293.6 183.65 292.45 183.95 291.2 184.2 289.8 184.2 283.15 184.2 283.15 177.75
L 283.15 159
Q 283.15 155.95 284.9 154.2 286.65 152.55 289.75 152.55 292.85 152.65 294.8 154 296.7 155.25 297.75 156.9
L 302.95 151.8
Q 301.8 150.05 300.4 148.75 298.9 147.4 297.5 146.75 295.75 145.9 294 145.6 291.8 145.25 289.75 145.25 Z"/>
</g>

<g id="CM_300x250_Generic_psd_Asset_1_Frame_1_Your_pregame_ritual_may_be_putting_on_lucky_socks______0_Layer0_0_MEMBER_39_FILL">
<path fill="#FFFFFF" stroke="none" d="
M 340.8 145.95
L 331 145.95 318.05 162.85 318.05 145.95 309.9 145.95 309.9 190.85 318.05 190.85 318.05 175.45 319.5 173.05 331.8 190.85 342.05 190.85 324.75 166.45 340.8 145.95 Z"/>
</g>

<g id="CM_300x250_Generic_psd_Asset_1_Frame_1_Your_pregame_ritual_may_be_putting_on_lucky_socks______0_Layer0_0_MEMBER_40_FILL">
<path fill="#FFFFFF" stroke="none" d="
M 355.05 146
Q 352.4 146.75 350.6 148.2 348.75 149.65 347.7 151.95 346.65 154.2 346.65 157.2 346.65 159.95 347.5 162.05 348.3 163.95 349.65 165.65 350.95 167.15 352.45 168.3
L 358.6 172.05
Q 360.3 172.85 362 174 363.45 174.95 364.7 176.25 365.8 177.6 365.8 179.05 365.8 182.05 364.2 183.05 362.65 184.1 359.7 184.1 356.45 184.1 354.6 182.55 352.7 181 351.35 178.2
L 345.1 183.1
Q 347.4 187.6 351.35 189.5 355.15 191.35 360.1 191.35 363.1 191.35 365.5 190.55 367.95 189.85 369.9 188.2 371.75 186.75 372.9 184.4 373.95 182.1 373.95 179.15 373.95 176.15 373.4 174.05 372.8 172 371.75 170.7 370.85 169.4 369.3 168.25
L 366.05 166
Q 365.3 165.45 363.25 164.45 361.05 163.4 359.5 162.4 357.7 161.3 356.2 159.9 354.85 158.55 354.85 157 354.85 154.5 356.1 153.55 357.25 152.55 359.85 152.55 360.95 152.55 362.15 153 363.15 153.4 364.45 154.15 365.45 154.75 366.6 155.65 367.6 156.5 368.25 157.3
L 372.9 151.2
Q 371.55 149.65 370.25 148.7 369.05 147.8 367.15 146.8 365.8 146.2 363.85 145.65 362.1 145.25 360.7 145.25 357.7 145.25 355.05 146 Z"/>
</g>

<g id="CM_300x250_Generic_psd_Asset_1_Frame_1_Your_pregame_ritual_may_be_putting_on_lucky_socks______0_Layer0_0_MEMBER_41_FILL">
<path fill="#FFFFFF" stroke="none" d="
M 380.35 181.9
L 380.35 190.85 388.8 190.85 388.8 181.9 380.35 181.9 Z"/>
</g>
</defs>

<g transform="matrix( 1, 0, 0, 1, 30,42) ">
<g transform="matrix( 1, 0, 0, 1, 0,0) ">
<g transform="matrix( 0.3887481689453125, 0, 0, 0.3907928466796875, 0,-0.4) ">
<use xlink:href="#CM_300x250_Generic_psd_Asset_1_Frame_1_Your_pregame_ritual_may_be_putting_on_lucky_socks______0_Layer0_0_MEMBER_0_FILL"/>
</g>

<g transform="matrix( 0.3887481689453125, 0, 0, 0.3907928466796875, 0,-0.4) ">
<use xlink:href="#CM_300x250_Generic_psd_Asset_1_Frame_1_Your_pregame_ritual_may_be_putting_on_lucky_socks______0_Layer0_0_MEMBER_1_FILL"/>
</g>

<g transform="matrix( 0.3887481689453125, 0, 0, 0.3907928466796875, 0,-0.4) ">
<use xlink:href="#CM_300x250_Generic_psd_Asset_1_Frame_1_Your_pregame_ritual_may_be_putting_on_lucky_socks______0_Layer0_0_MEMBER_2_FILL"/>
</g>

<g transform="matrix( 0.3887481689453125, 0, 0, 0.3907928466796875, 0,-0.4) ">
<use xlink:href="#CM_300x250_Generic_psd_Asset_1_Frame_1_Your_pregame_ritual_may_be_putting_on_lucky_socks______0_Layer0_0_MEMBER_3_FILL"/>
</g>

<g transform="matrix( 0.3887481689453125, 0, 0, 0.3907928466796875, 0,-0.4) ">
<use xlink:href="#CM_300x250_Generic_psd_Asset_1_Frame_1_Your_pregame_ritual_may_be_putting_on_lucky_socks______0_Layer0_0_MEMBER_4_FILL"/>
</g>

<g transform="matrix( 0.3887481689453125, 0, 0, 0.3907928466796875, 0,-0.4) ">
<use xlink:href="#CM_300x250_Generic_psd_Asset_1_Frame_1_Your_pregame_ritual_may_be_putting_on_lucky_socks______0_Layer0_0_MEMBER_5_FILL"/>
</g>

<g transform="matrix( 0.3887481689453125, 0, 0, 0.3907928466796875, 0,-0.4) ">
<use xlink:href="#CM_300x250_Generic_psd_Asset_1_Frame_1_Your_pregame_ritual_may_be_putting_on_lucky_socks______0_Layer0_0_MEMBER_6_FILL"/>
</g>

<g transform="matrix( 0.3887481689453125, 0, 0, 0.3907928466796875, 0,-0.4) ">
<use xlink:href="#CM_300x250_Generic_psd_Asset_1_Frame_1_Your_pregame_ritual_may_be_putting_on_lucky_socks______0_Layer0_0_MEMBER_7_FILL"/>
</g>

<g transform="matrix( 0.3887481689453125, 0, 0, 0.3907928466796875, 0,-0.4) ">
<use xlink:href="#CM_300x250_Generic_psd_Asset_1_Frame_1_Your_pregame_ritual_may_be_putting_on_lucky_socks______0_Layer0_0_MEMBER_8_FILL"/>
</g>

<g transform="matrix( 0.3887481689453125, 0, 0, 0.3907928466796875, 0,-0.4) ">
<use xlink:href="#CM_300x250_Generic_psd_Asset_1_Frame_1_Your_pregame_ritual_may_be_putting_on_lucky_socks______0_Layer0_0_MEMBER_9_FILL"/>
</g>

<g transform="matrix( 0.3887481689453125, 0, 0, 0.3907928466796875, 0,-0.4) ">
<use xlink:href="#CM_300x250_Generic_psd_Asset_1_Frame_1_Your_pregame_ritual_may_be_putting_on_lucky_socks______0_Layer0_0_MEMBER_10_FILL"/>
</g>

<g transform="matrix( 0.3887481689453125, 0, 0, 0.3907928466796875, 0,-0.4) ">
<use xlink:href="#CM_300x250_Generic_psd_Asset_1_Frame_1_Your_pregame_ritual_may_be_putting_on_lucky_socks______0_Layer0_0_MEMBER_11_FILL"/>
</g>

<g transform="matrix( 0.3887481689453125, 0, 0, 0.3907928466796875, 0,-0.4) ">
<use xlink:href="#CM_300x250_Generic_psd_Asset_1_Frame_1_Your_pregame_ritual_may_be_putting_on_lucky_socks______0_Layer0_0_MEMBER_12_FILL"/>
</g>

<g transform="matrix( 0.3887481689453125, 0, 0, 0.3907928466796875, 0,-0.4) ">
<use xlink:href="#CM_300x250_Generic_psd_Asset_1_Frame_1_Your_pregame_ritual_may_be_putting_on_lucky_socks______0_Layer0_0_MEMBER_13_FILL"/>
</g>

<g transform="matrix( 0.3887481689453125, 0, 0, 0.3907928466796875, 0,-0.4) ">
<use xlink:href="#CM_300x250_Generic_psd_Asset_1_Frame_1_Your_pregame_ritual_may_be_putting_on_lucky_socks______0_Layer0_0_MEMBER_14_FILL"/>
</g>

<g transform="matrix( 0.3887481689453125, 0, 0, 0.3907928466796875, 0,-0.4) ">
<use xlink:href="#CM_300x250_Generic_psd_Asset_1_Frame_1_Your_pregame_ritual_may_be_putting_on_lucky_socks______0_Layer0_0_MEMBER_15_FILL"/>
</g>

<g transform="matrix( 0.3887481689453125, 0, 0, 0.3907928466796875, 0,-0.4) ">
<use xlink:href="#CM_300x250_Generic_psd_Asset_1_Frame_1_Your_pregame_ritual_may_be_putting_on_lucky_socks______0_Layer0_0_MEMBER_16_FILL"/>
</g>

<g transform="matrix( 0.3887481689453125, 0, 0, 0.3907928466796875, 0,-0.4) ">
<use xlink:href="#CM_300x250_Generic_psd_Asset_1_Frame_1_Your_pregame_ritual_may_be_putting_on_lucky_socks______0_Layer0_0_MEMBER_17_FILL"/>
</g>

<g transform="matrix( 0.3887481689453125, 0, 0, 0.3907928466796875, 0,-0.4) ">
<use xlink:href="#CM_300x250_Generic_psd_Asset_1_Frame_1_Your_pregame_ritual_may_be_putting_on_lucky_socks______0_Layer0_0_MEMBER_18_FILL"/>
</g>

<g transform="matrix( 0.3887481689453125, 0, 0, 0.3907928466796875, 0,-0.4) ">
<use xlink:href="#CM_300x250_Generic_psd_Asset_1_Frame_1_Your_pregame_ritual_may_be_putting_on_lucky_socks______0_Layer0_0_MEMBER_19_FILL"/>
</g>

<g transform="matrix( 0.3887481689453125, 0, 0, 0.3907928466796875, 0,-0.4) ">
<use xlink:href="#CM_300x250_Generic_psd_Asset_1_Frame_1_Your_pregame_ritual_may_be_putting_on_lucky_socks______0_Layer0_0_MEMBER_20_FILL"/>
</g>

<g transform="matrix( 0.3887481689453125, 0, 0, 0.3907928466796875, 0,-0.4) ">
<use xlink:href="#CM_300x250_Generic_psd_Asset_1_Frame_1_Your_pregame_ritual_may_be_putting_on_lucky_socks______0_Layer0_0_MEMBER_21_FILL"/>
</g>

<g transform="matrix( 0.3887481689453125, 0, 0, 0.3907928466796875, 0,-0.4) ">
<use xlink:href="#CM_300x250_Generic_psd_Asset_1_Frame_1_Your_pregame_ritual_may_be_putting_on_lucky_socks______0_Layer0_0_MEMBER_22_FILL"/>
</g>

<g transform="matrix( 0.3887481689453125, 0, 0, 0.3907928466796875, 0,-0.4) ">
<use xlink:href="#CM_300x250_Generic_psd_Asset_1_Frame_1_Your_pregame_ritual_may_be_putting_on_lucky_socks______0_Layer0_0_MEMBER_23_FILL"/>
</g>

<g transform="matrix( 0.3887481689453125, 0, 0, 0.3907928466796875, 0,-0.4) ">
<use xlink:href="#CM_300x250_Generic_psd_Asset_1_Frame_1_Your_pregame_ritual_may_be_putting_on_lucky_socks______0_Layer0_0_MEMBER_24_FILL"/>
</g>

<g transform="matrix( 0.3887481689453125, 0, 0, 0.3907928466796875, 0,-0.4) ">
<use xlink:href="#CM_300x250_Generic_psd_Asset_1_Frame_1_Your_pregame_ritual_may_be_putting_on_lucky_socks______0_Layer0_0_MEMBER_25_FILL"/>
</g>

<g transform="matrix( 0.3887481689453125, 0, 0, 0.3907928466796875, 0,-0.4) ">
<use xlink:href="#CM_300x250_Generic_psd_Asset_1_Frame_1_Your_pregame_ritual_may_be_putting_on_lucky_socks______0_Layer0_0_MEMBER_26_FILL"/>
</g>

<g transform="matrix( 0.3887481689453125, 0, 0, 0.3907928466796875, 0,-0.4) ">
<use xlink:href="#CM_300x250_Generic_psd_Asset_1_Frame_1_Your_pregame_ritual_may_be_putting_on_lucky_socks______0_Layer0_0_MEMBER_27_FILL"/>
</g>

<g transform="matrix( 0.3887481689453125, 0, 0, 0.3907928466796875, 0,-0.4) ">
<use xlink:href="#CM_300x250_Generic_psd_Asset_1_Frame_1_Your_pregame_ritual_may_be_putting_on_lucky_socks______0_Layer0_0_MEMBER_28_FILL"/>
</g>

<g transform="matrix( 0.3887481689453125, 0, 0, 0.3907928466796875, 0,-0.4) ">
<use xlink:href="#CM_300x250_Generic_psd_Asset_1_Frame_1_Your_pregame_ritual_may_be_putting_on_lucky_socks______0_Layer0_0_MEMBER_29_FILL"/>
</g>

<g transform="matrix( 0.3887481689453125, 0, 0, 0.3907928466796875, 0,-0.4) ">
<use xlink:href="#CM_300x250_Generic_psd_Asset_1_Frame_1_Your_pregame_ritual_may_be_putting_on_lucky_socks______0_Layer0_0_MEMBER_30_FILL"/>
</g>

<g transform="matrix( 0.3887481689453125, 0, 0, 0.3907928466796875, 0,-0.4) ">
<use xlink:href="#CM_300x250_Generic_psd_Asset_1_Frame_1_Your_pregame_ritual_may_be_putting_on_lucky_socks______0_Layer0_0_MEMBER_31_FILL"/>
</g>

<g transform="matrix( 0.3887481689453125, 0, 0, 0.3907928466796875, 0,-0.4) ">
<use xlink:href="#CM_300x250_Generic_psd_Asset_1_Frame_1_Your_pregame_ritual_may_be_putting_on_lucky_socks______0_Layer0_0_MEMBER_32_FILL"/>
</g>

<g transform="matrix( 0.3887481689453125, 0, 0, 0.3907928466796875, 0,-0.4) ">
<use xlink:href="#CM_300x250_Generic_psd_Asset_1_Frame_1_Your_pregame_ritual_may_be_putting_on_lucky_socks______0_Layer0_0_MEMBER_33_FILL"/>
</g>

<g transform="matrix( 0.3887481689453125, 0, 0, 0.3907928466796875, 0,-0.4) ">
<use xlink:href="#CM_300x250_Generic_psd_Asset_1_Frame_1_Your_pregame_ritual_may_be_putting_on_lucky_socks______0_Layer0_0_MEMBER_34_FILL"/>
</g>

<g transform="matrix( 0.3887481689453125, 0, 0, 0.3907928466796875, 0,-0.4) ">
<use xlink:href="#CM_300x250_Generic_psd_Asset_1_Frame_1_Your_pregame_ritual_may_be_putting_on_lucky_socks______0_Layer0_0_MEMBER_35_FILL"/>
</g>

<g transform="matrix( 0.3887481689453125, 0, 0, 0.3907928466796875, 0,-0.4) ">
<use xlink:href="#CM_300x250_Generic_psd_Asset_1_Frame_1_Your_pregame_ritual_may_be_putting_on_lucky_socks______0_Layer0_0_MEMBER_36_FILL"/>
</g>

<g transform="matrix( 0.3887481689453125, 0, 0, 0.3907928466796875, 0,-0.4) ">
<use xlink:href="#CM_300x250_Generic_psd_Asset_1_Frame_1_Your_pregame_ritual_may_be_putting_on_lucky_socks______0_Layer0_0_MEMBER_37_FILL"/>
</g>

<g transform="matrix( 0.3887481689453125, 0, 0, 0.3907928466796875, 0,-0.4) ">
<use xlink:href="#CM_300x250_Generic_psd_Asset_1_Frame_1_Your_pregame_ritual_may_be_putting_on_lucky_socks______0_Layer0_0_MEMBER_38_FILL"/>
</g>

<g transform="matrix( 0.3887481689453125, 0, 0, 0.3907928466796875, 0,-0.4) ">
<use xlink:href="#CM_300x250_Generic_psd_Asset_1_Frame_1_Your_pregame_ritual_may_be_putting_on_lucky_socks______0_Layer0_0_MEMBER_39_FILL"/>
</g>

<g transform="matrix( 0.3887481689453125, 0, 0, 0.3907928466796875, 0,-0.4) ">
<use xlink:href="#CM_300x250_Generic_psd_Asset_1_Frame_1_Your_pregame_ritual_may_be_putting_on_lucky_socks______0_Layer0_0_MEMBER_40_FILL"/>
</g>

<g transform="matrix( 0.3887481689453125, 0, 0, 0.3907928466796875, 0,-0.4) ">
<use xlink:href="#CM_300x250_Generic_psd_Asset_1_Frame_1_Your_pregame_ritual_may_be_putting_on_lucky_socks______0_Layer0_0_MEMBER_41_FILL"/>
</g>
</g>
</g>
</svg>
