
<svg xmlns="http://www.w3.org/2000/svg" version="1.1" xmlns:xlink="http://www.w3.org/1999/xlink" preserveAspectRatio="none" x="0px" y="0px" width="300px" height="250px" viewBox="0 0 300 250">
<defs>
<g id="CM_300x250_Generic_psd_Asset_Frame_2_Make_your_postgame_ritual_chocolate_milk__0_Layer0_0_MEMBER_0_FILL">
<path fill="#FFFFFF" stroke="none" d="
M 42.45 48.3
L 42.45 2.7 32.05 2.7 23.35 25.8 14.8 2.7 4.35 2.7 4.35 48.3 11.75 48.3 11.75 12.05 21.45 39.85 25.75 39.85 35.05 12 35.05 48.3 42.45 48.3 Z"/>
</g>

<g id="CM_300x250_Generic_psd_Asset_Frame_2_Make_your_postgame_ritual_chocolate_milk__0_Layer0_0_MEMBER_1_FILL">
<path fill="#FFFFFF" stroke="none" d="
M 71.5 2.55
L 61.35 2.55 49.1 48.3 57.65 48.3 60.3 37.5 72.3 37.5 74.95 48.3 83.4 48.3 71.5 2.55
M 70.6 30.8
L 62.05 30.8 66.35 11 70.6 30.8 Z"/>
</g>

<g id="CM_300x250_Generic_psd_Asset_Frame_2_Make_your_postgame_ritual_chocolate_milk__0_Layer0_0_MEMBER_2_FILL">
<path fill="#FFFFFF" stroke="none" d="
M 99.9 30.25
L 112.35 48.3 122.75 48.3 105.2 23.55 121.5 2.7 111.55 2.7 98.4 19.85 98.4 2.7 90.1 2.7 90.1 48.3 98.4 48.3 98.4 32.65 99.9 30.25 Z"/>
</g>

<g id="CM_300x250_Generic_psd_Asset_Frame_2_Make_your_postgame_ritual_chocolate_milk__0_Layer0_0_MEMBER_3_FILL">
<path fill="#FFFFFF" stroke="none" d="
M 151.55 10.05
L 151.55 2.7 129.05 2.7 129.05 48.3 152.7 48.3 152.7 40.9 137.1 40.9 137.1 28.7 149.25 28.7 149.25 21.65 137.1 21.65 137.1 10.05 151.55 10.05 Z"/>
</g>

<g id="CM_300x250_Generic_psd_Asset_Frame_2_Make_your_postgame_ritual_chocolate_milk__0_Layer0_0_MEMBER_4_FILL">
<path fill="#FFFFFF" stroke="none" d="
M 187.95 30.25
L 187.95 48.3 196.25 48.3 196.25 30.3 209.55 2.7 200.55 2.7 192.1 21.8 183.85 2.7 174.85 2.7 187.95 30.25 Z"/>
</g>

<g id="CM_300x250_Generic_psd_Asset_Frame_2_Make_your_postgame_ritual_chocolate_milk__0_Layer0_0_MEMBER_5_FILL">
<path fill="#FFFFFF" stroke="none" d="
M 245.8 15.9
Q 245.8 12.55 244.55 10 243.4 7.5 241.2 5.65 239.1 3.95 236.25 2.95 233.45 2 230.1 2
L 229.15 2
Q 225.95 2 223.05 3 220.2 4 218.05 5.75 216 7.45 214.7 10.1 213.45 12.75 213.45 15.9
L 213.45 35
Q 213.45 38.45 214.65 41.05 215.9 43.75 217.95 45.45 220.1 47.25 222.95 48.1 225.9 48.95 229.25 48.95
L 230.1 48.95
Q 233.45 48.95 236.3 48.05 239.15 47.15 241.25 45.35 243.4 43.65 244.6 41 245.8 38.45 245.8 35
L 245.8 15.9
M 235.35 11.1
Q 237.5 12.8 237.5 15.95
L 237.5 35
Q 237.5 38.4 235.5 40 233.5 41.6 230.1 41.6
L 229.25 41.6
Q 225.9 41.6 223.85 40 221.8 38.45 221.8 35
L 221.8 15.9
Q 221.8 12.8 223.9 11.05 226 9.4 229.15 9.4
L 230.1 9.4
Q 233.3 9.4 235.35 11.1 Z"/>
</g>

<g id="CM_300x250_Generic_psd_Asset_Frame_2_Make_your_postgame_ritual_chocolate_milk__0_Layer0_0_MEMBER_6_FILL">
<path fill="#FFFFFF" stroke="none" d="
M 285.2 34.55
L 285.2 2.7 276.9 2.7 276.9 34.55
Q 276.9 38.2 274.85 39.85 272.8 41.6 269.25 41.6 265.75 41.6 263.7 39.85 261.75 38.2 261.75 34.55
L 261.75 2.7 253.45 2.7 253.45 34.55
Q 253.45 38.15 254.55 40.8 255.75 43.55 257.8 45.35 260 47.2 262.85 48.05 265.8 48.95 269.3 48.95 272.95 48.95 275.8 48 278.6 47.15 280.8 45.25 282.85 43.4 284.05 40.75 285.2 38.05 285.2 34.55 Z"/>
</g>

<g id="CM_300x250_Generic_psd_Asset_Frame_2_Make_your_postgame_ritual_chocolate_milk__0_Layer0_0_MEMBER_7_FILL">
<path fill="#FFFFFF" stroke="none" d="
M 321.3 18.7
L 321.3 14.35
Q 321.3 8.3 318.2 5.5 315.2 2.7 309.05 2.7
L 293.75 2.7 293.75 48.3 302.1 48.3 302.1 29.75 305.9 29.75 314.4 48.3 322.85 48.3 313.95 28.9
Q 317.6 27.45 319.4 25.1 321.3 22.7 321.3 18.7
M 311.95 21.5
Q 310.85 22.4 309.05 22.4
L 302.1 22.4 302.1 10.05 309 10.05
Q 311.15 10.05 312.05 11.1 313 12.1 313 14.3
L 313 18.65
Q 313 20.6 311.95 21.5 Z"/>
</g>

<g id="CM_300x250_Generic_psd_Asset_Frame_2_Make_your_postgame_ritual_chocolate_milk__0_Layer0_0_MEMBER_8_FILL">
<path fill="#FFFFFF" stroke="none" d="
M 17.7 74.9
L 4.3 74.9 4.3 120.5 12.6 120.5 12.6 103.75 17.85 103.75
Q 20.25 103.75 22.6 103.05 24.8 102.35 26.45 101.1 28.1 99.75 29.05 97.75 30 95.6 30 93.15
L 30 86.25
Q 30 80.5 26.7 77.7 23.35 74.9 17.7 74.9
M 12.6 82.3
L 17.7 82.3
Q 19.85 82.3 20.75 83.2 21.65 84.2 21.65 86.3
L 21.65 93.05
Q 21.65 95.05 20.6 95.7 19.65 96.35 17.7 96.35
L 12.6 96.35 12.6 82.3 Z"/>
</g>

<g id="CM_300x250_Generic_psd_Asset_Frame_2_Make_your_postgame_ritual_chocolate_milk__0_Layer0_0_MEMBER_9_FILL">
<path fill="#FFFFFF" stroke="none" d="
M 37.8 82.3
Q 36.55 85.05 36.55 88.1
L 36.55 107.2
Q 36.55 110.65 37.75 113.25 38.85 115.85 41.05 117.65 43.05 119.35 46 120.3 48.75 121.15 52.35 121.15
L 53.2 121.15
Q 56.55 121.15 59.4 120.25 62.2 119.35 64.35 117.6 66.55 115.7 67.7 113.2 68.9 110.65 68.9 107.2
L 68.9 88.1
Q 68.9 84.9 67.65 82.25 66.35 79.6 64.3 77.9 62.25 76.15 59.35 75.15 56.5 74.25 53.2 74.25
L 52.25 74.25
Q 48.9 74.25 46.1 75.2 43.2 76.2 41.15 77.95 39.1 79.7 37.8 82.3
M 52.25 81.6
L 53.2 81.6
Q 56.4 81.6 58.45 83.3 60.55 85.05 60.55 88.2
L 60.55 107.2
Q 60.55 110.65 58.6 112.2 56.6 113.8 53.2 113.8
L 52.35 113.8
Q 49 113.8 46.95 112.2 44.9 110.65 44.9 107.2
L 44.9 88.1
Q 44.9 84.95 47 83.3 49.05 81.6 52.25 81.6 Z"/>
</g>

<g id="CM_300x250_Generic_psd_Asset_Frame_2_Make_your_postgame_ritual_chocolate_milk__0_Layer0_0_MEMBER_10_FILL">
<path fill="#FFFFFF" stroke="none" d="
M 97.55 75.8
Q 95.8 75 94.25 74.65 92.8 74.25 91.05 74.25 87.75 74.25 85.3 74.95 82.6 75.7 80.75 77.2 79 78.6 77.8 81 76.75 83.25 76.75 86.35 76.75 89.15 77.6 91.25 78.45 93.25 79.8 94.9 81.1 96.5 82.65 97.6
L 88.9 101.4
Q 90.5 102.15 92.35 103.4 93.8 104.35 95.1 105.7 96.2 106.95 96.2 108.55 96.2 111.6 94.6 112.6 92.95 113.65 90.05 113.65 86.7 113.65 84.85 112.1 83 110.65 81.5 107.7
L 75.2 112.65
Q 77.5 117.25 81.5 119.15 85.55 121.05 90.45 121.05 93.25 121.05 95.95 120.25 98.4 119.45 100.4 117.85 102.3 116.3 103.4 113.95 104.5 111.7 104.5 108.65 104.5 105.5 103.9 103.45 103.35 101.5 102.25 100.05 101.2 98.65 99.75 97.55
L 96.45 95.3
Q 95.45 94.55 93.6 93.7 91.7 92.8 89.8 91.65 87.9 90.5 86.45 89.1 85.05 87.6 85.05 86.15 85.05 83.65 86.35 82.6 87.65 81.6 90.15 81.6 91.3 81.6 92.5 82.05 93.8 82.6 94.85 83.25 95.95 83.9 97 84.8 98.15 85.75 98.7 86.45
L 103.45 80.25
Q 102.4 79 100.7 77.7 99.1 76.5 97.55 75.8 Z"/>
</g>

<g id="CM_300x250_Generic_psd_Asset_Frame_2_Make_your_postgame_ritual_chocolate_milk__0_Layer0_0_MEMBER_11_FILL">
<path fill="#FFFFFF" stroke="none" d="
M 109.2 82.3
L 120.35 82.3 120.35 120.5 128.65 120.5 128.65 82.3 139.85 82.3 139.85 74.9 109.2 74.9 109.2 82.3 Z"/>
</g>

<g id="CM_300x250_Generic_psd_Asset_Frame_2_Make_your_postgame_ritual_chocolate_milk__0_Layer0_0_MEMBER_12_FILL">
<path fill="#FFFFFF" stroke="none" d="
M 174.4 80.8
Q 171.95 77.55 168.7 75.9 165.35 74.25 160.6 74.25 157.35 74.25 154.55 75.2 151.75 76.15 149.6 78 147.5 79.8 146.3 82.4 145.1 84.95 145.1 88.2
L 145.1 107.2
Q 145.1 110.6 146.3 113.2 147.4 115.75 149.55 117.6 151.6 119.35 154.45 120.25 157.3 121.15 160.65 121.15 164.95 121.15 168.45 119.7 172.2 118.15 175.3 115.4
L 175.3 95.3 159.85 95.3 159.85 102 167.1 102 167.1 111.85
Q 165.4 113.15 164.05 113.45 162.65 113.8 160.65 113.8 157.35 113.8 155.2 112.2 153.15 110.55 153.15 107.2
L 153.15 88.2
Q 153.15 85.05 155.3 83.35 157.5 81.6 160.6 81.6 163.15 81.6 165.3 83.1 167.6 84.55 169.25 86.5
L 174.4 80.8 Z"/>
</g>

<g id="CM_300x250_Generic_psd_Asset_Frame_2_Make_your_postgame_ritual_chocolate_milk__0_Layer0_0_MEMBER_13_FILL">
<path fill="#FFFFFF" stroke="none" d="
M 203.4 74.75
L 193.2 74.75 181 120.5 189.5 120.5 192.2 109.7 204.2 109.7 206.8 120.5 215.25 120.5 203.4 74.75
M 202.45 103
L 193.95 103 198.2 83.2 202.45 103 Z"/>
</g>

<g id="CM_300x250_Generic_psd_Asset_Frame_2_Make_your_postgame_ritual_chocolate_milk__0_Layer0_0_MEMBER_14_FILL">
<path fill="#FFFFFF" stroke="none" d="
M 260.05 74.9
L 249.65 74.9 240.95 98.05 232.4 74.9 221.95 74.9 221.95 120.5 229.35 120.5 229.35 84.3 239.05 112.05 243.35 112.05 252.7 84.2 252.7 120.5 260.05 120.5 260.05 74.9 Z"/>
</g>

<g id="CM_300x250_Generic_psd_Asset_Frame_2_Make_your_postgame_ritual_chocolate_milk__0_Layer0_0_MEMBER_15_FILL">
<path fill="#FFFFFF" stroke="none" d="
M 276.7 93.9
L 276.7 82.3 291.1 82.3 291.1 74.9 268.65 74.9 268.65 120.5 292.25 120.5 292.25 113.1 276.7 113.1 276.7 100.9 288.85 100.9 288.85 93.9 276.7 93.9 Z"/>
</g>

<g id="CM_300x250_Generic_psd_Asset_Frame_2_Make_your_postgame_ritual_chocolate_milk__0_Layer0_0_MEMBER_16_FILL">
<path fill="#FFFFFF" stroke="none" d="
M 342.1 77.7
Q 339 74.9 332.95 74.9
L 317.65 74.9 317.65 120.5 326 120.5 326 102 329.8 102 338.35 120.5 346.8 120.5 337.85 101.1
Q 341.35 99.8 343.3 97.3 345.25 94.9 345.25 90.95
L 345.25 86.55
Q 345.25 80.55 342.1 77.7
M 336 83.3
Q 336.9 84.35 336.9 86.5
L 336.9 90.85
Q 336.9 92.8 335.85 93.7 334.8 94.6 332.95 94.6
L 326 94.6 326 82.3 332.9 82.3
Q 335.05 82.3 336 83.3 Z"/>
</g>

<g id="CM_300x250_Generic_psd_Asset_Frame_2_Make_your_postgame_ritual_chocolate_milk__0_Layer0_0_MEMBER_17_FILL">
<path fill="#FFFFFF" stroke="none" d="
M 362.9 74.9
L 354.6 74.9 354.6 120.5 362.9 120.5 362.9 74.9 Z"/>
</g>

<g id="CM_300x250_Generic_psd_Asset_Frame_2_Make_your_postgame_ritual_chocolate_milk__0_Layer0_0_MEMBER_18_FILL">
<path fill="#FFFFFF" stroke="none" d="
M 370.35 82.3
L 381.5 82.3 381.5 120.5 389.8 120.5 389.8 82.3 401 82.3 401 74.9 370.35 74.9 370.35 82.3 Z"/>
</g>

<g id="CM_300x250_Generic_psd_Asset_Frame_2_Make_your_postgame_ritual_chocolate_milk__0_Layer0_0_MEMBER_19_FILL">
<path fill="#FFFFFF" stroke="none" d="
M 439.2 74.9
L 430.9 74.9 430.9 106.75
Q 430.9 110.35 428.85 112.1 426.75 113.8 423.25 113.8 419.8 113.8 417.7 112.1 415.75 110.4 415.75 106.75
L 415.75 74.9 407.4 74.9 407.4 106.75
Q 407.4 110.25 408.55 113 409.65 115.7 411.8 117.55 413.9 119.35 416.85 120.25 419.8 121.15 423.3 121.15 426.9 121.15 429.8 120.25 432.75 119.25 434.8 117.5 436.95 115.55 438.05 113 439.2 110.25 439.2 106.75
L 439.2 74.9 Z"/>
</g>

<g id="CM_300x250_Generic_psd_Asset_Frame_2_Make_your_postgame_ritual_chocolate_milk__0_Layer0_0_MEMBER_20_FILL">
<path fill="#FFFFFF" stroke="none" d="
M 466.85 74.75
L 456.65 74.75 444.45 120.5 452.95 120.5 455.65 109.7 467.65 109.7 470.25 120.5 478.7 120.5 466.85 74.75
M 465.9 103
L 457.4 103 461.7 83.2 465.9 103 Z"/>
</g>

<g id="CM_300x250_Generic_psd_Asset_Frame_2_Make_your_postgame_ritual_chocolate_milk__0_Layer0_0_MEMBER_21_FILL">
<path fill="#FFFFFF" stroke="none" d="
M 510.4 113.1
L 493.5 113.1 493.5 74.9 485.45 74.9 485.45 120.5 510.4 120.5 510.4 113.1 Z"/>
</g>

<g id="CM_300x250_Generic_psd_Asset_Frame_2_Make_your_postgame_ritual_chocolate_milk__0_Layer0_0_MEMBER_22_FILL">
<path fill="#FFFFFF" stroke="none" d="
M 17.95 146.45
Q 14.6 146.45 11.95 147.4 9.2 148.4 7.2 150.2 5.15 152 4.05 154.6 2.95 157.1 2.95 160.4
L 2.95 179.45
Q 2.95 186.3 7.05 189.85 11.2 193.4 18.05 193.4 22.1 193.4 25.2 192 28.3 190.65 31.2 187.7
L 26.3 181.85 24.5 183.55
Q 23.85 184.2 22.75 184.85 21.95 185.4 20.7 185.7 19.6 186 18.05 186 11.25 186 11.25 179.45
L 11.25 160.4
Q 11.25 157.2 13.05 155.55 14.9 153.8 17.95 153.8 21.1 153.9 23.1 155.3 25.2 156.75 26.1 158.25
L 31.4 153.1
Q 30.25 151.35 28.8 150 27.45 148.75 25.8 147.9 24.1 147.1 22.3 146.8 20.5 146.45 17.95 146.45 Z"/>
</g>

<g id="CM_300x250_Generic_psd_Asset_Frame_2_Make_your_postgame_ritual_chocolate_milk__0_Layer0_0_MEMBER_23_FILL">
<path fill="#FFFFFF" stroke="none" d="
M 69.9 147.1
L 61.7 147.1 61.7 166.9 47.35 166.9 47.35 147.1 39.3 147.1 39.3 192.7 47.35 192.7 47.35 174.25 61.7 174.25 61.7 192.7 69.9 192.7 69.9 147.1 Z"/>
</g>

<g id="CM_300x250_Generic_psd_Asset_Frame_2_Make_your_postgame_ritual_chocolate_milk__0_Layer0_0_MEMBER_24_FILL">
<path fill="#FFFFFF" stroke="none" d="
M 77.65 179.45
Q 77.65 183 78.8 185.45 80.05 188.15 82.1 189.85 84.25 191.7 87.1 192.5 89.95 193.4 93.4 193.4
L 94.25 193.4
Q 97.6 193.4 100.45 192.5 103.3 191.6 105.4 189.8 107.55 188.05 108.75 185.45 109.95 182.85 109.95 179.45
L 109.95 160.35
Q 109.95 157 108.7 154.45 107.55 151.95 105.35 150.1 103.25 148.3 100.4 147.4 97.6 146.45 94.25 146.45
L 93.3 146.45
Q 90 146.45 87.2 147.4 84.5 148.3 82.2 150.15 80.1 151.95 78.85 154.55 77.65 157.1 77.65 160.35
L 77.65 179.45
M 94.25 153.8
Q 97.35 153.8 99.5 155.55 101.65 157.2 101.65 160.4
L 101.65 179.45
Q 101.65 182.85 99.65 184.45 97.75 186 94.25 186
L 93.4 186
Q 90 186 88 184.45 85.95 182.9 85.95 179.45
L 85.95 160.35
Q 85.95 157.15 88.05 155.5 90.2 153.8 93.3 153.8
L 94.25 153.8 Z"/>
</g>

<g id="CM_300x250_Generic_psd_Asset_Frame_2_Make_your_postgame_ritual_chocolate_milk__0_Layer0_0_MEMBER_25_FILL">
<path fill="#FFFFFF" stroke="none" d="
M 131.8 146.45
Q 128.45 146.45 125.75 147.4 123.05 148.35 121 150.2 118.9 152.05 117.9 154.6 116.8 157.1 116.8 160.4
L 116.8 179.45
Q 116.8 186.35 120.9 189.85 125.05 193.4 131.85 193.4 135.95 193.4 139.05 192 142.2 190.65 145 187.7
L 140.1 181.85 138.3 183.55
Q 137.55 184.3 136.6 184.85 135.85 185.35 134.55 185.7 133.45 186 131.85 186 125.1 186 125.1 179.45
L 125.1 160.4
Q 125.1 157.25 126.85 155.55 128.7 153.8 131.8 153.8 134.85 153.9 136.95 155.3 139.05 156.8 139.9 158.25
L 145.2 153.1
Q 143.95 151.25 142.65 150 141.25 148.75 139.65 147.9 137.8 147.05 136.1 146.8 134.35 146.45 131.8 146.45 Z"/>
</g>

<g id="CM_300x250_Generic_psd_Asset_Frame_2_Make_your_postgame_ritual_chocolate_milk__0_Layer0_0_MEMBER_26_FILL">
<path fill="#FFFFFF" stroke="none" d="
M 173.6 147.4
Q 170.8 146.45 167.5 146.45
L 166.55 146.45
Q 163.2 146.45 160.4 147.4 157.65 148.35 155.45 150.15 153.25 152.05 152.1 154.55 150.85 157.05 150.85 160.35
L 150.85 179.45
Q 150.85 182.9 152.05 185.45 153.2 188.1 155.3 189.85 157.4 191.65 160.3 192.5 163.25 193.4 166.6 193.4
L 167.5 193.4
Q 170.85 193.4 173.7 192.5 176.55 191.6 178.65 189.8 180.75 188 181.95 185.45 183.2 182.7 183.2 179.45
L 183.2 160.35
Q 183.2 157.2 181.95 154.45 180.65 151.85 178.6 150.1 176.55 148.35 173.6 147.4
M 172.75 155.55
Q 174.85 157.2 174.85 160.4
L 174.85 179.45
Q 174.85 182.9 172.9 184.45 170.9 186 167.5 186
L 166.6 186
Q 163.25 186 161.2 184.45 159.15 182.85 159.15 179.45
L 159.15 160.35
Q 159.15 157.15 161.3 155.5 163.45 153.8 166.55 153.8
L 167.5 153.8
Q 170.6 153.8 172.75 155.55 Z"/>
</g>

<g id="CM_300x250_Generic_psd_Asset_Frame_2_Make_your_postgame_ritual_chocolate_milk__0_Layer0_0_MEMBER_27_FILL">
<path fill="#FFFFFF" stroke="none" d="
M 199 147.1
L 190.95 147.1 190.95 192.7 215.9 192.7 215.9 185.35 199 185.35 199 147.1 Z"/>
</g>

<g id="CM_300x250_Generic_psd_Asset_Frame_2_Make_your_postgame_ritual_chocolate_milk__0_Layer0_0_MEMBER_28_FILL">
<path fill="#FFFFFF" stroke="none" d="
M 229.4 192.7
L 232.1 181.9 244.1 181.9 246.7 192.7 255.15 192.7 243.3 147 233.1 147 220.9 192.7 229.4 192.7
M 242.35 175.2
L 233.85 175.2 238.1 155.45 242.35 175.2 Z"/>
</g>

<g id="CM_300x250_Generic_psd_Asset_Frame_2_Make_your_postgame_ritual_chocolate_milk__0_Layer0_0_MEMBER_29_FILL">
<path fill="#FFFFFF" stroke="none" d="
M 254.8 154.5
L 265.95 154.5 265.95 192.7 274.25 192.7 274.25 154.5 285.45 154.5 285.45 147.1 254.8 147.1 254.8 154.5 Z"/>
</g>

<g id="CM_300x250_Generic_psd_Asset_Frame_2_Make_your_postgame_ritual_chocolate_milk__0_Layer0_0_MEMBER_30_FILL">
<path fill="#FFFFFF" stroke="none" d="
M 314.35 147.1
L 291.9 147.1 291.9 192.7 315.5 192.7 315.5 185.35 299.9 185.35 299.9 173.15 312.05 173.15 312.05 166.1 299.9 166.1 299.9 154.5 314.35 154.5 314.35 147.1 Z"/>
</g>

<g id="CM_300x250_Generic_psd_Asset_Frame_2_Make_your_postgame_ritual_chocolate_milk__0_Layer0_0_MEMBER_31_FILL">
<path fill="#FFFFFF" stroke="none" d="
M 379.05 147.1
L 368.65 147.1 359.95 170.25 351.4 147.1 340.95 147.1 340.95 192.7 348.35 192.7 348.35 156.5 358.05 184.25 362.35 184.25 371.7 156.45 371.7 192.7 379.05 192.7 379.05 147.1 Z"/>
</g>

<g id="CM_300x250_Generic_psd_Asset_Frame_2_Make_your_postgame_ritual_chocolate_milk__0_Layer0_0_MEMBER_32_FILL">
<path fill="#FFFFFF" stroke="none" d="
M 397 147.1
L 388.7 147.1 388.7 192.7 397 192.7 397 147.1 Z"/>
</g>

<g id="CM_300x250_Generic_psd_Asset_Frame_2_Make_your_postgame_ritual_chocolate_milk__0_Layer0_0_MEMBER_33_FILL">
<path fill="#FFFFFF" stroke="none" d="
M 414.75 147.1
L 406.7 147.1 406.7 192.7 431.65 192.7 431.65 185.35 414.75 185.35 414.75 147.1 Z"/>
</g>

<g id="CM_300x250_Generic_psd_Asset_Frame_2_Make_your_postgame_ritual_chocolate_milk__0_Layer0_0_MEMBER_34_FILL">
<path fill="#FFFFFF" stroke="none" d="
M 469.45 147.1
L 459.5 147.1 446.35 164.3 446.35 147.1 438.05 147.1 438.05 192.7 446.35 192.7 446.35 177.1 447.85 174.7 460.3 192.7 470.7 192.7 453.15 167.95 469.45 147.1 Z"/>
</g>

<g id="CM_300x250_Generic_psd_Asset_Frame_2_Make_your_postgame_ritual_chocolate_milk__0_Layer0_0_MEMBER_35_FILL">
<path fill="#FFFFFF" stroke="none" d="
M 476.6 183.65
L 476.6 192.7 485.15 192.7 485.15 183.65 476.6 183.65 Z"/>
</g>
</defs>

<g transform="matrix( 1, 0, 0, 1, 30,42) ">
<g transform="matrix( 1, 0, 0, 1, 0,0) ">
<g transform="matrix( 0.38568115234375, 0, 0, 0.3877105712890625, -1,-0.45) ">
<use xlink:href="#CM_300x250_Generic_psd_Asset_Frame_2_Make_your_postgame_ritual_chocolate_milk__0_Layer0_0_MEMBER_0_FILL"/>
</g>

<g transform="matrix( 0.38568115234375, 0, 0, 0.3877105712890625, -1,-0.45) ">
<use xlink:href="#CM_300x250_Generic_psd_Asset_Frame_2_Make_your_postgame_ritual_chocolate_milk__0_Layer0_0_MEMBER_1_FILL"/>
</g>

<g transform="matrix( 0.38568115234375, 0, 0, 0.3877105712890625, -1,-0.45) ">
<use xlink:href="#CM_300x250_Generic_psd_Asset_Frame_2_Make_your_postgame_ritual_chocolate_milk__0_Layer0_0_MEMBER_2_FILL"/>
</g>

<g transform="matrix( 0.38568115234375, 0, 0, 0.3877105712890625, -1,-0.45) ">
<use xlink:href="#CM_300x250_Generic_psd_Asset_Frame_2_Make_your_postgame_ritual_chocolate_milk__0_Layer0_0_MEMBER_3_FILL"/>
</g>

<g transform="matrix( 0.38568115234375, 0, 0, 0.3877105712890625, -1,-0.45) ">
<use xlink:href="#CM_300x250_Generic_psd_Asset_Frame_2_Make_your_postgame_ritual_chocolate_milk__0_Layer0_0_MEMBER_4_FILL"/>
</g>

<g transform="matrix( 0.38568115234375, 0, 0, 0.3877105712890625, -1,-0.45) ">
<use xlink:href="#CM_300x250_Generic_psd_Asset_Frame_2_Make_your_postgame_ritual_chocolate_milk__0_Layer0_0_MEMBER_5_FILL"/>
</g>

<g transform="matrix( 0.38568115234375, 0, 0, 0.3877105712890625, -1,-0.45) ">
<use xlink:href="#CM_300x250_Generic_psd_Asset_Frame_2_Make_your_postgame_ritual_chocolate_milk__0_Layer0_0_MEMBER_6_FILL"/>
</g>

<g transform="matrix( 0.38568115234375, 0, 0, 0.3877105712890625, -1,-0.45) ">
<use xlink:href="#CM_300x250_Generic_psd_Asset_Frame_2_Make_your_postgame_ritual_chocolate_milk__0_Layer0_0_MEMBER_7_FILL"/>
</g>

<g transform="matrix( 0.38568115234375, 0, 0, 0.3877105712890625, -1,-0.45) ">
<use xlink:href="#CM_300x250_Generic_psd_Asset_Frame_2_Make_your_postgame_ritual_chocolate_milk__0_Layer0_0_MEMBER_8_FILL"/>
</g>

<g transform="matrix( 0.38568115234375, 0, 0, 0.3877105712890625, -1,-0.45) ">
<use xlink:href="#CM_300x250_Generic_psd_Asset_Frame_2_Make_your_postgame_ritual_chocolate_milk__0_Layer0_0_MEMBER_9_FILL"/>
</g>

<g transform="matrix( 0.38568115234375, 0, 0, 0.3877105712890625, -1,-0.45) ">
<use xlink:href="#CM_300x250_Generic_psd_Asset_Frame_2_Make_your_postgame_ritual_chocolate_milk__0_Layer0_0_MEMBER_10_FILL"/>
</g>

<g transform="matrix( 0.38568115234375, 0, 0, 0.3877105712890625, -1,-0.45) ">
<use xlink:href="#CM_300x250_Generic_psd_Asset_Frame_2_Make_your_postgame_ritual_chocolate_milk__0_Layer0_0_MEMBER_11_FILL"/>
</g>

<g transform="matrix( 0.38568115234375, 0, 0, 0.3877105712890625, -1,-0.45) ">
<use xlink:href="#CM_300x250_Generic_psd_Asset_Frame_2_Make_your_postgame_ritual_chocolate_milk__0_Layer0_0_MEMBER_12_FILL"/>
</g>

<g transform="matrix( 0.38568115234375, 0, 0, 0.3877105712890625, -1,-0.45) ">
<use xlink:href="#CM_300x250_Generic_psd_Asset_Frame_2_Make_your_postgame_ritual_chocolate_milk__0_Layer0_0_MEMBER_13_FILL"/>
</g>

<g transform="matrix( 0.38568115234375, 0, 0, 0.3877105712890625, -1,-0.45) ">
<use xlink:href="#CM_300x250_Generic_psd_Asset_Frame_2_Make_your_postgame_ritual_chocolate_milk__0_Layer0_0_MEMBER_14_FILL"/>
</g>

<g transform="matrix( 0.38568115234375, 0, 0, 0.3877105712890625, -1,-0.45) ">
<use xlink:href="#CM_300x250_Generic_psd_Asset_Frame_2_Make_your_postgame_ritual_chocolate_milk__0_Layer0_0_MEMBER_15_FILL"/>
</g>

<g transform="matrix( 0.38568115234375, 0, 0, 0.3877105712890625, -1,-0.45) ">
<use xlink:href="#CM_300x250_Generic_psd_Asset_Frame_2_Make_your_postgame_ritual_chocolate_milk__0_Layer0_0_MEMBER_16_FILL"/>
</g>

<g transform="matrix( 0.38568115234375, 0, 0, 0.3877105712890625, -1,-0.45) ">
<use xlink:href="#CM_300x250_Generic_psd_Asset_Frame_2_Make_your_postgame_ritual_chocolate_milk__0_Layer0_0_MEMBER_17_FILL"/>
</g>

<g transform="matrix( 0.38568115234375, 0, 0, 0.3877105712890625, -1,-0.45) ">
<use xlink:href="#CM_300x250_Generic_psd_Asset_Frame_2_Make_your_postgame_ritual_chocolate_milk__0_Layer0_0_MEMBER_18_FILL"/>
</g>

<g transform="matrix( 0.38568115234375, 0, 0, 0.3877105712890625, -1,-0.45) ">
<use xlink:href="#CM_300x250_Generic_psd_Asset_Frame_2_Make_your_postgame_ritual_chocolate_milk__0_Layer0_0_MEMBER_19_FILL"/>
</g>

<g transform="matrix( 0.38568115234375, 0, 0, 0.3877105712890625, -1,-0.45) ">
<use xlink:href="#CM_300x250_Generic_psd_Asset_Frame_2_Make_your_postgame_ritual_chocolate_milk__0_Layer0_0_MEMBER_20_FILL"/>
</g>

<g transform="matrix( 0.38568115234375, 0, 0, 0.3877105712890625, -1,-0.45) ">
<use xlink:href="#CM_300x250_Generic_psd_Asset_Frame_2_Make_your_postgame_ritual_chocolate_milk__0_Layer0_0_MEMBER_21_FILL"/>
</g>

<g transform="matrix( 0.38568115234375, 0, 0, 0.3877105712890625, -1,-0.45) ">
<use xlink:href="#CM_300x250_Generic_psd_Asset_Frame_2_Make_your_postgame_ritual_chocolate_milk__0_Layer0_0_MEMBER_22_FILL"/>
</g>

<g transform="matrix( 0.38568115234375, 0, 0, 0.3877105712890625, -1,-0.45) ">
<use xlink:href="#CM_300x250_Generic_psd_Asset_Frame_2_Make_your_postgame_ritual_chocolate_milk__0_Layer0_0_MEMBER_23_FILL"/>
</g>

<g transform="matrix( 0.38568115234375, 0, 0, 0.3877105712890625, -1,-0.45) ">
<use xlink:href="#CM_300x250_Generic_psd_Asset_Frame_2_Make_your_postgame_ritual_chocolate_milk__0_Layer0_0_MEMBER_24_FILL"/>
</g>

<g transform="matrix( 0.38568115234375, 0, 0, 0.3877105712890625, -1,-0.45) ">
<use xlink:href="#CM_300x250_Generic_psd_Asset_Frame_2_Make_your_postgame_ritual_chocolate_milk__0_Layer0_0_MEMBER_25_FILL"/>
</g>

<g transform="matrix( 0.38568115234375, 0, 0, 0.3877105712890625, -1,-0.45) ">
<use xlink:href="#CM_300x250_Generic_psd_Asset_Frame_2_Make_your_postgame_ritual_chocolate_milk__0_Layer0_0_MEMBER_26_FILL"/>
</g>

<g transform="matrix( 0.38568115234375, 0, 0, 0.3877105712890625, -1,-0.45) ">
<use xlink:href="#CM_300x250_Generic_psd_Asset_Frame_2_Make_your_postgame_ritual_chocolate_milk__0_Layer0_0_MEMBER_27_FILL"/>
</g>

<g transform="matrix( 0.38568115234375, 0, 0, 0.3877105712890625, -1,-0.45) ">
<use xlink:href="#CM_300x250_Generic_psd_Asset_Frame_2_Make_your_postgame_ritual_chocolate_milk__0_Layer0_0_MEMBER_28_FILL"/>
</g>

<g transform="matrix( 0.38568115234375, 0, 0, 0.3877105712890625, -1,-0.45) ">
<use xlink:href="#CM_300x250_Generic_psd_Asset_Frame_2_Make_your_postgame_ritual_chocolate_milk__0_Layer0_0_MEMBER_29_FILL"/>
</g>

<g transform="matrix( 0.38568115234375, 0, 0, 0.3877105712890625, -1,-0.45) ">
<use xlink:href="#CM_300x250_Generic_psd_Asset_Frame_2_Make_your_postgame_ritual_chocolate_milk__0_Layer0_0_MEMBER_30_FILL"/>
</g>

<g transform="matrix( 0.38568115234375, 0, 0, 0.3877105712890625, -1,-0.45) ">
<use xlink:href="#CM_300x250_Generic_psd_Asset_Frame_2_Make_your_postgame_ritual_chocolate_milk__0_Layer0_0_MEMBER_31_FILL"/>
</g>

<g transform="matrix( 0.38568115234375, 0, 0, 0.3877105712890625, -1,-0.45) ">
<use xlink:href="#CM_300x250_Generic_psd_Asset_Frame_2_Make_your_postgame_ritual_chocolate_milk__0_Layer0_0_MEMBER_32_FILL"/>
</g>

<g transform="matrix( 0.38568115234375, 0, 0, 0.3877105712890625, -1,-0.45) ">
<use xlink:href="#CM_300x250_Generic_psd_Asset_Frame_2_Make_your_postgame_ritual_chocolate_milk__0_Layer0_0_MEMBER_33_FILL"/>
</g>

<g transform="matrix( 0.38568115234375, 0, 0, 0.3877105712890625, -1,-0.45) ">
<use xlink:href="#CM_300x250_Generic_psd_Asset_Frame_2_Make_your_postgame_ritual_chocolate_milk__0_Layer0_0_MEMBER_34_FILL"/>
</g>

<g transform="matrix( 0.38568115234375, 0, 0, 0.3877105712890625, -1,-0.45) ">
<use xlink:href="#CM_300x250_Generic_psd_Asset_Frame_2_Make_your_postgame_ritual_chocolate_milk__0_Layer0_0_MEMBER_35_FILL"/>
</g>
</g>
</g>
</svg>
